#trigger for defend demon hills, deprecated
#any_known_country = {
#	war_with = ROOT
#	ROOT = {
#		NOT = {
#			army_strength = {
#				who = PREV
#				value = 0.66
#			}
#		}
#	}
#}

#Shinukhorchi
estate_shinukhorchi_cast_magic = {
	icon = privilege_tolerance_heathen
	max_absolutism = 0
	loyalty = 0
	is_valid = {
		NOT = { has_country_flag = remove_azjakuma_casting_spells }
	}

	on_granted = {
		country_event = {
			id = flavor_azjakuma.1250
			days = 0
		}
	}
	on_invalid = {
		clr_country_flag = remove_azjakuma_casting_spells
	}	

	cooldown_years = 5
	on_cooldown_expires = {
		set_country_flag = remove_azjakuma_casting_spells
	}
}
estate_shinukhorchi_supremacy = {
	icon = privilege_empty_throne
	max_absolutism = -10
	influence = 0.1
	loyalty = 0.1
	is_valid = {
		has_dlc = "Emperor"
	}
	penalties = {
	}
	benefits = {
		chumijemoya_loyalty_modifier = 0.1
		ajgriijarul_loyalty_modifier = 0.1
		kabiurgarko_loyalty_modifier = 0.1
		khelorvalshi_loyalty_modifier = 0.1
		chumijemoya_influence_modifier = 0.1
		ajgriijarul_influence_modifier = 0.1
		kabiurgarko_influence_modifier = 0.1
		khelorvalshi_influence_modifier = 0.1
		adventurers_loyalty_modifier = 0.1
		adventurers_influence_modifier = 0.1
		artificers_loyalty_modifier = 0.1
		artificers_influence_modifier = 0.1
	}
	mechanics = {
		can_give_agendas_without_interaction
	}
	ai_will_do = {
		factor = 0
	}
}
estate_shinukhorchi_land_rights = {
	icon = privilege_grant_autonomy
	land_share = 5
	max_absolutism = -5
	loyalty = 0.05
	influence = 0.05
	can_select = {
	}
	on_granted = {
	}
	penalties = {
	}
	benefits = {
		governing_capacity = 100
	}
	ai_will_do = {
		factor = 5
		modifier = {
			factor = 1.4
			num_of_territories = 5
		}
		modifier = {
			factor = 1.5
			num_of_territories = 10
		}
		modifier = {
			factor = 1.5
			num_of_territories = 15
		}
		modifier = {
			factor = 0
			OR = {
				NOT = { crown_land_share = 25 }
				estate_influence = {
					estate = estate_shinukhorchi
					influence = 75
				}
			}
			NOT = { has_estate_privilege = estate_shinukhorchi_land_rights }
		}
		modifier = {
			factor = 0
			NOT = { governing_capacity_percentage = 0.5 }
		}
		modifier = {
			factor = 0.8
			OR = {
				NOT = { crown_land_share = 40 }
				AND = {
					is_absolutism_active = yes
					NOT = { crown_land_share = 60 }
				}
			}
			NOT = { has_estate_privilege = estate_shinukhorchi_land_rights }
		}
		modifier = {
			factor = 0.8
			OR = {
				NOT = { crown_land_share = 30 }
				AND = {
					is_absolutism_active = yes
					NOT = { crown_land_share = 50 }
				}
			}
			NOT = { has_estate_privilege = estate_shinukhorchi_land_rights }
		}
		modifier = {
			factor = 3
			OR = {
				AND = {
					governing_capacity_percentage = 0.9
					NOT = { has_estate_privilege = estate_shinukhorchi_land_rights }
				}
				#The trigger below should make sure that the AI actually keeps this privilege when enacting it early game
				AND = {
					governing_capacity_percentage = 0.6
					has_estate_privilege = estate_shinukhorchi_land_rights
				}
			}
		}
		modifier = {
			factor = 0.8
			is_absolutism_active = yes
		}
		modifier = {
			factor = 2
			governing_capacity_percentage = 0.9
		}
		modifier = {
			factor = 3
			governing_capacity_percentage = 1
		}
		modifier = {
			factor = 10
			governing_capacity_percentage = 1.2
		}
		modifier = {
			factor = 8
			NOT = { adm_tech = 12 }
			governing_capacity_percentage = 0.8
		}
		modifier = {
			factor = 5
			NOT = { adm_tech = 12 }
			NOT = { government_rank = 1 }
			governing_capacity_percentage = 0.65
		}
		modifier = {
			factor = 0.75
			has_estate_privilege = estate_ajgriijarul_land_rights
		}
		modifier = {
			factor = 0.75
			has_estate_privilege = estate_kabiurgarko_land_rights
		}
		modifier = {
			factor = 0.75
			has_estate_privilege = estate_khelorvalshi_land_rights
		}
		modifier = {
			factor = 0.75
			has_estate_privilege = estate_adventurers_ennoblement_of_adventurers
		}
	}
}
estate_shinukhorchi_advisors = {
	icon = privilege_recruit_minister
	max_absolutism = -5
	influence = 0.1
	loyalty = 0.05
	penalties = {
		stability_cost_modifier = 0.1
	}
	benefits = {
		adm_advisor_cost = -0.20
	}
	ai_will_do = {
		factor = 10
		modifier = {
			factor = 0.5
			is_absolutism_active = yes
		}
		modifier = {
			factor = 1.25
			NOT = { adm = 2 }
		}
		modifier = {
			factor = 0.8
			adm = 5
		}
	}
}
estate_shinukhorchi_monthly_power_adm = {
	icon = privilege_admin_power
	land_share = 10
	max_absolutism = -5
	loyalty = -0.05
	can_select = {
	}
	on_granted = {
	}
	penalties = {
	}
	benefits = {
		country_admin_power = 1
	}
	ai_will_do = {
		factor = 10
		modifier = {
			factor = 0
			OR = {
				NOT = { crown_land_share = 30 }
				estate_influence = {
					estate = estate_shinukhorchi
					influence = 75
				}
			}
			NOT = { has_estate_privilege = estate_shinukhorchi_monthly_power_adm }
		}
		modifier = {
			factor = 0.8
			OR = {
				NOT = { crown_land_share = 35 }
				AND = {
					is_absolutism_active = yes
					NOT = { crown_land_share = 55 }
				}
			}
			NOT = { has_estate_privilege = estate_shinukhorchi_monthly_power_adm }
		}
		modifier = {
			factor = 0.8
			is_absolutism_active = yes
		}
		modifier = {
			factor = 1.25
			NOT = { adm = 2 }
		}
		modifier = {
			factor = 0.8
			adm = 5
		}
	}
}
estate_shinukhorchi_monopoly_of_damestear = {
	icon = privilege_monopoly_of_goods_damestear
	max_absolutism = -10
	loyalty = 0.1
	is_valid = {
		has_dlc = "Emperor"
		any_owned_province = {
			trade_goods = damestear
		}
	}
	can_select = {
		custom_trigger_tooltip = {
			tooltip = unavailable_during_revolution_disaster
			NOT = { has_disaster = revolution }
			NOT = {
				has_disaster_progress = {
					disaster = revolution
					value = 1
				}
			}
		}
	}
	on_granted = {
		add_mercantilism = 1
		add_years_of_owned_provinces_production_income = {
			years = 8
			trigger = {
				trade_goods = damestear
			}
			custom_tooltip = MONOPOLY_INCOME_DAMESTEAR_DESC
		}
		custom_tooltip = estate_mages_monopoly_of_damestear_effect_tooltip
	}
	on_granted_province = {
		if = {
			limit = {
				trade_goods = damestear
			}
			add_province_modifier = {
				name = estate_shinukhorchi_monopoly_of_damestear_mod
				duration = -1
			}
		}
		else_if = {
			limit = {
				has_province_modifier = estate_shinukhorchi_monopoly_of_damestear_mod
			}
			remove_province_modifier = estate_shinukhorchi_monopoly_of_damestear_mod
		}
	}
	on_revoked = {
		custom_tooltip = estate_mages_monopoly_of_damestear_revoke_tooltip
	}
	on_revoked_province = {
		if = {
			limit = {
				has_province_modifier = estate_shinukhorchi_monopoly_of_damestear_mod
			}
			remove_province_modifier = estate_shinukhorchi_monopoly_of_damestear_mod
		}
	}
	on_invalid = {
		custom_tooltip = estate_mages_monopoly_of_damestear_revoke_tooltip
	}
	on_invalid_province = {
		if = {
			limit = {
				has_province_modifier = estate_shinukhorchi_monopoly_of_damestear_mod
			}
			remove_province_modifier = estate_shinukhorchi_monopoly_of_damestear_mod
		}
	}
	penalties = {
	}
	benefits = {
	}
	cooldown_years = 10
	on_cooldown_expires = {
		country_event = { id = monopoly_privileges.12 }
	}
	ai_will_do = { #having the AI use these could lead to an unstoppable downwards spiral if it can't work out how to get rid of them
		factor = 0
	}
}
estate_shinukhorchi_inwards_perfection = {
	icon = privilege_grant_autonomy
	max_absolutism = -5
	influence = 0.1
	loyalty = 0.05
	can_select = {
		NOT = { is_at_war = yes }
	}
	on_granted = {
	}
	penalties = {
		stability_cost_to_declare_war = 1
	}
	benefits = {
		improve_relation_modifier = 0.2
	}
	cooldown_years = 10
	ai_will_do = {
		factor = 0 #maybe add something in if they have high ae
	}
}
#statutory rights
estate_shinukhorchi_statutory_rights = {
	icon = privilege_grant_autonomy
	max_absolutism = -5
	influence = 0.1
	is_valid = {
		has_estate_privilege = estate_shinukhorchi_statutory_rights
	}
	on_granted = {
		change_estate_land_share = {
			estate = all
			share = -30
		}
	}
	penalties = {
		min_autonomy = 25
	}
	benefits = {
	}
	ai_will_do = {
		factor = 0
	}

	cooldown_years = 20
}

#Chumijemoya
estate_chumijemoya_monopoly_of_incense = {
	icon = privilege_monopoly_of_goods_incence
	max_absolutism = -10
	loyalty = 0.1
	is_valid = {
		has_dlc = "Emperor"
		any_owned_province = {
			trade_goods = incense
		}
	}
	can_select = {
		custom_trigger_tooltip = {
			tooltip = unavailable_during_revolution_disaster
			NOT = { has_disaster = revolution }
			NOT = {
				has_disaster_progress = {
					disaster = revolution
					value = 1
				}
			}
		}
	}
	on_granted = {
		add_mercantilism = 1
		add_years_of_owned_provinces_production_income = {
			years = 8
			trigger = {
				trade_goods = incense
			}
			custom_tooltip = MONOPOLY_INCOME_INCENSE_DESC
		}
		custom_tooltip = estate_chumijemoya_monopoly_of_incense_effect_tooltip
	}
	on_granted_province = {
		if = {
			limit = {
				trade_goods = incense
			}
			add_province_modifier = {
				name = estate_chumijemoya_monopoly_of_incense_mod
				duration = -1
			}
		}
		else_if = {
			limit = {
				has_province_modifier = estate_chumijemoya_monopoly_of_incense_mod
			}
			remove_province_modifier = estate_chumijemoya_monopoly_of_incense_mod
		}
	}
	on_revoked = {
		custom_tooltip = estate_chumijemoya_monopoly_of_incense_revoke_tooltip
	}
	on_revoked_province = {
		if = {
			limit = {
				has_province_modifier = estate_chumijemoya_monopoly_of_incense_mod
			}
			remove_province_modifier = estate_chumijemoya_monopoly_of_incense_mod
		}
	}
	on_invalid = {
		custom_tooltip = estate_chumijemoya_monopoly_of_incense_revoke_tooltip
	}
	on_invalid_province = {
		if = {
			limit = {
				has_province_modifier = estate_chumijemoya_monopoly_of_incense_mod
			}
			remove_province_modifier = estate_chumijemoya_monopoly_of_incense_mod
		}
	}
	penalties = {
	}
	benefits = {
	}
	cooldown_years = 10
	on_cooldown_expires = {
		country_event = { id = monopoly_privileges.16 }
	}
	ai_will_do = { #having the AI use these could lead to an unstoppable downwards spiral if it can't work out how to get rid of them
		factor = 0
	}
}
estate_chumijemoya_secret_police = {
	icon = privilege_promote_purbias
	land_share = 0
	max_absolutism = 0
	influence = 0.1
	is_valid = {
	}
	can_select = {
	}
	on_granted = {
		custom_tooltip = estate_chumijemoya_secret_police_tooltip
	}
	penalties = {
		global_unrest = 0.5
	}
	benefits = { }
	conditional_modifier = {
		trigger = {
			has_dlc = "Dharma"
		}
		modifier = {
			global_rebel_suppression_efficiency = 0.5
			harsh_treatment_cost = -0.2
		}
		is_bad = no
	}
	conditional_modifier = {
		trigger = {
			NOT = { has_dlc = "Dharma" }
		}
		modifier = {
			harsh_treatment_cost = -0.4
		}
		is_bad = no
	}
	ai_will_do = {
		factor = 0
	}
}
estate_chumijemoya_advisors = {
	icon = privilege_promote_purbias
	land_share = 0
	max_absolutism = -5
	influence = 0.1
	is_valid = {
	}
	can_select = {
	}
	on_granted = {
		custom_tooltip = estate_chumijemoya_advisors_tooltip
	}
	penalties = {
		diplomatic_reputation = -1 #kidnapping people and shit, like north korea kidnapping filmmakers
	}
	benefits = {
		advisor_cost = -0.1
	}
	ai_will_do = {
		factor = 0
	}
}

estate_chumijemoya_spynetworks = {
	icon = privilege_better_integration
	max_absolutism = -5
	influence = 0.10
	loyalty = 0.10
	is_valid = {
	}

	can_select = {
	}
	on_granted = {
	}
	on_revoked = {
	}
	on_invalid = {
	}
	penalties = {
	}
	benefits = {
		spy_offence = 0.05
		fabricate_claims_cost = -0.25
	}
}


#Ajgriijarul
estate_ajgriijarul_land_rights = {
	icon = privilege_grant_autonomy
	land_share = 5
	max_absolutism = -5
	loyalty = 0.05
	influence = 0.05
	can_select = {
	}
	on_granted = {
	}
	penalties = {
	}
	benefits = {
		governing_capacity = 100
	}
	ai_will_do = {
		factor = 5
		modifier = {
			factor = 1.4
			num_of_territories = 5
		}
		modifier = {
			factor = 1.5
			num_of_territories = 10
		}
		modifier = {
			factor = 1.5
			num_of_territories = 15
		}
		modifier = {
			factor = 0
			OR = {
				NOT = { crown_land_share = 25 }
				estate_influence = {
					estate = estate_ajgriijarul
					influence = 75
				}
			}
			NOT = { has_estate_privilege = estate_ajgriijarul_land_rights }
		}
		modifier = {
			factor = 0
			NOT = { governing_capacity_percentage = 0.5 }
		}
		modifier = {
			factor = 0.8
			OR = {
				NOT = { crown_land_share = 40 }
				AND = {
					is_absolutism_active = yes
					NOT = { crown_land_share = 60 }
				}
			}
			NOT = { has_estate_privilege = estate_ajgriijarul_land_rights }
		}
		modifier = {
			factor = 0.8
			OR = {
				NOT = { crown_land_share = 30 }
				AND = {
					is_absolutism_active = yes
					NOT = { crown_land_share = 50 }
				}
			}
			NOT = { has_estate_privilege = estate_ajgriijarul_land_rights }
		}
		modifier = {
			factor = 3
			OR = {
				AND = {
					governing_capacity_percentage = 0.9
					NOT = { has_estate_privilege = estate_ajgriijarul_land_rights }
				}
				#The trigger below should make sure that the AI actually keeps this privilege when enacting it early game
				AND = {
					governing_capacity_percentage = 0.6
					has_estate_privilege = estate_ajgriijarul_land_rights
				}
			}
		}
		modifier = {
			factor = 0.8
			is_absolutism_active = yes
		}
		modifier = {
			factor = 2
			governing_capacity_percentage = 0.9
		}
		modifier = {
			factor = 3
			governing_capacity_percentage = 1
		}
		modifier = {
			factor = 10
			governing_capacity_percentage = 1.2
		}
		modifier = {
			factor = 8
			NOT = { adm_tech = 12 }
			governing_capacity_percentage = 0.8
		}
		modifier = {
			factor = 5
			NOT = { adm_tech = 12 }
			NOT = { government_rank = 1 }
			governing_capacity_percentage = 0.65
		}
		modifier = {
			factor = 0.75
			has_estate_privilege = estate_shinukhorchi_land_rights
		}
		modifier = {
			factor = 0.75
			has_estate_privilege = estate_kabiurgarko_land_rights
		}
		modifier = {
			factor = 0.75
			has_estate_privilege = estate_khelorvalshi_land_rights
		}
		modifier = {
			factor = 0.75
			has_estate_privilege = estate_adventurers_ennoblement_of_adventurers
		}
	}
}
estate_ajgriijarul_advisors = {
	icon = privilege_recruit_minister
	max_absolutism = -5
	influence = 0.1
	loyalty = 0.05
	penalties = {
		stability_cost_modifier = 0.1
	}
	benefits = {
		mil_advisor_cost = -0.20
	}
	ai_will_do = {
		factor = 10
		modifier = {
			factor = 0.5
			is_absolutism_active = yes
		}
		modifier = {
			factor = 1.25
			NOT = { mil = 2 }
		}
		modifier = {
			factor = 0.8
			mil = 5
		}
	}
}
estate_ajgriijarul_monthly_power_mil = {
	icon = privilege_military_power
	land_share = 10
	max_absolutism = -5
	loyalty = -0.05
	can_select = {
		#custom_trigger_tooltip = {
		#	tooltip = no_other_mil_privilege
		#}
	}
	on_granted = {
	}
	penalties = {
	}
	benefits = {
		country_military_power = 1
	}
	ai_will_do = {
		factor = 12
		modifier = {
			factor = 0
			OR = {
				NOT = { crown_land_share = 30 }
				estate_influence = {
					estate = estate_ajgriijarul
					influence = 75
				}
			}
			NOT = { has_estate_privilege = estate_ajgriijarul_monthly_power_mil }
		}
		modifier = {
			factor = 0.8
			OR = {
				NOT = { crown_land_share = 35 }
				AND = {
					is_absolutism_active = yes
					NOT = { crown_land_share = 55 }
				}
			}
			NOT = { has_estate_privilege = estate_ajgriijarul_monthly_power_mil }
		}
		modifier = {
			factor = 0.8
			is_absolutism_active = yes
		}
		modifier = {
			factor = 1.25
			NOT = { mil = 2 }
		}
		modifier = {
			factor = 0.8
			mil = 5
		}
	}
}
estate_ajgriijarul_monopoly_metals = {
	icon = privilege_monopoly_of_goods_iron
	max_absolutism = -10
	loyalty = 0.1
	is_valid = {
		has_dlc = "Emperor"
		any_owned_province = {
			OR = {
				trade_goods = iron
				trade_goods = copper
			}
		}
	}
	can_select = {
		custom_trigger_tooltip = {
			tooltip = unavailable_during_revolution_disaster
			NOT = { has_disaster = revolution }
			NOT = {
				has_disaster_progress = {
					disaster = revolution
					value = 1
				}
			}
		}
	}
	on_granted = {
		add_mercantilism = 1
		add_years_of_owned_provinces_production_income = {
			years = 8
			trigger = {
				OR = {
					trade_goods = iron
					trade_goods = copper
				}
			}
			custom_tooltip = ajgriijarul_monopoly_income_desc_tooltip    #MONOPOLY_INCOME_CLOTH_DESC
		}
		custom_tooltip = ajgriijarul_monopoly_metals_effect_tooltip
	}
	on_granted_province = {
		if = {
			limit = {
				OR = {
					trade_goods = iron
					trade_goods = copper
				}
			}
			add_province_modifier = {
				name = estate_ajgriijarul_monopoly_metals_mod
				duration = -1
			}
		}
		else_if = {
			limit = {
				has_province_modifier = estate_ajgriijarul_monopoly_metals_mod
	
			}
			remove_province_modifier = estate_ajgriijarul_monopoly_metals_mod
		}
	}
	on_revoked = {
		custom_tooltip = estate_ajgriijarul_monopoly_metals_revoke_tooltip
	}
	on_revoked_province = {
		if = {
			limit = {
				has_province_modifier = estate_ajgriijarul_monopoly_metals_mod
			}
			remove_province_modifier = estate_ajgriijarul_monopoly_metals_mod
		}
	}
	on_invalid = {
		custom_tooltip = estate_ajgriijarul_monopoly_metals_revoke_tooltip
	}
	on_invalid_province = {
		if = {
			limit = {
				has_province_modifier = estate_ajgriijarul_monopoly_metals_mod
			}
			remove_province_modifier = estate_ajgriijarul_monopoly_metals_mod
		}
	}
	penalties = {
	}
	benefits = {
	}
	cooldown_years = 10
	on_cooldown_expires = {
		country_event = { id = monopoly_privileges.15 } #custom event
	}
	ai_will_do = { #having the AI use these could lead to an unstoppable downwards spiral if it can't work out how to get rid of them
		factor = 0
	}
}
estate_ajgriijarul_military_command = {
	icon = privilege_promote_purbias
	land_share = 5
	max_absolutism = -10
	influence = 0.1
	loyalty = 0.05
	is_valid = {
		NOT = { has_country_flag = no_noble_military } # Anbennar
	}
	can_select = {
	}
	on_granted = {
		custom_tooltip = estate_nobles_command_of_the_military_tt
	}
	penalties = {
		leader_cost = 0.25
	}
	benefits = {
		army_tradition = 0.5
		infantry_power = 0.05
	}
	ai_will_do = {
		factor = 0
	}
}
estate_ajgriijarul_drafting_subjects = {
	icon = privilege_demand_more_troops
	land_share = 0
	influence = 0.05
	loyalty = 0.05
	is_valid = {
		OR = {
			vassal = 1
			march = 1
			daimyo_vassal = 1
			great_daimyo_vassal = 1
			daimyo_xiaken_vassal = 1
			personal_union = 1
			client_vassal = 1
			client_march = 1
			autonomous_vassal = 1
			warlord_vassal = 1
		}
	}

	penalties = {
		reduced_liberty_desire = -5
	}

	benefits = {
		vassal_forcelimit_bonus = 0.5
	}
}

#Kabiurgarko
estate_kabiurgarko_monthly_power_dip = {
	icon = privilege_diplo_power
	land_share = 10
	max_absolutism = -5
	loyalty = -0.05
	can_select = {
	}
	on_granted = {
	}
	penalties = {
	}
	benefits = {
		country_diplomatic_power = 1
	}
	ai_will_do = {
		factor = 10
		modifier = {
			factor = 0
			OR = {
				NOT = { crown_land_share = 30 }
				estate_influence = {
					estate = estate_kabiurgarko
					influence = 75
				}
			}
			NOT = { has_estate_privilege = estate_kabiurgarko_monthly_power_dip }
		}
		modifier = {
			factor = 0.8
			OR = {
				NOT = { crown_land_share = 35 }
				AND = {
					is_absolutism_active = yes
					NOT = { crown_land_share = 55 }
				}
			}
			NOT = { has_estate_privilege = estate_kabiurgarko_monthly_power_dip }
		}
		modifier = {
			factor = 0.8
			is_absolutism_active = yes
		}
		modifier = {
			factor = 1.25
			NOT = { dip = 2 }
		}
		modifier = {
			factor = 0.8
			dip = 5
		}
	}
}
estate_kabiurgarko_land_rights = {
	icon = privilege_grant_autonomy
	land_share = 5
	max_absolutism = -5
	loyalty = 0.05
	influence = 0.05
	can_select = {
	}
	on_granted = {
	}
	penalties = {
	}
	benefits = {
		governing_capacity = 100
	}
	ai_will_do = {
		factor = 5
		modifier = {
			factor = 1.4
			num_of_territories = 5
		}
		modifier = {
			factor = 1.5
			num_of_territories = 10
		}
		modifier = {
			factor = 1.5
			num_of_territories = 15
		}
		modifier = {
			factor = 0
			OR = {
				NOT = { crown_land_share = 25 }
				estate_influence = {
					estate = estate_kabiurgarko
					influence = 75
				}
			}
			NOT = { has_estate_privilege = estate_kabiurgarko_land_rights }
		}
		modifier = {
			factor = 0
			NOT = { governing_capacity_percentage = 0.5 }
		}
		modifier = {
			factor = 0.8
			OR = {
				NOT = { crown_land_share = 40 }
				AND = {
					is_absolutism_active = yes
					NOT = { crown_land_share = 60 }
				}
			}
			NOT = { has_estate_privilege = estate_kabiurgarko_land_rights }
		}
		modifier = {
			factor = 0.8
			OR = {
				NOT = { crown_land_share = 30 }
				AND = {
					is_absolutism_active = yes
					NOT = { crown_land_share = 50 }
				}
			}
			NOT = { has_estate_privilege = estate_kabiurgarko_land_rights }
		}
		modifier = {
			factor = 3
			OR = {
				AND = {
					governing_capacity_percentage = 0.9
					NOT = { has_estate_privilege = estate_kabiurgarko_land_rights }
				}
				#The trigger below should make sure that the AI actually keeps this privilege when enacting it early game
				AND = {
					governing_capacity_percentage = 0.6
					has_estate_privilege = estate_kabiurgarko_land_rights
				}
			}
		}
		modifier = {
			factor = 0.8
			is_absolutism_active = yes
		}
		modifier = {
			factor = 2
			governing_capacity_percentage = 0.9
		}
		modifier = {
			factor = 3
			governing_capacity_percentage = 1
		}
		modifier = {
			factor = 10
			governing_capacity_percentage = 1.2
		}
		modifier = {
			factor = 8
			NOT = { adm_tech = 12 }
			governing_capacity_percentage = 0.8
		}
		modifier = {
			factor = 5
			NOT = { adm_tech = 12 }
			NOT = { government_rank = 1 }
			governing_capacity_percentage = 0.65
		}
		modifier = {
			factor = 0.75
			has_estate_privilege = estate_shinukhorchi_land_rights
		}
		modifier = {
			factor = 0.75
			has_estate_privilege = estate_ajgriijarul_land_rights
		}
		modifier = {
			factor = 0.75
			has_estate_privilege = estate_khelorvalshi_land_rights
		}
		modifier = {
			factor = 0.75
			has_estate_privilege = estate_adventurers_ennoblement_of_adventurers
		}
	}
}

estate_kabiurgarko_indebted_to_golden = {
	can_select = {
		NOT = { has_disaster = hoardcurse }	#Anbennar
	}
	icon = privilege_give_money
	max_absolutism = -5
	loyalty = 0.05
	influence = 0.05
	on_granted = {
		#Check if need to change this tooltip
		custom_tooltip = estate_burghers_indebted_to_burghers_effect_tooltip
		add_mercantilism = -1
		tooltip = {
			add_inflation = 0.5
		}
		hidden_effect = {
			add_loan = {
				fixed_interest = 1
				duration = 60
				estate_loan = yes
			}
			add_loan = {
				fixed_interest = 1
				duration = 60
				estate_loan = yes
			}
			add_loan = {
				fixed_interest = 1
				duration = 60
				estate_loan = yes
			}
			add_loan = {
				fixed_interest = 1
				duration = 60
				estate_loan = yes
			}
			add_loan = {
				fixed_interest = 1
				duration = 60
				estate_loan = yes
			}
		}
	}
	penalties = {
		trade_efficiency = -0.05
	}
	benefits = {
	}
	ai_will_do = {
		factor = 0
	}
}
estate_kabiurgarko_advisors = {
	icon = privilege_recruit_minister
	max_absolutism = -5
	influence = 0.1
	loyalty = 0.05
	penalties = {
		stability_cost_modifier = 0.1
	}
	benefits = {
		dip_advisor_cost = -0.20
	}
	ai_will_do = {
		factor = 10
		modifier = {
			factor = 0.5
			is_absolutism_active = yes
		}
		modifier = {
			factor = 1.25
			NOT = { dip = 2 }
		}
		modifier = {
			factor = 0.8
			dip = 5
		}
	}
}
estate_kabiurgarko_monopoly_of_luxuries = {
	icon = privilege_monopoly_of_goods_dyes
	max_absolutism = -10
	loyalty = 0.1
	is_valid = {
		has_dlc = "Emperor"
		any_owned_province = {
			OR = {
				trade_goods = silk
				trade_goods = dyes
			}
		}
	}
	can_select = {
		custom_trigger_tooltip = {
			tooltip = unavailable_during_revolution_disaster
			NOT = { has_disaster = revolution }
			NOT = {
				has_disaster_progress = {
					disaster = revolution
					value = 1
				}
			}
		}
	}
	on_granted = {
		add_mercantilism = 1
		add_years_of_owned_provinces_production_income = {
			years = 8
			trigger = {
				OR = {
					trade_goods = silk
					trade_goods = dyes
				}
			}
			custom_tooltip = MONOPOLY_INCOME_LUXURIES_DESC
		}
		custom_tooltip = estate_kabiurgarko_monopoly_of_luxuries_effect_tooltip
	}
	on_granted_province = {
		if = {
			limit = {
				OR = {
					trade_goods = silk
					trade_goods = dyes
				}
			}
			add_province_modifier = {
				name = estate_kabiurgarko_monopoly_of_luxuries_mod
				duration = -1
			}
		}
		else_if = {
			limit = {
				has_province_modifier = estate_kabiurgarko_monopoly_of_luxuries_mod
			}
			remove_province_modifier = estate_kabiurgarko_monopoly_of_luxuries_mod
		}
	}
	on_revoked = {
		custom_tooltip = estate_kabiurgarko_monopoly_of_luxuries_revoke_tooltip
	}
	on_revoked_province = {
		if = {
			limit = {
				has_province_modifier = estate_kabiurgarko_monopoly_of_luxuries_mod
			}
			remove_province_modifier = estate_kabiurgarko_monopoly_of_luxuries_mod
		}
	}
	on_invalid = {
		custom_tooltip = estate_kabiurgarko_monopoly_of_luxuries_revoke_tooltip
	}
	on_invalid_province = {
		if = {
			limit = {
				has_province_modifier = estate_kabiurgarko_monopoly_of_luxuries_mod
			}
			remove_province_modifier = estate_kabiurgarko_monopoly_of_luxuries_mod
		}
	}
	penalties = {
	}
	benefits = {
	}
	cooldown_years = 10
	on_cooldown_expires = {
		country_event = { id = monopoly_privileges.17 }
	}
	ai_will_do = { #having the AI use these could lead to an unstoppable downwards spiral if it can't work out how to get rid of them
		factor = 0
	}
}
estate_kabiurgarko_control_over_monetary_policy = {
	icon = privilege_give_money
	max_absolutism = -10
	influence = 0.05
	loyalty = 0.05
	is_valid = {
		has_dlc = "Emperor"
	}
	penalties = {
		yearly_corruption = 0.2
	}
	benefits = {
		inflation_reduction = 0.10
		interest = -0.5
		production_efficiency = 0.05
	}
	ai_will_do = {
		factor = 1
		modifier = {
			factor = 10
			OR = {
				inflation = 15
				num_of_loans = 15
			}
		}
		modifier = {
			factor = 0
			is_absolutism_active = yes
		}
	}
}
estate_kabiurgarko_exclusive_trade_rights = {
	icon = privilege_make_generous_donation
	max_absolutism = -5
	influence = 0.05
	loyalty = 0.05
	is_valid = {
		any_active_trade_node = {
			calc_true_if = {
				amount = 3
				all_trade_node_member_province = {
					owned_by = root
					province_has_center_of_trade_of_level = 1
				}
			}
		}
	}
	on_granted = {
		random_active_trade_node = {
			limit = {
				calc_true_if = {
					amount = 3
					all_trade_node_member_province = {
						owned_by = root
						province_has_center_of_trade_of_level = 1
					}
				}
			}
			custom_tooltip = estate_burghers_exclusive_trade_rights_enact_tooltip
			hidden_effect = {
				every_trade_node_member_province = {
					limit = {
						owned_by = root
						province_has_center_of_trade_of_level = 1
					}
					add_province_modifier = {
						name = estate_burghers_exclusive_trade_rights_mod #CHANGE LATER
						duration = -1
					}
				}
			}
		}
		add_mercantilism = 3
	}
	on_revoked = {
		custom_tooltip = estate_kabiurgarko_exclusive_trade_rights_revoke_tooltip
	}
	on_revoked_province = {
		if = {
			limit = {
				has_province_modifier = estate_burghers_exclusive_trade_rights_mod
			}
			remove_province_modifier = estate_burghers_exclusive_trade_rights_mod
		}
	}
	on_invalid = {
		custom_tooltip = estate_kabiurgarko_exclusive_trade_rights_revoke_tooltip
	}
	on_invalid_province = {
		if = {
			limit = {
				has_province_modifier = estate_burghers_exclusive_trade_rights_mod
			}
			remove_province_modifier = estate_burghers_exclusive_trade_rights_mod
		}
	}
	penalties = {
	}
	benefits = {
	}
	ai_will_do = {
		factor = 0
	}
}

#Khelorvalshi
estate_khelorvalshi_land_rights = {
	icon = privilege_grant_autonomy
	land_share = 5
	max_absolutism = -5
	loyalty = 0.05
	influence = 0.05
	can_select = {
	}
	on_granted = {
	}
	penalties = {
	}
	benefits = {
		governing_capacity = 100
	}
	ai_will_do = {
		factor = 5
		modifier = {
			factor = 1.4
			num_of_territories = 5
		}
		modifier = {
			factor = 1.5
			num_of_territories = 10
		}
		modifier = {
			factor = 1.5
			num_of_territories = 15
		}
		modifier = {
			factor = 0
			OR = {
				NOT = { crown_land_share = 25 }
				estate_influence = {
					estate = estate_khelorvalshi
					influence = 75
				}
			}
			NOT = { has_estate_privilege = estate_khelorvalshi_land_rights }
		}
		modifier = {
			factor = 0
			NOT = { governing_capacity_percentage = 0.5 }
		}
		modifier = {
			factor = 0.8
			OR = {
				NOT = { crown_land_share = 40 }
				AND = {
					is_absolutism_active = yes
					NOT = { crown_land_share = 60 }
				}
			}
			NOT = { has_estate_privilege = estate_khelorvalshi_land_rights }
		}
		modifier = {
			factor = 0.8
			OR = {
				NOT = { crown_land_share = 30 }
				AND = {
					is_absolutism_active = yes
					NOT = { crown_land_share = 50 }
				}
			}
			NOT = { has_estate_privilege = estate_khelorvalshi_land_rights }
		}
		modifier = {
			factor = 3
			OR = {
				AND = {
					governing_capacity_percentage = 0.9
					NOT = { has_estate_privilege = estate_khelorvalshi_land_rights }
				}
				#The trigger below should make sure that the AI actually keeps this privilege when enacting it early game
				AND = {
					governing_capacity_percentage = 0.6
					has_estate_privilege = estate_khelorvalshi_land_rights
				}
			}
		}
		modifier = {
			factor = 0.8
			is_absolutism_active = yes
		}
		modifier = {
			factor = 2
			governing_capacity_percentage = 0.9
		}
		modifier = {
			factor = 3
			governing_capacity_percentage = 1
		}
		modifier = {
			factor = 10
			governing_capacity_percentage = 1.2
		}
		modifier = {
			factor = 8
			NOT = { adm_tech = 12 }
			governing_capacity_percentage = 0.8
		}
		modifier = {
			factor = 5
			NOT = { adm_tech = 12 }
			NOT = { government_rank = 1 }
			governing_capacity_percentage = 0.65
		}
		modifier = {
			factor = 0.75
			has_estate_privilege = estate_shinukhorchi_land_rights
		}
		modifier = {
			factor = 0.75
			has_estate_privilege = estate_ajgriijarul_land_rights
		}
		modifier = {
			factor = 0.75
			has_estate_privilege = estate_kabiurgarko_land_rights
		}
		modifier = {
			factor = 0.75
			has_estate_privilege = estate_adventurers_ennoblement_of_adventurers
		}
	}
}
estate_khelorvalshi_monopoly_of_relics = {
	icon = privilege_monopoly_of_goods_precursor_relics
	max_absolutism = -10
	loyalty = 0.1
	is_valid = {
		has_dlc = "Emperor"
		any_owned_province = {
			trade_goods = precursor_relics
		}
	}
	can_select = {
		custom_trigger_tooltip = {
			tooltip = unavailable_during_revolution_disaster
			NOT = { has_disaster = revolution }
			NOT = {
				has_disaster_progress = {
					disaster = revolution
					value = 1
				}
			}
		}
	}
	on_granted = {
		add_mercantilism = 1
		add_years_of_owned_provinces_production_income = {
			years = 8
			trigger = {
				trade_goods = precursor_relics
			}
			custom_tooltip = MONOPOLY_INCOME_RELICS_DESC
		}
		custom_tooltip = estate_khelorvalshi_monopoly_of_relics_effect_tooltip
	}
	on_granted_province = {
		if = {
			limit = {
				trade_goods = precursor_relics
			}
			add_province_modifier = {
				name = estate_khelorvalshi_monopoly_of_relics_mod
				duration = -1
			}
		}
		else_if = {
			limit = {
				has_province_modifier = estate_khelorvalshi_monopoly_of_relics_mod
			}
			remove_province_modifier = estate_khelorvalshi_monopoly_of_relics_mod
		}
	}
	on_revoked = {
		custom_tooltip = estate_khelorvalshi_monopoly_of_relics_revoke_tooltip
	}
	on_revoked_province = {
		if = {
			limit = {
				has_province_modifier = estate_khelorvalshi_monopoly_of_relics_mod
			}
			remove_province_modifier = estate_khelorvalshi_monopoly_of_relics_mod
		}
	}
	on_invalid = {
		custom_tooltip = estate_khelorvalshi_monopoly_of_relics_revoke_tooltip
	}
	on_invalid_province = {
		if = {
			limit = {
				has_province_modifier = estate_khelorvalshi_monopoly_of_relics_mod
			}
			remove_province_modifier = estate_khelorvalshi_monopoly_of_relics_mod
		}
	}
	penalties = {
	}
	benefits = {
	}
	cooldown_years = 10
	on_cooldown_expires = {
		country_event = { id = monopoly_privileges.18 }
	}
	ai_will_do = { #having the AI use these could lead to an unstoppable downwards spiral if it can't work out how to get rid of them
		factor = 0
	}
}
estate_khelorvalshi_church_power = {
	icon = privilege_empty_throne
	max_absolutism = -5
	influence = 0.1
	loyalty = 0.1
	can_select = {
	}
	on_granted = {
	}
	penalties = {
	}
	benefits = {
		church_power_modifier = 0.5
	}
	ai_will_do = {
		factor = 0 #add in proper factors
	}
}
estate_khelorvalshi_study_help = {
	icon = privilege_empty_throne
	influence = 0.05
	loyalty = -0.05
	is_valid = {
		ruler_has_mage_personality = yes
	}

	on_granted = {
		update_magic_study_experience_modifier = { value=20 }
		custom_tooltip = oni_study_help_tooltip
	}
	on_revoked = {
		update_magic_study_experience_modifier = { value=-20 }
	}
	on_invalid = {
		update_magic_study_experience_modifier = { value=-20 }
	}
	benefits = {
	}
}

estate_khelorvalshi_temple_desecrators = {
	icon = privilege_build_jain_temple
	loyalty = 0.05
	influence = 0.1
	is_valid = {
		religion = lefthand_path
		has_country_flag = lefthand_temple_secrets
	}
	can_select = {
		any_owned_province = {
			OR = {
				has_province_modifier = temple_complex
				has_province_modifier = damaged_temple_complex
				has_province_modifier = derelict_temple_complex
				has_province_modifier = ruined_temple_complex
			}
		}
	}
	on_granted = {
		hidden_effect = {
			set_country_flag = first_temple_quest
			country_event = { id = spirits.500 }
		}
		custom_tooltip = estate_khelorvalshi_temple_desecrators_granted_tooltip
	}
	penalties = {
		global_tax_modifier = -0.1
	}
	benefits = {
	}
	cooldown_years = 10
	ai_will_do = {
		factor = 15
	}
}

estate_khelorvalshi_halve_corruption_penalty = {
	icon = privilege_build_jain_temple
	loyalty = -0.05
	influence = 0.1
	is_valid = {
		religion = lefthand_path
		has_country_flag = oni_halve_corruption_penalty
	}
	on_granted = {
		custom_tooltip = estate_khelorvalshi_halve_corruption_penalty_tooltip
		every_owned_province = { #please don't break
			limit = {
				has_province_modifier = rite_of_corruption
			}
			add_permanent_province_modifier = {
				name = azjakuma_rite_of_corruption
				duration = 1825
			}
			remove_province_modifier = rite_of_corruption
		}
	}
}