
# For specific combinations of culture, religion and other such triggers
# Will pick the first valid one it finds in list

#Heir and consort titles are generally kept simple for clarity unless there is something special in particular that can be used.

rainforest_king = {
	rank = {
		1 = CHIEFDOM
		2 = TRIBAL_KINGDOM
		3 = TRIBAL_EMPIRE
	}
	
	ruler_male = {
		1 = KING
		2 = HARI
		3 = GREAT_HARI
	}
	
	ruler_female = {
		1 = QUEEN
		2 = HARIN
		3 = GREAT_HARIN
	}
	
	consort_male  = {
		1 = PRINCE_CONSORT
		2 = PRINCE_CONSORT
		3 = PRINCE_CONSORT
	}

	consort_female = {
		1 = CONSORT
		2 = QUEEN_CONSORT
		3 = EMPRESS_CONSORT
	}
	
	heir_male = {
		1 = HEIR
		2 = HEIR
		3 = HEIR
	}

	heir_female = {
		1 = HEIR_fem
		2 = HEIR_fem
		3 = HEIR_fem
	}

	trigger = {
		has_reform = tribal_kingdom
		culture_group = yanglam
	}
}

acromton_monarchy = {
	rank = {
		1 = DUCHY
		2 = KINGDOM
		3 = EMPIRE
	}
	
	ruler_male = {
		1 = DUKE_CROSSGUARD
		2 = KING_CROSSGUARD
		3 = EMPEROR_CROSSGUARD
	}
	
	ruler_female = {
		1 = DUCHESS_CROSSGUARD
		2 = QUEEN_CROSSGUARD
		3 = EMPRESS_CROSSGUARD
	}

	trigger = {
		government = monarchy
		OR = {
			tag = Z40			#you're Acromton
			AND = {
				tag = A18		#you're Rubenaire with cores on Acromton (1444 start)
				276 = {
					is_core = A18
				}
				330 = {
					is_core = A18
				}
				# A18 = {
					# is_core = 276
					# is_core = 330
				# }
			}
			has_country_flag = rubenaire_the_crossguard
		}
	}
}

rezankand = {
	rank = {
		1 = SANCTIFIED_STATE
		2 = ENLIGHTENED_KINGDOM
		3 = ENLIGHTENED_EMPIRE
	}
	
	ruler_male = {
		1 = SANCTIFIED_KING
		2 = SANCTIFIED_KING
		3 = SANCTIFIED_EMPEROR
	}
	
	ruler_female = {
		1 = SANCTIFIED_QUEEN
		2 = SANCTIFIED_QUEEN
		3 = SANCTIFIED_EMPRESS
	}
	
	heir_male = {
		1 = HOLY_CHOSEN
		2 = HOLY_CHOSEN
		3 = HOLY_CHOSEN
	}

	heir_female = {
		1 = HOLY_CHOSEN
		2 = HOLY_CHOSEN
		3 = HOLY_CHOSEN
	}

	trigger = {
		has_reform = rezankand_reform
	}
}

phoenix_empire = {
	rank = {
		1 = PHOENIX_EMPIRE
		2 = PHOENIX_EMPIRE
		3 = PHOENIX_EMPIRE
	}
	
	ruler_male = {
		1 = PHOENIX_EMPEROR
		2 = PHOENIX_EMPEROR
		3 = PHOENIX_EMPEROR
	}
	
	ruler_female = {
		1 = PHOENIX_EMPRESS
		2 = PHOENIX_EMPRESS
		3 = PHOENIX_EMPRESS
	}
	
    consort_male  = {
		1 = PHOENIX_EMPEROR
		2 = PHOENIX_EMPEROR
		3 = PHOENIX_EMPEROR
	}

	consort_female = {
		1 = PHOENIX_EMPRESS
		2 = PHOENIX_EMPRESS
		3 = PHOENIX_EMPRESS
	}
	
	heir_male = {
		1 = PHOENIX_PRINCE
		2 = PHOENIX_PRINCE
		3 = PHOENIX_PRINCE
	}

	heir_female = {
		1 = PHOENIX_PRINCESS
		2 = PHOENIX_PRINCESS
		3 = PHOENIX_PRINCESS
	}

	trigger = {
		has_reform = phoenix_empire
	}
}

desert_legion = {
	rank = {
		1 = LEGION
		2 = TRIBAL_KINGDOM
		3 = TRIBAL_EMPIRE
	}
	
	ruler_male = {
		1 = COMMANDER
		2 = HERALD
		3 = DIVINE_HERALD
	}
	
	ruler_female = {
		1 = COMMANDER
		2 = HERALD
		3 = DIVINE_HERALD
	}
	
	consort_male  = {
		1 = PRINCE_CONSORT
		2 = PRINCE_CONSORT
		3 = PRINCE_CONSORT
	}

	consort_female = {
		1 = CONSORT
		2 = QUEEN_CONSORT
		3 = EMPRESS_CONSORT
	}
	
	heir_male = {
		1 = HEIR
		2 = HEIR
		3 = HEIR
	}

	heir_female = {
		1 = HEIR
		2 = HEIR
		3 = HEIR
	}

	government_reform = tribe_mechanic

	trigger = {
		has_reform = desert_legion
	}
}


jadd_empire = {
	rank = {
		1 = KINGDOM
		2 = KINGDOM
		3 = EMPIRE
	}
	
	ruler_male = {
		1 = COMMANDER
		2 = HERALD
		3 = DIVINE_HERALD
	}
	
	ruler_female = {
		1 = COMMANDER
		2 = HERALD
		3 = DIVINE_HERALD
	}
	
	consort_male  = {
		1 = PRINCE_CONSORT
		2 = KING_CONSORT
		3 = EMPEROR_CONSORT
	}

	consort_female = {
		1 = CONSORT
		2 = QUEEN_CONSORT
		3 = EMPRESS_CONSORT
	}
	
	heir_male = {
		1 = HEIR
		2 = HEIR
		3 = HEIR
	}

	heir_female = {
		1 = HEIR
		2 = HEIR
		3 = HEIR
	}

	government_reform = tribe_mechanic

	trigger = {
		has_reform = jadd_empire
	}
}

black_demesne_magocracy = {
	rank = {
		1 = BLACK_DEMENSE
		2 = BLACK_DEMENSE
		3 = BLACK_DEMENSE
	}

	ruler_male = {
		1 = SORCERER_KING
		2 = SORCERER_KING
		3 = SORCERER_KING
	}

	ruler_female = {
		1 = SORCERER_QUEEN
		2 = SORCERER_QUEEN
		3 = SORCERER_QUEEN
	}

	trigger = {
		tag = Z99
	}
}

black_acolyte = {
	rank = {
		1 = BLACK_DOMINION
		2 = BLACK_DOMINION
		3 = BLACK_DOMINION
	}

	ruler_male = {
		1 = BLACK_ACOLYTE
		2 = BLACK_ACOLYTE
		3 = BLACK_ACOLYTE
	}

	ruler_female = {
		1 = BLACK_ACOLYTE
		2 = BLACK_ACOLYTE
		3 = BLACK_ACOLYTE
	}

	trigger = {
		has_reform = black_acolyte_reform
	}
}

grombar_monarchy = {
	rank = {
		1 = GRAY_DUCHY
		2 = GRAY_KINGDOM
		3 = GRAY_EMPIRE
	}
	
	ruler_male = {
		1 = GRAY_DUKE
		2 = GRAY_KING
		3 = GRAY_EMPEROR
	}
	ruler_female = {
		1 = GRAY_DUCHESS
		2 = GRAY_QUEEN
		3 = GRAY_EMPRESS
	}
	consort_male = {
		1 = GRAY_DUKE
		2 = GRAY_KING
		3 = GRAY_EMPEROR
	}
	consort_female = {
		1 = GRAY_DUCHESS
		2 = GRAY_QUEEN
		3 = GRAY_EMPRESS
	}
	heir_male = {
		1 = GRAY_LORD
		2 = GRAY_PRINCE
		3 = GRAY_PRINCE
	}
	heir_female = {
		1 = GRAY_LADY
		2 = GRAY_PRINCESS
		3 = GRAY_PRINCESS
	}
	
	trigger = {
		tag = Z50
		government = monarchy
	}
}

karashari_empire = {
	rank = {
		3 = GRAND_AKALATE
	}
	
	ruler_male = {
		3 = KARAKAL
	}
	
	ruler_female = {
		3 = KARAKALI
	}
	
	consort_male = {
		3 = KARAKAL
	}
	
	consort_female = {
		3 = KARAKALI
	}
	
	heir_male = {
		3 = KARAKHUR
	}
	
	heir_female = {
		3 = KARADURZK
	}
	
	trigger = {
		tag = Z57
		has_reform = karashari_empire
	}
}

counts_league = {
	rank = {
		1 = LEAGUE
		2 = KINGDOM
		3 = EMPIRE
	}
	
	ruler_male = {
		1 = COUNT
		2 = KING
		3 = EMPEROR
	}

	ruler_female = {
		1 = COUNTESS
		2 = QUEEN
		3 = EMPRESS
	}
	consort_male  = {
		1 = CONSORT
		2 = KING_CONSORT
		3 = EMPEROR_CONSORT
	}
	
	consort_female = {
		1 = CONSORT
		2 = QUEEN_CONSORT
		3 = EMPRESS_CONSORT
	}
	
	heir_male = {
		1 = HEIR
		2 = PRINCE
		3 = PRINCE
	}
	
	heir_female = {
		1 = HEIR
		2 = PRINCESS	
		3 = PRINCESS
	}
	
	trigger = {
		tag = B55
	}
}

adventurer_iron_sceptre = {
	rank = {
		1 = ADVENTURER
	}
	
	ruler_male = {
		1 = MAGISTER
	}

	ruler_female = {
		1 = MAGISTRIX
	}
	consort_male  = {
		1 = CONSORT
	}
	
	consort_female = {
		1 = CONSORT
	}
	
	heir_male = {
		1 = MAGISTER
	}
	
	heir_female = {
		1 = MAGISTRIX
	}
	
	trigger = {
		tag = B20
		has_reform = adventurer_reform
	}
}

adventurer_sword_covenant = {
	rank = {
		1 = ADVENTURER
	}
	
	ruler_male = {
		1 = KNIGHT_CAPTAIN
	}

	ruler_female = {
		1 = KNIGHT_CAPTAIN
	}
	consort_male  = {
		1 = CONSORT
	}
	
	consort_female = {
		1 = CONSORT
	}
	
	heir_male = {
		1 = SER_HEIR
	}
	
	heir_female = {
		1 = LADY
	}
	
	trigger = {
		tag = B19
		has_reform = adventurer_reform
	}
}

smallcountry_free_republic = {
	rank = {
		1 = REPUBLIC
		2 = GRAND_REPUBLIC
		3 = GREAT_REPUBLIC
	}

	ruler_male = {
		1 = FREEMAN
		2 = FREEMAN
		3 = FREEMAN
	}
	
	ruler_female = {
		1 = FREEWOMAN
		2 = FREEWOMAN
		3 = FREEWOMAN
	}

	trigger = {
		tag = A97
		government = republic
	}
}

tellum_free_city = {
	rank = {
		1 = FREE_CITY
	}

	ruler_male = {
		1 = LORD_CRIER
	}
	
	ruler_female = {
		1 = LADY_CRIER
	}

	heir_male = {
		1 = YELLER_APPARENT
	}

	heir_female = {
		1 = YELLER_APPARENT
	}
	trigger = {
		tag = A86 #Tellum
		has_reform = free_city
	}
}

tellum_republic = {
	rank = {
		1 = REPUBLIC
		2 = GRAND_REPUBLIC
		3 = GREAT_REPUBLIC
	}

	ruler_male = {
		1 = LORD_CRIER
		2 = LORD_CRIER
		3 = LORD_CRIER
	}
	
	ruler_female = {
		1 = LADY_CRIER
		2 = LADY_CRIER
		3 = LADY_CRIER
	}

	heir_male = {
		1 = YELLER_APPARENT
		2 = YELLER_APPARENT
		3 = YELLER_APPARENT
	}

	heir_female = {
		1 = YELLER_APPARENT
		2 = YELLER_APPARENT
		3 = YELLER_APPARENT
	}
	trigger = {
		tag = A86 #Tellum
		government = republic
	}
}

gnollish_viakkoc = {
	rank = {
		1 = PACK
		2 = GRAND_CORSAIR_KINGDOM
		3 = GRAND_CORSAIR_EMPIRE
	}
	
	ruler_male = {
		1 = PACK_LORD
		2 = CORSAIR_KING
		3 = SEA_SCOURGE
	}

	ruler_female = {
		1 = PACK_MISTRESS
		2 = CORSAIR_QUEEN
		3 = SEA_SCOURGE
	}
	consort_male  = {
		1 = CONSORT
		2 = KING_CONSORT
		3 = EMPEROR_CONSORT
	}
	
	consort_female = {
		1 = CONSORT
		2 = QUEEN_CONSORT
		3 = EMPRESS_CONSORT
	}
	
	heir_male = {
		1 = HEIR
		2 = PRINCE
		3 = PRINCE
	}
	
	heir_female = {
		1 = HEIR
		2 = PRINCESS	
		3 = PRINCESS
	}
	
	trigger = {
		culture_group = gnollish
		tag = U07
	}
}

gerudian_monarchy = {
	rank = {
		1 = JARLDOM
		2 = KONUNGDOMR
		3 = KONUNGRIK
	}
	
	ruler_male = {
		1 = JARL
		2 = KONUNGR
		3 = OZTRKONUNGR
	}
	ruler_female = {
		1 = JARL
		2 = DROTTNING
		3 = OZTRDROTTNING
	}
	consort_male = {
		1 = TELJARL
		2 = KONUNGR
		3 = OZTRKONUNGR
	}
	consort_female = {
		1 = GREVINNA
		2 = DROTTNING
		3 = OZTRDROTTNING
	}
	heir_male = {
		1 = JARLSSON
		2 = KONUNGSSON
		3 = OZTRKONUNGSSON
	}
	heir_female = {
		1 = JARLSDOTTIR
		2 = KONUNGSDOTTIR
		3 = OZTRKONUNGSDOTTIR
	}
	
	trigger = {
		culture_group = gerudian
		NOT = { primary_culture = reverian }
		government = monarchy
	}
}
skaldskola_theocracy = {
	rank = {
		1 = TEMPLE
		2 = GREAT_TEMPLE
		3 = HOLY_EMPIRE
	}

	ruler_male = {
		1 = MASTER_SKALD_PRIEST
		2 = MASTER_SKALD_PRIEST
		3 = MASTER_SKALD_PRIEST
	}

	ruler_female = {
		1 = MASTER_SKALD_PRIESTESS
		2 = MASTER_SKALD_PRIESTESS
		3 = MASTER_SKALD_PRIESTESS
	}

	trigger = {
		government = theocracy
		religion = skaldhyrric_faith
		tag = Z09
	}
}

cannorian_minaran_theocracy = {
	rank = {
		1 = TEMPLE
		2 = GREAT_TEMPLE
		3 = HOLY_EMPIRE
	}

	ruler_male = {
		1 = EXALTED_COMPANION
		2 = EXALTED_COMPANION
		3 = EXALTED_COMPANION
	}

	ruler_female = {
		1 = EXALTED_COMPANION
		2 = EXALTED_COMPANION
		3 = EXALTED_COMPANION
	}

	trigger = {
		government = theocracy
		tag = A10
	}
}

cannorian_dame_theocracy = {
	rank = {
		1 = TEMPLE
		2 = GREAT_TEMPLE
		3 = HOLY_EMPIRE
	}

	ruler_male = {
		1 = LUMINARY
		2 = HIGH_LUMINARY
		3 = HIGH_LUMINARY
	}

	ruler_female = {
		1 = LUMINARY
		2 = HIGH_LUMINARY
		3 = HIGH_LUMINARY
	}

	trigger = {
		government = theocracy
		tag = A41
	}
}

eordand_magocracy = {
	rank = {
		1 = DRATHEAS
		2 = DRATHEAS
		3 = DRATHEAS
	}
	
	ruler_male = {
		1 = ARD_DRADH
		2 = ARD_DRADH
		3 = ARD_DRADH
	}
	
	ruler_female = {
		1 = ARD_BANNDRADH
		2 = ARD_BANNDRADH
		3 = ARD_BANNDRADH
	}
	
	heir_male = {
		1 = PRANT
		2 = PRANT
		3 = PRANT
	}
	
	heir_female = {
		1 = PRANT
		2 = PRANT
		3 = PRANT
	}
	
	trigger = {
		government = theocracy
		has_reform = magocracy_reform
		culture_group = eordan_ruinborn_elf
	}
}

nathalaire_shadow = {
	rank = {
		1 = REPUBLIC
		2 = REPUBLIC
		3 = REPUBLIC
	}
	
	ruler_male = {
		1 = SHADOW_MALE
		2 = SHADOW_MALE
		3 = SHADOW_MALE
	}
	
	ruler_female = {
		1 = SHADOW_FEMALE
		2 = SHADOW_FEMALE
		3 = SHADOW_FEMALE
	}
	
	heir_male = {
		1 = SHADOW_HEIR
		2 = SHADOW_HEIR
		3 = SHADOW_HEIR
	}
	
	heir_female = {
		1 = SHADOW_HEIRESS
		2 = SHADOW_HEIRESS
		3 = SHADOW_HEIRESS
	}
	
	trigger = {
		tag = A74
		government = republic
	}
}

aelnar_crystal_queen = {
	rank = {
		1 = CRYSTAL_EMPIRE
		2 = CRYSTAL_KINGDOM
		3 = CRYSTAL_EMPIRE
	}
	
	ruler_female = {
		1 = CRYSTAL_QUEEN
		2 = CRYSTAL_QUEEN
		3 = CRYSTAL_EMPRESS
	}
	
	trigger = {
		tag = Z43
		has_ruler_modifier = aelnar_the_crystal_queen
		government = monarchy
	}
}

obsidian_council = {
	rank = {
		1 = OBSIDIAN_COUNCIL
		2 = OBSIDIAN_COUNCIL
		3 = OBSIDIAN_COUNCIL
	}
	
	ruler_male = {
		1 = OBSIDIAN_MALE
		2 = OBSIDIAN_MALE
		3 = OBSIDIAN_MALE
	}
	
	ruler_female = {
		1 = OBSIDIAN_FEMALE
		2 = OBSIDIAN_FEMALE
		3 = OBSIDIAN_FEMALE
	}
	
	trigger = {
		has_reform = obsidian_council_reform
	}
}

obsidian_invasion = {
	rank = {
		1 = OBSIDIAN_INVASION
		2 = OBSIDIAN_INVASION
		3 = OBSIDIAN_INVASION
	}
	
	ruler_male = {
		1 = OBSIDIAN_INVASION_MALE
		2 = OBSIDIAN_INVASION_MALE
		3 = OBSIDIAN_INVASION_MALE
	}
	
	ruler_female = {
		1 = OBSIDIAN_INVASION_FEMALE
		2 = OBSIDIAN_INVASION_FEMALE
		3 = OBSIDIAN_INVASION_FEMALE
	}
	
	trigger = {
		tag = H94
		has_reform = invasion_forces
	}
}

krakdhumvror_pre_republic = {
	rank = {
		1 = HOLD
		2 = GREAT_HOLD
		3 = GREAT_HOLD
	}
	
	ruler_male = {
		1 = COUNCILLOR
		2 = FIRST_COUNCILLOR
		3 = HIGH_COUNCILLOR
	}
	
	ruler_female = {
		1 = COUNCILLOR
		2 = FIRST_COUNCILLOR
		3 = HIGH_COUNCILLOR
	}
	
	heir_male = {
		1 = LORD
		2 = LORD
		3 = LORD
	}

	heir_female = {
		1 = LADY
		2 = LADY
		3 = LADY
	}

	trigger = {
		tag = I02
		government = republic
		has_reform = krak_clan_council
	}
}
krakdhumvror_post_republic = {
	rank = {
		1 = REPUBLIC
		2 = GREAT_REPUBLIC
		3 = GRAND_REPUBLIC
	}
	
	ruler_male = {
		1 = COUNCILLOR
		2 = FIRST_COUNCILLOR
		3 = HIGH_COUNCILLOR
	}
	
	ruler_female = {
		1 = COUNCILLOR
		2 = FIRST_COUNCILLOR
		3 = HIGH_COUNCILLOR
	}
	
	heir_male = {
		1 = LORD
		2 = LORD
		3 = LORD
	}

	heir_female = {
		1 = LADY
		2 = LADY
		3 = LADY
	}

	trigger = {
		tag = I02
		government = republic
		has_reform = krak_free_council
	}
}
krakdhumvror_monarchy = {
	rank = {
		1 = FROSTREALM
		2 = FROSTREALM
		3 = GREAT_FROSTREALM
	}
	
	ruler_male = {
		1 = LORD
		2 = KING
		3 = HIGH_KING
	}
	
	ruler_female = {
		1 = LADY
		2 = QUEEN
		3 = HIGH_QUEEN
	}
	
	heir_male = {
		1 = LORD
		2 = LORD
		3 = LORD
	}

	heir_female = {
		1 = LADY
		2 = LADY
		3 = LADY
	}

	trigger = {
		tag = I02
		government = monarchy
	}
}


hobgoblin_command = {
	rank = {
		1 = COMMAND
		2 = COMMAND
		3 = GREAT_COMMAND
	}
	
	ruler_male = {
		1 = COMMANDER
		2 = MARSHAL
		3 = GRAND_MARSHAL
	}
	
	ruler_female = {
		1 = COMMANDER
		2 = MARSHAL
		3 = GRAND_MARSHAL
	}
	
	trigger = {
		has_reform = hobgoblin_stratocracy_reform
	}
}

sarisungi_gangs = {
	rank = {
		1 = CRIMINAL_GANG
		2 = CRIMINAL_ORGANISATION
		3 = CRIMINAL_EMPIRE
	}
	
	ruler_male = {
		1 = GANG_LEADER
		2 = GREY_EMINENCE
		3 = GREY_EMINENCE
	}
	
	ruler_female = {
		1 = GANG_LEADER
		2 = GREY_EMINENCE
		3 = GREY_EMINENCE
	}
	
	trigger = {
		has_reform = gang_control_reform
	}
}

mengotsa = {
	rank = {
		1 = MENGOTSA
		2 = MENGOTSA
		3 = MENGOTSA
	}
	
	ruler_male = {
		1 = MENGURKHA
		2 = MENGURKHA
		3 = MENGURKHA
	}
	
	ruler_female = {
		1 = MENGARKHA
		2 = MENGARKHA
		3 = MENGARKHA
	}
	
	trigger = {
		has_reform = mengotsa
	}
}

ogre_horde = {
	rank = {
		1 = GREAT_CLAN
		2 = GREAT_CLAN
		3 = GREAT_CLAN
	}
	
	ruler_male = {
		1 = BAOZH
		2 = BAOZH
		3 = BAOZH
	}
	
	ruler_female = {
		1 = BAOZHA
		2 = BAOZHA
		3 = BAOZHA
	}
	
	trigger = {
		has_reform = ogre_horde
	}
}

great_ogre_horde = {
	rank = {
		1 = DEVOURING_HORDE
		2 = DEVOURING_HORDE
		3 = DEVOURING_HORDE
	}
	
	ruler_male = {
		1 = BIIGH_BAOZH
		2 = BIIGH_BAOZH
		3 = BIIGH_BAOZH
	}
	
	ruler_female = {
		1 = BIIGH_BAOZHA
		2 = BIIGH_BAOZHA
		3 = BIIGH_BAOZHA
	}
	
	trigger = {
		has_reform = great_ogre_horde
	}
}

ogre_kingdom = {
	rank = {
		1 = GREAT_CLAN
		2 = KINGDOM
		3 = MENGOTSA
	}
	
	ruler_male = {
		1 = OJKAGMA
		2 = MENGURM
		3 = MENGURKHA
	}
	
	ruler_female = {
		1 = OJKODIRD
		2 = MENGURMA
		3 = MENGARKHA
	}
	
	trigger = {
		has_reform = ogre_kingdom
	}
}

ogre_empire = {
	rank = {
		1 = GHALRDONTSA
		2 = GHALRDONTSA
		3 = GHALRDONTSA
	}
	
	ruler_male = {
		1 = GHALRDON
		2 = GHALRDON
		3 = GHALRDON
	}
	
	ruler_female = {
		1 = GHALRDAL
		2 = GHALRDAL
		3 = GHALRDAL
	}
	
	trigger = {
		has_reform = ogre_empire
	}
}

ogre_clan = {
	rank = {
		1 = CLAN
		2 = CLAN
		3 = CLAN
	}
	
	ruler_male = {
		1 = CHIEF
		2 = CHIEF
		3 = CHIEF
	}
	
	ruler_female = {
		1 = CHIEFTESS
		2 = CHIEFTESS
		3 = CHIEFTESS
	}
	
	consort_male  = {
		1 = CHIEF
		2 = CHIEF
		3 = CHIEF
	}

	consort_female = {
		1 = CHIEFTESS
		2 = CHIEFTESS
		3 = CHIEFTESS
	}

	trigger = {
		government = tribal
		culture_group = ogre
	}
}

great_centaur_horde = {
	rank = {
		1 = CLAN
		2 = HORDE
		3 = GREAT_HORDE
	}
	
	ruler_male = {
		1 = CAEHN
		2 = CAEHN
		3 = GREAT_CAEHN
	}
	
	ruler_female = {
		1 = CAEHTEN
		2 = CAEHTEN
		3 = GREAT_CAEHTEN
	}
	
	trigger = {
		has_reform = great_centaur_horde
	}
}
		
malacnar_stratocracy = {
	rank = {
		1 = MINOR_KINGDOM
		2 = STRATOCRACY
		3 = STRATOCRACY
	}
	
	ruler_male = {
		1 = BATTLEKING
		2 = BATTLEKING
		3 = BOYACSAR
	}
	
	ruler_female = {
		1 = BATTLEQUEEN
		2 = BATTLEQUEEN
		3 = BOYACSARA
	}
	
	heir_male = {
		1 = BATTLEPRINCE
		2 = BATTLEPRINCE
		3 = BATTLEPRINCE
	}
	
	heir_female = {
		1 = BATTLEPRINCESS
		2 = BATTLEPRINCESS
		3 = BATTLEPRINCESS
	}
	
	trigger = {
		tag = G32
		OR = {
			government = theocracy
			government = monarchy
			has_reform = malacnar_republic_reform
		}
	}
}

pomvasonn_duchy = {
	rank = {
		1 = DUCHY
		2 = RALJEV
		3 = VIZKRALJEV
	}
	
	ruler_male = {
		1 = DUKE
		2 = VALADR
		3 = VIZVALADR
	}
	
	ruler_female = {
		1 = DUCHESS
		2 = VALATKA
		3 = VIZVALATKA
	}
	
	heir_male = {
		1 = PRINCE
		2 = PRINCE
		3 = PRINCE
	}
	
	heir_female = {
		1 = PRINCESS
		2 = PRINCESS
		3 = PRINCESS
	}
	
	trigger = {
		tag = G21
		government = monarchy
		primary_culture = rzentur
	}
}
		
ynnic_empire_sarda = {
	rank = {
		1 = YRISAR
		2 = YRISAR
		3 = YRISAR
	}
	
	ruler_male = {
		1 = VYRISAR
		2 = VYRISAR
		3 = VYRISAR
	}
	
	ruler_female = {
		1 = VYRISETA
		2 = VYRISETA
		3 = VYRISETA
	}
	
	heir_male = {
		1 = PRINCE
		2 = PRINCE
		3 = PRINCE
	}
	
	heir_female = {
		1 = PRINCESS
		2 = PRINCESS
		3 = PRINCESS
	}
	
	trigger = {
		tag = H27
		primary_culture = sarda
	}
}
		
ynnic_empire_dolindhan = {
	rank = {
		1 = YRISAR
		2 = YRISAR
		3 = YRISAR
	}
	
	ruler_male = {
		1 = VITSAR
		2 = VITSAR
		3 = VITSAR
	}
	
	ruler_female = {
		1 = YRIDAM
		2 = YRIDAM
		3 = YRIDAM
	}
	
	heir_male = {
		1 = PRINCE
		2 = PRINCE
		3 = PRINCE
	}
	
	heir_female = {
		1 = PRINCESS
		2 = PRINCESS
		3 = PRINCESS
	}
	
	trigger = {
		tag = H27
		primary_culture = dolindhan
	}
}
		
ynnic_empire_rzentur = {
	rank = {
		1 = IRZUR
		2 = IRZUR
		3 = IRZUR
	}
	
	ruler_male = {
		1 = VOJZUR
		2 = VOJZUR
		3 = VOJZUR
	}
	
	ruler_female = {
		1 = IRTKA
		2 = IRTKA
		3 = IRTKA
	}
	
	heir_male = {
		1 = PRINCE
		2 = PRINCE
		3 = PRINCE
	}
	
	heir_female = {
		1 = PRINCESS
		2 = PRINCESS
		3 = PRINCESS
	}
	
	trigger = {
		tag = H27
		primary_culture = rzentur
	}
}
		
dragon_dominion = {
	rank = {
		1 = GOSPOS
		2 = GOSPOS
		3 = GOSPOS
	}
	
	ruler_male = {
		1 = GOSPODH
		2 = GOSPODH
		3 = GOSPODH
	}
	
	ruler_female = {
		1 = GHOSPA
		2 = GHOSPA
		3 = GHOSPA
	}
	
	heir_male = {
		1 = PRINCE
		2 = PRINCE
		3 = PRINCE
	}
	
	heir_female = {
		1 = PRINCESS
		2 = PRINCESS
		3 = PRINCESS
	}
	
	trigger = {
		tag = H24
	}
}

ar_callein = {
	rank = {
		1 = REPUBLIC
		2 = REPUBLIC
		3 = PRINCIPALITY
	}
	
	ruler_male = {
		1 = BARON
		2 = LORD
		3 = PRINCE
	}
	
	ruler_female = {
		1 = BARONESS
		2 = LADY
		3 = PRINCESS
	}
	
	trigger = {
		has_reform = ar_callein_reform
	}
}

dwarven_venerator = {
	rank = {
		1 = VENERATOR_HOLD
		2 = VENERATOR_NORMAL
		3 = VENERATOR_GRAND
	}
	
	ruler_male = {
		1 = VENERATOR
		2 = VENERATOR
		3 = VENERATOR_HIGH
	}

	ruler_female = {
		1 = VENERATOR
		2 = VENERATOR
		3 = VENERATOR_HIGH
	}

	trigger = {
		AND = {
			government = theocracy
			religion = ancestor_worship
			has_reform = ancestor_venerator_reform
		}
	}
}

northern_league = {
	rank = {
		1 = MAGNATE_TOWN
		2 = MAGNATE_LEAGUE
		3 = MAGNATE_LEAGUE
	}
	
	ruler_male = {
		1 = COUNCILLOR
		2 = SPEAKER
		3 = CHAIRMAN
	}

	ruler_female = {
		1 = COUNCILLOR
		2 = SPEAKER
		3 = CHAIRMAN
	}

	trigger = {
		AND = {
			government = republic
			has_reform = northern_league_magnates
		}
	}
}

tagharoghi_reform = {
	rank = {
		1 = ROGHI
		2 = TAGHAROGHI
		3 = SURGOROGHI
	}
	
	ruler_male = {
		1 = RASHENBIR
		2 = RASHENBIR
		3 = RASHENBIR
	}
	
	ruler_female = {
		1 = RASHENBIR
		2 = RASHENBIR
		3 = RASHENBIR
	}
	
	heir_male = {
		1 = RASHOKUDEI
		2 = RASHOKUDEI
		3 = RASHOKUDEI
	}
	
	heir_female = {
		1 = RASHOKUDEI
		2 = RASHOKUDEI
		3 = RASHOKUDEI
	}
	
	trigger = {
		has_reform = tagharoghi_reform
	}
}

guwaamud = {
	rank = {
		1 = LUJAEN
		2 = JAENGUD
		3 = DAJAENGUD
	}
	
	ruler_male = {
		1 = HWALBAEJ
		2 = KAJAENG
		3 = DAKAJAENG
	}
	
	ruler_female = {
		1 = HWALEI
		2 = KUSHAEN
		3 = DAKUSHAEN
	}
	
	consort_male = {
		1 = HWALBAEJ
		2 = KAJAENG
		3 = DAKAJAENG
	}
	
	consort_female = {
		1 = HWALEI
		2 = KUSHAEN
		3 = DAKUSHAEN
	}
	
	heir_male = {
		1 = BOJAEJ
		2 = KHUNZHE
		3 = DAKHUNZE
	}
	
	heir_female = {
		1 = BOJEI
		2 = GONJE
		3 = DAGONJE
	}
	
	trigger = {
		primary_culture = guwaadun
	}
}

daxugo = {
	rank = {
		1 = LUZHU
		2 = WAGUO
		3 = DIGUO
	}
	
	ruler_male = {
		1 = ZHU
		2 = TONGZHE
		3 = DIANGDI
	}
	
	ruler_female = {
		1 = SHUN
		2 = NUWANG
		3 = HANGHO
	}
	
	consort_male = {
		1 = ZHU
		2 = TONGZHE
		3 = DIANGDI
	}
	
	consort_female = {
		1 = SHUN
		2 = NUWANG
		3 = HANGHO
	}
	
	heir_male = {
		1 = XANSHEN
		2 = TONZHI
		3 = DATONZHI
	}
	
	heir_female = {
		1 = DANSHEN
		2 = GONZHI
		3 = DAGONZHI
	}
	
	trigger = {
		tag = Y98
	}
}

eunuch_dynasty = {
	rank = {
		1 = HOUSE
		2 = PRINCIPALITY
		3 = DYNASTY
	}
	
	ruler_male = {
		1 = LORD
		2 = PRINCE
		3 = KING
	}
	
	heir_male = {
		1 = LORD
		2 = PRINCE
		3 = PRINCE
	}
	
	trigger = {
		has_reform = eunuch_dynasty_reform
	}
}

demon_empire = {
	
	rank = {
		1 = AROMOTCH
		2 = MONGOTCH
		3 = TAMOTCH
	}
	
	ruler_male = {
		1 = MANSAROM
		2 = MONGOR
		3 = TAMONGOR
	}
	
	ruler_female = {
		1 = RENDA
		2 = JOLDO
		3 = TAJOLDO
	}
	
	consort_male = {
		1 = MANSAROM
		2 = MONGOR
		3 = MONGOR
	}
	
	consort_female = {
		1 = RENDA
		2 = JOLDO
		3 = JOLDO
	}
	
	heir_male = {
		1 = AROMO
		2 = TOJIS
		3 = TOJIS
	}
	
	heir_female = {
		1 = RENDA
		2 = RONTOS
		3 = RONTOS
	}
	
	trigger = {
		has_reform = demon_empire_reform
	}
}

eternal_council = {
	rank = {
		1 = COUNCIL
		2 = ETERNAL_COUNCIL
		3 = ETERNAL_COUNCIL
	}
	
	ruler_male = {
		1 = COUNCILOR
		2 = CHANCELLOR
		3 = CHANCELLOR
	}
	
	trigger = {
		has_reform = eternal_council
	}
}

kai_republic = {
	rank = {
		1 = TOWNSHIP
		2 = REPUBLIC
		3 = GREAT_REPUBLIC
	}
	
	ruler_male = {
		1 = LORD
		2 = HIGH_LORD
		3 = GREAT_LORD
	}
	
	ruler_female = {
		1 = LADY
		2 = HIGH_LADY
		3 = GREAT_LADY
	}
	
	trigger = {
		OR = {
			has_reform = kai_township
			has_reform = kai_republic
			has_reform = azkare_court
		}
	}
}

azkare_court = {
	rank = {
		1 = CONVOCATION
		2 = GRAND_CONVOCATION
		3 = GRAND_CONVOCATION
	}
	
	ruler_male = {
		1 = HIGH_CONVOCATIONARY
		2 = GREAT_CONVOCATIONARY
		3 = SUPREME_CONVOCATIONARY
	}
	
	ruler_female = {
		1 = HIGH_CONVOCATIONARY
		2 = GREAT_CONVOCATIONARY
		3 = SUPREME_CONVOCATIONARY
	}
	
	trigger = {
		has_reform = azkare_court
	}
}

khom_emperor = {
	rank = {
		1 = LORDSHIP
		2 = EMPIRE
		3 = EMPIRE
	}
	
	ruler_male = {
		1 = LORD
		2 = EMPEROR
		3 = EMPEROR
	}
	
	ruler_female = {
		1 = LADY
		2 = EMPRESS
		3 = EMPRESS
	}
	
	consort_male = {
		1 = LORD
		2 = EMPEROR
		3 = EMPRESS
	}
	
	consort_female = {
		1 = LADY
		2 = EMPRESS
		3 = EMPRESS
	}
	
	trigger = {
		OR = {
			tag = Y97
			tag = Y66
			tag = Y67
		}
		government = monarchy
	}
}

sunrise_court = {
	rank = {
		3 = GRAND_CONVOCATION
	}
	
	ruler_male = {
		3 = SUPREME_CONVOCATIONARY
	}
	
	ruler_female = {
		3 = SUPREME_CONVOCATIONARY
	}
	
	trigger = {
		has_reform = sunrise_court_reform
	}
}

mykxian_pirates = {
	rank = {
		1 = MYKX_PR_DUCHY
		2 = MYKX_PR_KINGDOM
		3 = MYKX_PR_EMPIRE
	}
	
	ruler_male = {
		1 = MYKX_PR_CHIEF_ADMIRAL
		2 = MYKX_PR_GRAND_ADMIRAL
		3 = MYKX_PR_SCOURGE_MAN
	}
	
	ruler_female = {
		1 = MYKX_PR_CHIEF_ADMIRAL
		2 = MYKX_PR_GRAND_ADMIRAL
		3 = MYKX_PR_SCOURGE_WOMAN
	}
	
	trigger = {
		has_reform = pirate_republic_reform
		tag = G93
	}
}

wineport_league = {
	rank = {
		1 = LEAGUE
		2 = LEAGUE
		3 = LEAGUE
	}
	
	ruler_male = {
		1 = LORD_MAYOR
		2 = GRAND_MAYOR
		3 = PRESIDENT
	}

	ruler_female = {
		1 = LORD_MAYOR
		2 = GRAND_MAYOR	
		3 = PRESIDENT
	}

	trigger = {
		government = republic
		tag = A16 #Wineport
	}
}

raattakod_iron_king = {
	rank = {
		1 = KINGDOM
		2 = KINGDOM
		3 = KINGDOM
	}
	
	ruler_male = {
		1 = IRON_KING
		2 = IRON_KING
		3 = IRON_KING
	}
	
	ruler_female = {
		1 = IRON_QUEEN
		2 = IRON_QUEEN
		3 = IRON_QUEEN
	}

	trigger = {
		government = monarchy
		tag = J26 #Raattakod
	}
}

valralahdi_grand_prince = {
	rank = {
		1 = GRAND_PRINCIPALITY
		2 = GRAND_PRINCIPALITY
		3 = GRAND_PRINCIPALITY
	}
	
	ruler_male = {
		1 = GRAND_PRINCE
		2 = GRAND_PRINCE
		3 = GRAND_PRINCE
	}
	
	ruler_female = {
		1 = GRAND_PRINCESS
		2 = GRAND_PRINCESS
		3 = GRAND_PRINCESS
	}

	trigger = {
		government = monarchy
		tag = J28 #Valralahdi
	}
}

vantnhasadma_oldking = {
	rank = {
		1 = KINGDOM
		2 = KINGDOM
		3 = KINGDOM
	}
	
	ruler_male = {
		1 = OLDKING
		2 = OLDKING
		3 = OLDKING
	}
	
	ruler_female = {
		1 = OLDQUEEN
		2 = OLDQUEEN
		3 = OLDQUEEN
	}

	trigger = {
		government = monarchy
		tag = J29 #Vantnhasadma
	}
}

länkinä_raven_king = {
	rank = {
		1 = KINGDOM
		2 = KINGDOM
		3 = KINGDOM
	}
	
	ruler_male = {
		1 = RAVEN_KING
		2 = RAVEN_KING
		3 = RAVEN_KING
	}
	
	ruler_female = {
		1 = RAVEN_QUEEN
		2 = RAVEN_QUEEN
		3 = RAVEN_QUEEN
	}

	trigger = {
		government = monarchy
		tag = J30 #Länkinä
	}
}

ourdia_petty_kingdom = {
	rank = {
		1 = PETTY_KINGDOM
		2 = KINGDOM
		3 = EMPIRE
	}
	
	ruler_male = {
		1 = KING
		2 = KING
		3 = EMPEROR
	}
	
	ruler_female = {
		1 = QUEEN
		2 = QUEEN
		3 = EMPRESS
	}

	trigger = {
		tag = U16 #Ourdia
		government = monarchy
	}
}

verkal_gulan_council_of_elders = {
	rank = {
		1 = HOLD
		2 = GREAT_HOLD
		3 = GREAT_HOLD
	}
	
	ruler_male = {
		1 = ELDER
		2 = HIGH_ELDER
		3 = PARAMOUNT_ELDER
	}
	
	ruler_female = {
		1 = ELDER
		2 = HIGH_ELDER
		3 = PARAMOUNT_ELDER
	}

	trigger = {
		tag = F47 #Verkal Gulan
		government = republic
		mission_completed = verkalgulan_restore_the_council
	}
}

ovdal_kanzad_amber_kings = {
	rank = {
		1 = HOLD
		2 = KINGDOM
		3 = HIGH_KINGDOM
	}
	
	ruler_male = {
		1 = AMBER_KING
		2 = AMBER_KING
		3 = AMBER_KING
	}

	ruler_female = {
		1 = AMBER_QUEEN
		2 = AMBER_QUEEN
		3 = AMBER_QUEEN
	}
	
	trigger = {
		tag = H79 #Ovdal Kanzad
		government = monarchy
		mission_completed = ovdalkanzad_the_amber_tree
	}
}

silverforge_hall_dwarven_elector = {
	rank = {
		1 = DWARVEN_HALL
		2 = DWARVEN_HALL
		3 = DWARVEN_HALL
	}
	
	ruler_male = {
		1 = LORD_ELECTOR
		2 = LORD_ELECTOR
		3 = HIGH_KING
	}

	ruler_female = {
		1 = LORD_ELECTOR
		2 = LORD_ELECTOR
		3 = HIGH_QUEEN
	}
	consort_male  = {
		1 = PRINCE_CONSORT 
		2 = PRINCE_CONSORT 
		3 = KING_CONSORT
	}
	
	consort_female = {
		1 = CONSORT
		2 = CONSORT
		3 = QUEEN_CONSORT
	}
	
	heir_male = {
		1 = HEIR
		2 = HEIR
		3 = PRINCE
	}
	
	heir_female = {
		1 = HEIR
		2 = HEIR
		3 = PRINCE
	}
	trigger = {
		tag = A73
		culture_group = dwarven
		NOT = { mission_completed = A73_complete_hold }
		is_elector = yes
		is_emperor = no
	}
}

silverforge_hall_republic = {
	rank = {
		1 = DWARVEN_HALL
		2 = DWARVEN_HALL
		3 = DWARVEN_HALL
	}
	
	ruler_male = {
		1 = LORD_MAYOR
		2 = GRAND_MAYOR
		3 = PRESIDENT
	}

	ruler_female = {
		1 = LORD_MAYOR
		2 = GRAND_MAYOR	
		3 = PRESIDENT
	}

	trigger = {
		tag = A73
		culture_group = dwarven
		government = republic
		NOT = { mission_completed = A73_complete_hold }
	}
}

silverforge_hall_monarchy = {
	rank = {
		1 = DWARVEN_HALL
		2 = DWARVEN_HALL
		3 = DWARVEN_HALL
	}
	
	ruler_male = {
		1 = LORD
		2 = KING
		3 = HIGH_KING
	}
	
	ruler_female = {
		1 = LADY
		2 = QUEEN
		3 = HIGH_QUEEN
	}
	
	heir_male = {
		1 = LORD
		2 = LORD
		3 = LORD
	}

	heir_female = {
		1 = LADY
		2 = LADY
		3 = LADY
	}

	trigger = {
		tag = A73
		culture_group = dwarven
		government = monarchy
		NOT = { mission_completed = A73_complete_hold }
	}
}

empire_of_aul_dwarov = {
	rank = {
		1 = EMPIRE
		2 = EMPIRE
		3 = EMPIRE
	}
	
	ruler_male = {
		1 = HIGH_KING
		2 = HIGH_KING
		3 = HIGH_KING
	}
	
	ruler_female = {
		1 = HIGH_QUEEN
		2 = HIGH_QUEEN
		3 = HIGH_QUEEN
	}

	consort_male  = {
		1 = KING_CONSORT
		2 = KING_CONSORT
		3 = KING_CONSORT
	}
	
	consort_female = {
		1 = QUEEN_CONSORT
		2 = QUEEN_CONSORT
		3 = QUEEN_CONSORT
	}

	trigger = {
		government = monarchy
		tag = I24 #Aul-Dwarov
	}
}

celmaldor_principality = {
	rank = {
		1 = PRINCIPALITY
		2 = GRAND_PRINCIPALITY
		3 = EMPIRE
	}
	
	ruler_male = {
		1 = PRINCE
		2 = GRAND_PRINCE
		3 = EMPEROR
	}
	
	ruler_female = {
		1 = PRINCESS
		2 = GRAND_PRINCESS
		3 = EMPRESS
	}
	
	consort_male = {
		1 = PRINCE_CONSORT
		2 = PRINCE_CONSORT
		3 = PRINCE_CONSORT
	}

	consort_female = {
		1 = CONSORT
		2 = GRAND_CONSORT
		3 = EMPRESS_CONSORT
	}
	
	heir_male = {
		1 = PRINCE_APPARENT
		2 = PRINCE_APPARENT
		3 = HEIR_APPARENT
	}

	heir_female = {
		1 = PRINCESS_APPARENT
		2 = PRINCESS_APPARENT
		3 = HEIR_APPARENT
	}
	
	trigger = {
		tag = Z22 #Celmaldor
		OR = {
			government = republic
			government = monarchy
		}	
	}
}


seghdihr_segbandal_names = {
	rank = {
		1 = DWARVEN_UNION
		2 = DWARVEN_UNION
		3 = DWARVEN_UNION
	}
	
	ruler_male = {
		1 = KING
		2 = BRIGHT_KING
		3 = BRIGHT_KING
	}

	ruler_female = {
		1 = QUEEN
		2 = BRIGHT_QUEEN
		3 = BRIGHT_QUEEN
	}

	trigger = {
		tag = H78
		has_reform = seghdihr_segbandal_reform
	}
}

seghdihr_syndicate_names = {
	rank = {
		1 = DWARVEN_SYNDICATE
		2 = DWARVEN_SYNDICATE
		3 = DWARVEN_SYNDICATE
	}
	
	ruler_male = {
		1 = MAYOR
		2 = LORD_MAYOR
		3 = LORD_MAYOR
	}

	ruler_female = {
		1 = MAYOR
		2 = LORD_MAYOR
		3 = LORD_MAYOR
	}

	trigger = {
		government = republic
		has_reform = seghdihr_syndicates_reform
	}
}