
#Example: Large parts of Africa and south east Asia
tropical = {

	# Endralliande
	1060 1061 1059 1062 1063 1064 1065 2137 1107
	
	# Soruin
	2191 2192 2190 2359 2189 2193 2188 2195 2196 2179 2178 2176 2177 2199 2187 2186 2181 2182 2197 2198 2201 2202 2203 2204 2205 2184 2183
	
	# Reapers Coast
	1925 1865 1951 1930 1941 1947 1955 1942 1948 1944 1945 1876 1946 1870 1868 1872 1960 1130
	
	# Leechdens
	2185 2206 2207 2209 2210 2211 2212 2213 2214 2216 2217 2218 2219 2220 2221 2222 2223 2224 2225 2226 2227 2228 2229  2232 2233 2234 2265 2282 2395
	
	# West Effelai
	2215 2348 2349 2350 2351 2352
	
	# South Effelai
	2264 2266 2267 2339 2340 2341 2342 2343 2363 2364 2365 2366 2375 2376 2377 2378
	
	# East Effelai
	2344 2273 2276 2275 2272 2274 2279 2277 2806 2805 2803 2804 2242 2240 2239 2291 2238 2290 2289 2292 2278 2288 2287 2237 2286 2280 2281 2285 2236 2235 2284 2271 2270 2293 2268 2269
	
	# North Amadia
	2400 2399 2398 2397 2396 2391 2392 2393 2390 2360 2361 2362 2389 2401 2405 2417 2446 2406 2413 2412 2411 2409 2407 2408 2402 2403 2404 2418 2419 2420 2414 2415 2431 2445 2423 2443 2427 2444 2421 2422 2428 2424 2429 2430 2433 2434 2436
	
	# Region 1 region
	2373 2374 2372 2370 2371 2369 2367 2368 2379 2381 2380
	
	# Taychend
	2500 2499 2498 2495 2491 2492 2481 2483 2473 2474 2475 2477 2478 2542 2547 2551 2479 2490 2554 2489
	
	#Haraf
    2084 2085 2087 2089 2090 2116 2117 2118 2119 2120 2122 2128 2131 2132 2134 2136 2139 2140 2142 2145 2146 2148 2149 2150 
    2151 2152 2154 2156 2162 2163 2164 2165 2166 2167 2168 2169 2160 2172 2064 2065 2066 2067 2068 2069 2070 2071 2074 2075 2077 1680 2114 2113 2112 
	2111 2110 2109 2108 2104 2105 2106 2102 2099 2100 2101 2098 2094 2095 2103

	# Rahen
	4547 4380 4369 4372 4371 4374 4375 4382 4383 4384 4386 4394 4388 4377 4387 4389 4392 4393 4395 4398 4551 4418 4399 4420 4406
	4409 4492 4494 4495 4486 4487 4498 4496 4493 4497 4499 4501 4502 4503 4390 4367 4366
	
	# Haless
	4554 4555 4556 4557 4558 4560 4561 4562 4563 4564 4565 4566 4567 4568 4569 4570 4571 4572 4573 4574 4575 4576 4577 4578 4579 4580
	4581 4582 4583 4584 4585 4586 4587 4588 4589 4590 4591 4592 4593 4594 4595 4596 4597 4598 4599 4600 4601 4602 4603 4604 4605 4606 4700
	4607 4608 4609 4610 4612 4614 4615 4396 4489 4470 4364 4784 4798 4803 4804 4694 4802 4946 4771 4695 4697 4698 4958 4702 4699 4961
	4701 4770 4706 4707 4769 4709 4711 4962 4708 4768 4710 4765 4713 4767 4712 4734 4737 4741 4740 4959 4953 4957 4965 4736 4731 4742 4746
	4955 4745 4752 4753 4748 4729 4956 4730 4733 4964 4735 4728 4774 4772 4732 4727 4723 4766 4724 4726 4720 4963 4725 4721 4719 4714 4718
	4715 4717 4716 4807 4805 4773 6141 6140 6153 6142 6145 6146 6151 6137 6139 6136 6149 6148 6152 6138 6144 6147 4837 4836 4839 4884 4888
	4838 4835 4841 4840 4983 4984 4982 4900 4824 4722 
	
	#Southeast Salahad
	5693 5488 5490 5470 5664 5492 5491 5493 5494 5458 5454 5455
	
	#West Sarhal
	5810 5783 5777 5775 5762 5763 5766 5805 
	5784 5785 5782 5781 5780 5772 5741 5738 5740 5739 
	5744 5747 5749 5748 5728 5727 5726 5720 5685 5708 5684 5707 5706 5704 5705 5679 5694 5677 
	5774 5699 5700 5812 5809 5807 5806 5776 5767 5768 5770 5769 5779 5808 5771 5743 5750 5756 5757 5751
	5752 5753 5765 5764 5723 5724 5725 5721 5722 5711 5712 5710 5709 5713 5755 5754 5760 5758 5759 5761 
	
	#Horashesh
	5481 5486 5487 
	5678 5695 5696 5697 5703 5838 5871 5874 5875 5876 
	5877 5888 
	5915 5911 5923 
	5692 5485
	5489 5666 5665
	5886 5885 5869 5865 5868 5864 5857 5863 5862 5861 5860 5856
	5854 5852 5849 5847 5851 5859 5858 5891 5892 5873 6126 5872 5845 5844 5843 5846
	5842 5841 5839 5715 5840 5835 5837 5836 5716 5702 5773 5698 5853
}

arid = {

	#Haraf
	2092 2133 2130 2129 2127 2115 2824 2822 2827 2138 2826 2823 2097 2096 2825 2059 2060 1950

	# Akan
	399 397 398 396 383 395 401 392 393 390
	
	# North Salahad
	491 453 454 455 459 456 457 460 461 465 470 490 502 592 487 485 488 489 504 505 492 493 495 497 498 499 500 501 458 6100 6101 6102 6104 6103 6097 6096 6098 6099 6095 6094 6093 6092 6091
	
	# Bulwar
	679 680 682 683 685 693 692 686 688 689 687 691 597 570 568 605 606 690 681 684 583 571 566
	2900 2901 2902 2903 2904 2905 2906 2907 2908 2909 2910 2911 2912 2913 2915 2916 2917 2918 2919 2920 2923 2924 2925 2926 2927 2928 2929 2930
	
	# South Amadia
	2439 2432 2441 2447 2440 2438 2442 2448 2451 2452 2453 2454 2416 2385 2458 2457 1195 2455 2382 2456 2388 2386 2387 2383 2384 2435
	
	# Dry Coast
	2512 2336 2345 2335 2333 2332 2346 2331 2347 2307 2308 2309 2337 2338 2306 2305 2301 2304 2302 2300 2303 2294 2299 2298 2295 2296 2297 2250 2252 2248 2249
	
	# Taychend
	2467 2466 2472 2464 2468 2470 2511 2510 2509 6559 2514 2540 2517 2536 2518 2519 2520 2537 2515 2460 2461 2462 2463 2580 2574 2575 2576 2565 2568 2559 2560 2480 2549 2504 2505 2506 2555 2550 2501 2502 2507 2508 2556 2558
	
	# Kaydhano Sea
	2599 2600 2596 2597 2598 2601 2602 2603 2604 2605 2607
	
	#Epedna
	1879 1864 1957 2855 1863 1862 1861 1860 1854 1859 1857 1855 1853 1852 1850 1851 1849 1846 1810
	
	#Rahen
	4361 4363 4482 4445 4446 4548
	4441 4443 4433 4432 4429 4428 4424 4481 4472 4461 4457 4455 4452 4449 4448 4447
	4475 4517 4516 4522 4521 4531 4536 4540 4549 4537 4530 4529 4535 4370
	
	#Southwest Salahad
	5801 5799 5795 5794 5793 5789 5736 5735 5734 5732 5733 5731 5718 5719 5675 5674 5796
	5802 5803 5814 5800 5798 5787 5788 5742 5737 5745 5746 5730 5729 5682 5681 5683 5680
	5815 5817 5816 5813 5804 5811 5797 5786 6595 6594 6593
	
	#Southeast Salahad
	5475 5476 5533 5480 5477 5472 5532 5465 5461 5432 5433 5431 5434 5667 5437 5436 5668 4400 5435 5464 5463 5462
	5474 5473 5468 5469 5466 5467 5471 5459 5440 5441 5444 5449 5443 5442 5452 5457 5460 5438 5451 5495 5450 5453 5456 5691
	
	#Haless
	4896 4905 4943 4780 4757 4966 4749 4747 4823 4739 4954 4705 5399 5397 5398 5396 5395 5383 5422 5381 5382 5380 5379 5405 5418 5378 5421 5338
	5375 5377 5406 5376 5423 5404 5403 5402 5400 5401 5370 5372 4877 4895 5371 5374 5408 5417  5416 5415 5412 5414 5413 5410 5411 5407 4921 4919
	
	#Forbidden Plains
	5088 5087 5086 5085 5083 5082 5080 5077 5076 5074 5073 5055 5053 5052 5092 5093 5094 5095 5098 5097 5096 5099 5100 5101 5102 5103 5104 5105
	5153 5155 5157 5159 5161 5162 5164 5165 5168 5170 5169 5172 5171 5173 5174 5175 5176 5178 5182 5185 5196 5194 5193 5213 5214
}

arctic = {

	# Dalaire
	2787 # Stalwart Outpost
	1233 1232 1231 1226 1223 1220 1225 1222 1229 # Northern tip of penninsula added by Troy
	
	# Gerudia
	968 970 971 985 995 996 999 2829 2830 2831 2832 2834 2835 6171 6220 6240
	
	#Broken Sea
	2798 1770 2802 2800 2801 1230 2516 1234 1227 1228 2789 2790 2791 2792 
	1989 1769 1753 1752 1751 1746 2799 1247 1248 1249 1246 1245 1243 1244 1241 1240 1273
	2797 2749 1762 1768 1763 1761 2569 1754 1749 1318 2482 2820 1235
	
	#frost forest and blue sea
	5001 5002 5003 5006 5007 5008 5010 5011 5012 5320 5321 5323

	# Randrunnse
	1772
	
	6511 6512
	
	#Serpent's Vale
	6173 6187 6196 6214
}

#Example: Most of Europe north of med.
mild_winter = {

	# Businor
	363 362
	
	# Lencenor
	93 94 106 83 82 90 96 58 102 104 105 78 67 74 68 61 69 114 108 79 80 95 70 71 77 117 112 110 111 113 121 75 92 107 87 119 59 33 32 34 38 72 73 128 123 124 125 366 408
	
	# Small Country
	63 66 130 131 132 136 162 161 164 160 159 166 163 139 137 133 158 152 135 134 
	
	# Dragon Coast
	
	# West Dameshead
	10 13 15 17 28 23 24 27 26 41 42 57 18 153 154 156 157 151 11 8 168 3 6 5 2 9 20 31 19 22 16 21 30 394 109 
	
	# East Dameshead
	45 25 276 330 37 277 899 52 53 54 55 56 29 292 328 281 297 279 910 298 327 906 289 287 282 284 329 296 278 838 587 575
	
	# Esmaria
	275 269 265 905 917 909 273 272 271 900 266 267 264 260 911 259 262 255 254 908 280 274 916 333 268 44 576
	
	# The Borders 
	409 410 411 412 413 416 420 295 921 922 
	#923 579
	
	# Dameshead
	60 155 205 216 251 233 234 915 914 214 215 207 209 347 249 524
	
	# Dostanor and Daravan's Folly
	445 451 447 448 449
	
	# Bulwar
	658 653 654 665 664 663 610 614 617 618 619 620 623 632 533 556 554 557 657 545 544 669 671 670 526 520 529 522 
	2921 2922 2608
	
	#North Aelantir
	
	
	1115 1116 2450 1117 2557 # bloodgroves
	1992 1018 1127 1129 1961 2609 # trollsbay
	925 926 927 # Silsenald islands area
	1 # Far Isle
	
	#Eordand
	2013 2004 2025 2007 2024 2027 2036 2026 2008 2009 2010 2032 2031 2049 2034 2039 2033 2159 6256 6257 6242 6556
	
	#Ynn
	2815 2817 2816 2841 1138 1139 1140 1141 1155 1158 1821 1878 1822 1825

	#1835 2757 1145 1147 1152 1150 2783 1149 1834 1133 1831 1832 1829 2857 1828 1830 1833 2860 1134 1144 1136 1142 2810 1148 2859 2861 1137 1826 2858 1146 1143 1874 1877 1135 1827
	1800 1846 1847 1848 1823 2842 1838 1839 2729 1840 1841 1858
	1850 1849 1851 
	1152 1147 1150 1146 2783 1149 # veykoda
	
	#Rahen
	4533 4527
	
	#Yanshen
	4901 4827
	4844 4848 
	4826 4952 4985
	4852 
	4851 4933
	4856 4855 4950 
	4857 4862 4929
	
	4918 4919 4921
	4980 4927 4917
	4979 4916 4926 4920
	4922 4924 4925
	4928 4914 4915 
	4913 4978 4912
	4909 4910
	4907 4977 4908 4911
	
	4512 4939 4616 4948
	4622 4623 4625 4626
	4624 4627 4628
	4632 4633 4636 4637
	4638 4634 
	4814 4813
	4842 4845
	4816 4818

	1787 4995 
	6150

	#Odheongu
	5367 5363 5366 5351 5349 5352 5353 5354 

	#Shuvuushudi
	5410 5411 5413 5414 5416 5417 5412 5415 5408 5369 5368 
	5423 5404 5370 5371 5401 5400 

	5052 5053 5055 5073 5054 5056 5072 5074 
	5076 5077 5080 5082 5083 5085 5086 5088 
	
	5392 5393 5391 5387 5389 5388 5390 5385 5384 5386

	4519 4532 4534 4538 4539 4541 4543 4640 4639
	4535 4536 4537 4540 4549 4531 4530 4630 4529 4528 4526 4525 4546 4542 4545 4629 4635 4631

	#Alecand
	2780 2782 2785 2766 2778 2777 2776 2770 2767

	#Devand
	2716 2634 2682 2683 2684 2686 2687 2689 2690 2694 2697
	2660 2661 2665 2647 2638 2891 2636 2632 2663 2664 2629 2627 2654 2655 2656 2657 2650 2715 2712 2704 2691

	2325

	#Cannor Tweaks
	506 507 510 512 513 514 515

}

#Example: Inland Europe & Scandinavia
normal_winter = {

	# Lencenor
	116 

	# Small Country
	7 348 206 210 103 147 165 149 76 12
	
	# Dragon Coast
	170 145 148 144 169 146 177 178 176 175 172 173 174 181 171 129 141 142 143 126 213 336 138 140 122
	
	# East Dameshead
	299 898
	
	# Esmaria
	308 309 302 901 301 263 270
	
	# The Borders
	303 304 305 306 294 300 332 311 320 310 912 307 318 907 903 312 326 321 902 323 324 322 421 325 904 418 419 313 316 317 319 315 913 414 415 918 919 417 920
	
	# Dameshead
	208 219 235
	
	# Forlorn Vale
	261 351 352 360 359 353 354 355 356 361 423 314 422 779 778 777 775 
	
	# Alenic Frontier - Arbaran places
	253 236 252 349 238 244 334 250 256 342 258 357 358 257 248 245 246 247 335
	
	# Alenic Frontier - Gawed places
	191 345 194 192 193 201 202 203 204 340 217 218 224 237 239 243 338 221 222 223 341 346 337 220 339 225 240 226 227 228 241 229 230 232 231 343 344 242
	
	# Alenic Reach
	694 695 698 697 696 699 702 703 700 705 723 724 752 731 707 704 706 722 721 709 712 701 713 711 716 714 715 718 719 717 720
	
	# Gerudia
	993 952 708 953 959 997 961 958 955 956 957 966 967 975 977 978 980 982
	
	# Corvuria/Dostanor
	424 427 428 426 425 430 441 440 439 438 431 432 433 434 435 437 436 429 444 443 442 446 450 804 
	
	# Escann
	710 725 726 729 749 730 727 750 728 751 753 758 759 761 763 762 757 760 767 756 792 765 764 766 768 769 770 771 776 780 772 773 774 781 782 785 786 787 789 784 783 788 790 793 794 795 796 
	799 791 797 798 800 808 801 809 810 802 803 805 807 806 812 811 815 814 813 816 817 818 819 886 887 889 892 893 894 820 822 824 826 827 821 825 823 829 830 828 831 832 833 834 835 836 755 837 839 754 842 747 848
	840 843 845 847 841 853 855 851 844 854 864 869 865 866 874 873 883 891 888 885 875 876 877 856 857 890
	
	1782

	# Bulwar
	651 662 661 659 660 649 650 655 656 668 672 673 674 678 675 676 677 519 527 525 666 667 652
	
	#Serpent's Reach and Hul-Jorkad
	2425 2963 2942 4238 4100

	# north aelantir
	1001 # lonely isle
	949 951 # blend across Loubhir
	
	# Bloodgroves
	2459 1012 1124 1119 2538 2548 1996 1114 2208 1113 2283 1111 1110 2437 1998 1999 1014 1013 1015 1016
	
	# Trollsbay
	1126 1128
	
	#Dalaire
	1204 2851 1203 2846 1202 2845 1207 2847 2852 1209 1210 1212 2853 1211 1201
	2849 1208 2850
	
	#Eordand
	1813 1809 1963 1962 1780 1967 2047
	1986 1969 1988 1771 2012 1990 1875 1118 1993 2005 1125 2011 2003 2014 2016 2017 2050 2015 1997 1205 2503
	6241 6554 6255 6250 6249 6245 
	
	#Ynn
	1837 2838 2488 2840 2742 2819 2784 2807 2781 2811 2837 2839 2862 2814 1820 2813 2812 2808 2809 1819 1160 1162 1163 1164 1165 1166 1167 1168 1169 1170 1171 1172 1174 1175 1177 1178 1180 1181 1182 1183 1186 1187 1188 1189 1190 1191 1192 1755 1756 1757 1758 1759 1764 
	1193 1194 1792 2821 2843 1815 1816 1817 1818 1824
	# veykoda (ynn)
	2836 1151 2606 2615 1157 1161 2818 
	
	#Yanshen
	4973 4831 4832
	4969 4834
	4970
	4829 4971 4812
	4815
	4972 4828
	4902 4843 4974 4975 4976
	4642
	4923

	#Ogre Mountains
	5027 5029 5031 5032 5038 5039 5040 5041 5042 5043 
	
	#Yyl Möitsa
	5109 5111 5114 5115 5118 5119 5117 5110
	
	#Lake Federation
	5274 5275 5273 5276 5277 5278 5286 5280 5287 5279 5288 5306 5240 5291 5292 5293 5289 5290 5294 5295 5296 5297 5298 5299 5301 5300 5302 5305
	5285 5284 5283 5282 5304 5281
	5272 5271 5270 5269 5267 5265 5264 5263 5261 5262 
	5225 5224 5226 5227 5228 5230 5231 5229 5232 5233 5234 5235 5244 5243 5245 5242 5241 5236 5237 5238 5239 5246 5247 5248 5249 5250 5251 5252
	5268 5255 5256 5257 5258 5266 5260 5259 5254 5253 

	#Odheongu
	5365 5364 5355 5356 5357 5359 5347 5346 5362 5348 5350 5345

	#Shuvuushudi
	5343 5374 5373 5372 5341 5340 5342 5339 5406 5376 5407 5402 5403 

	5405 
	
	4650 4651 4652 4653 4654 4655 4656

	4833 5409

	1805 6558

	#Nuzurbokh
	5180 5187 5155 5156 5157 5158 5159 5160 5162 5163 5164 5166 5167 5169 
	5188 5189 5190 5191 5217 5223 5179 5186 5195 5192 5185 5182 5181 
	5161 5165 

	4323
	
	#West Forbidden Plains
	5049 5051 5057 5058 5050 5060 5066 5048 5047 5059 5063 5044 5061 5062 5046 5045 5064 5065 5067 5068 5069 5070 5071 5128 5112 5113 5120 5121 5122 5123 5124 5125 5126 5127 
	
	#East Forbidden Plains
	5078 5079 5131 5132 5075 5139 5140 5141 5142 5081 5144 5145 5146 5149 5147 5148 5150 5143 5089 5090 5091 5084 5151 5152 5154 5129 5130 5134 5133 5135 5136 5137 5138
	5153 

	2200 6560 6561 6562 6565 

	5398 5397 5399 5396
	5395 5394 

	#Alecand
	2786 2779 2936 

	#Devand
	2666 2667 2646 2639 2637 2648 2649 2658 2659 2628

	#Cannor Tweaks
	579 923 508 509 511
}

#Example: Russia & Lappland
severe_winter = {
	# Lencenor
	64 65 120 4157
	
	# Businor
	377 364 6513 4167 4162
	
	# Dragon Coast
	167 183 187 188 190 199 198 197 200 150 211 212 179 180 182 184 4160 6168
	
	# West Dameshead
	4
	
	# Forlorn Vale aka that Silent Repose Area
	350 4161 4168
	
	# Alenic Frontier
	195 196 
	
	# Alenic Reach
	733 734 740 736 735
	
	# Gerudia
	990 992 991 987 989 988 985 986 984 983 981 979 976 973 972 974 954 964 965 971 970 968 998 969 963 962 960 1000 994 995 996 999 737 738 739
	2829 2830 2831 2832 2833 2834 2835
	2426 1781 4146 6171 6220 6240 6198 

	# Escann
	895 896 897 746 743 850 849 846 852 858 860 861 868 870 863 872 878 879 867 871 880 881 882 884 859 862 741 745 742 744 748 732 4097
	
	1121 1120 1123 1995 4155
	
	#West Dwarovar
	
	4153 2863 4553 4020 4147 4156 4999
	
	#North Aelantir
	924 950 2787 2848 1217 1215 1214 1213 1206 1218 1224 1226 1233 1232 1219 1223 1220 1225 1222 1229 1231 2793 2794 1241 1240 1238 1237 1236 1200 1216 1199 1744 1743 1242 1239 
	1989 1769 1753 1762 2799 2749 1768 1752 1751 1761 1754 1746 1749 1247 2482 1249 1248 2820 1273 1245 1246 1243 1244 1318 1235 1763 2569 
	2795 2796
	2789 2790 2791 2792 1230 1228 1227 1234 2516 2802 2800 2801 1770 2798 
	1109 1112 1985 2002 2006 1994 6502 1783 1801
	
	#Broken Sea ocean tiles - explorative
	1723 1694 1487 1486 1492 1488 1485 1489 1493 1483 
	1890 1887
	
	#Eigras
	2797 1984 1982 1776 1777 1778 1964 1965 1971 1981 1983 1966 1968 1970 1775 1979 1972 1973 1987 
	1974 1978 1122 1772 6557 6244 6246 6248 6247
	
	#YnnDalaire
	1742 1745 1198 1747 1748 1197 1196 1750 2662 1760 1765 1767 1773 1774 1766 1804
	1153 1154 2844 1156 1159 1176 # veykoda; abbuting Delairey Range Mts
	1179 1185 1184 # forest of the cursed ones; abbuting Delairey Range Mts

	#Serpent's Vale
	4125 4129 4123 4142 4131 4143 4158 4151 4152 4166 4164 4145 4194 4192 4193 4195 4197 4196 4199
	4198 4201 4202 4200 4190 4191 4189 4183 4182 4181 4180 4184 4176 4171 4173 4174 4175 4998 4997 4996
	6173 6187 6196 6214 6124 
	
	#Yanshen
	5430 4830
	
	#Forbidden Plains
	5323 5321 5320 5008 5010 5011 5007 5012 5006 5002 5001 5303 5004 5003 5014 5013 5019 5020 5021 5015 5106 5107 5017 5018 5108 5116 5005 5024
	5025 5026 5028 5030 5033 5034 5035 5036 5037 5322
	5022 5016 5023
	5168 5170 5171 5172 5173 5174 5175 5176 5177 5178 5183 5193 
	5197 5198 5199 5200 5201 5202 5203 5204 

	#Odheongu
	5419 5344 
	5358 5360 5361 

	#Nuzurbokh
	5205 5206 5207 5208 5209 5210 5211 5212 5220 5219 5221 5218 5213 5214 5215 5222 5216 5335 
	5194 5196 5184 
	
	#Moduk
	4986 4987 4988 5324 4989 4990 4991 4992 5327 4993 5326 5328 5000 5427 5329 5330 5334 5009 5332 5333 5331
	
	#North Haless
	5378 5379 5382 5381 5380 5383 5418 5421 5422
	5336 5338 5337 5375
	5377 

	6511 6512 4994 5325

	2194 6563 6564 

	#Cannor Tweaks
	6553
}

impassable = {
	2426 1173 1779 1781 1782 1783 1784 1785 1786 1787 1788 1789 1790 1791 1793 1794 1795 1796 1797 1798 1799 1801 1802 1803 1804 1805
	1806 1807 1808 1811 1812 1814 2194 2200 2251 2334 2608 2740 2425 2936 3415 3416 3417 3418 3419 3590 3591 3592 3593 3594 3595 
	3596 3597 3598 3599 3621 3622 3623 3624 3625 3626 3427 3628 3629 3630 3631 3632 3633 3634 3635 3636 3437 3638 3639 4146
	4153 4154 4155 4156 4157 4159 4160 4161 4162 4167 4168 4169 4170 4172 4177 4178 4179 4276 4321 4322 4328 6168 6502 6504 6505 6506 6507 6508 6509 6510 6198
	5384 5385 5386 5387 5388 5389 5390 5391 5392 5393 5394 5395 5396 5397 5398 5399 6558
	
	3190 3191 3192 #Far Salahad
	5519 5672 5535 6596

	6605
	
	#New Serpentspine sections
	4995 4996 4997 4998 4999 6545 6546

	#Sarhal
	5717 5778 5850
	6105 6106 6107 6108 6109 6110 6111 6112 6113 6114 6115 6116 6117 5561 5537 6119 6120
	
	#Larankar and Northern Pass
	6150
	
	6121 6122 6123 6124
	
	#Khenak on Busilar side
	6553

	6560 6561 6562 6563 6564 6565

	4650 4651 4652 4653 4654 4655 4656

	6587 6588 6589 6590 6591
}

mild_monsoon = {
	# Leechdens
	2185 2206 2207 2209 2210 2212 2213 2214 2216 2217 2218 2219 2220 2221 2223 2224 2225 2226 2227 2265 2282 2395
	# South Effelai
	2264 2266 2267 2365 2366 2377 2378
	
	#Rahen
	4421 4422 4423
	4416 4415 4413
	4426 4427 4428
	4361 4363
	4430
	4370 4547 4401
	
	4455 4457 4466
	4469 4471 4473
	4407 4481 4482
	4421 4422 4423 4425
	4477 4483 4484
	4479 4480 4508
	4464 4468 4478
	4467 4474 4475 4515
	
	  
	4507 4514 4476
	
	4465
	4453 4454 4456 4458
	4462 4463 4550 4520
	4459 4460 4397
	4509 4510
	4505 4506 
	
	#Yanshen
	4875 4874 4931

	4849 4853 4854
	4859 4861 4858
	4930 4932
	4873 4860 4867
	4868 4869 4870 4872 4871 4877 5420
	4904 4876 4905
	4875 4874 4931 4903
	4887 4882 4880 
	4850 4846
	4983 4835 
	4755 4754 4968 4944
	
	4838 4893 4889
	
	4982 4984 4840 4951 5426 4906 4847 4841
	4892 4891
	#Southwest Haless
	4749 4750 4751
	4747
	4719 4725 4721 
	4575
	4576 4577 4586
	4771
	4741
	4740 4743
	4738 4960
	
	
	4726 4723 4724
	4735 4964 4733
	
	4598
	4565 4582 4583
	
	4573 4574
	4570 4571 4578
	4580 4584 4585
	4704 4703
	4706
	4764 4759
	5429 4763 4761 4967
	
	4785 4936 4937 
	4613 4615 4559 4938
	4609 4612
	4593 4594 4595
	
	4611 4511
	4579 4581 4588 4589 4590
	4587 4591 4592
	4803 4804 4802
	4800 4801 4946
	4789 4787
	4799 4797 4798
	4788
}

normal_monsoon = {
	# Leechdens
	2222 2228 2229 2232 2233 2234
	
	#Rahen
	4366 4362 4365 4368 4378 4379 
	4385 4405 4410 4411 4412
	4394 4404
	4387  4389 
	4417  4419
	4434 4435 4436 4437
	4438 4439 4440 4442
	4380 4373 4381
	
	 
	 
	4502
	4503 4504
	
	4501 4497 4498 4499
	4485 4487 4486 4495
	  4494
	4555 4561 4562
	4409 4492 4408
	4488 4490 4491
	
	4500 4470 4489 4364 4620
	
	#Oni Hills and Yanshen
	4886 4883 4879 4878
	4836 4839 4837 4884
	4888 4885
	
	4881 4949
	
	#Southwest Haless
	4748 4745 4753 4752
	4744 4746 4955
	4965 4736 4742
	4730 4956 4731 4773
	4727 4774 4728 4732 4772
	4720 4963 4722
	4713 4962 
	4702 4696
	4957 4953 4959
	4708 4707
	
	4602
	
	4567 4568 4569 4572
	
	4694 4695
	4566 4560 4563 4564
	4766
	4711 4709 4769 4768
	4765 4710 4734 4737
	4795 4796 4941
	4793 4786 4794 4947
	4806 4935 4782 4621 4784
	
	4606 4607 4610 4614
	4603 4604 4605
	4608 4601 4600
	4783 4808 4934
	4712 4767
	4701 4961 4770
	4596 4597 4396 
	4599
}

severe_monsoon = {
	# Leechdens
	2231
	
	#Rahen
	4369 4372 4371 4367 
	4374 4375 4384 4386
	4388 4390 4393 4418 4392 4391
	
	4395 4398 4551
	4554 4556 4558
	4557
	4399 4406 4420
	4527
	4382 4383 4377
	
	4498 4497 4502 4501 4499 4496 4493
	
	#Southwest Haless
	4729
	4714
	4715 4718 4716 4717
	4699 4700 4958
	4658 4698
	4697
}

equator_y_on_province_image = 656
