
ibevar_1 = {
	slot = 1
	generic = no
	ai = yes
	has_country_shield = yes
	
	potential = {
		tag = A32
	}
	
	A32_launching_construction = {
		icon = mission_early_game_buildings
		position = 4
		
		required_missions = {
			A32_protecting_our_elders
		}
		
		provinces_to_highlight = {
			province_id = 350
			OR = {
				NOT = { owned_by = ROOT }
				NOT = { is_core = ROOT }
			}
		}
		
		trigger = {
			is_at_war = no
			adm_power = 200
			owns_core_province = 350
		}
		
		effect = {
			add_adm_power = -200
			350 = {
				add_permanent_province_modifier = {
					name = ibevar_building_antirionn
					duration = 12775
				}
			}
		}
	}
	
	A32_antirionn = {
		icon = mission_japanese_fort
		position = 4
		
		required_missions = {
			A32_launching_construction
		}
		
		provinces_to_highlight = {
			province_id = 350
			OR = {
				NOT = { owned_by = ROOT }
				NOT = { is_core = ROOT }
				has_province_modifier = ibevar_building_antirionn
			}
		}
		
		trigger = {
			is_at_war = no
			treasury = 1500
			owns_core_province = 350
			350 = {
				NOT = { has_province_modifier = ibevar_building_antirionn }
			}
		}
		
		effect = {
			add_treasury = -1500
			350 = {
				add_permanent_province_modifier = {
					name = ibevar_antirionn
					duration = -1
				}
			}
		}
	}
	
	A32_by_the_bottom = {
		icon = mission_rb_control_electors
		position = 11
		
		required_missions = {
			A32_modernizing_the_army
		}
		
		trigger = {
			is_at_war = no
			mil_power = 250
			NOT = { has_country_modifier = ibevar_modernizing_the_army }
			years_of_income = 2
			stability = 3
		}
		
		effect = {
			add_years_of_income = -2
			add_mil_power = -250
			add_army_professionalism = 0.05
			add_army_tradition = -10
			add_country_modifier = {
				name = ibevar_by_the_bottom
				duration = -1
			}
			add_country_modifier = {
				name = ibevar_modernizing_the_army
				duration = 3650
			}
		}
	}
}

ibevar_2 = {
	slot = 2
	generic = no
	ai = yes
	has_country_shield = yes
	
	potential = {
		tag = A32
	}
	
	A32_break_the_status_quo = {
		icon = mission_unite_home_region
		position = 2
		
		required_missions = {
			A32_secure_the_succession
		}
		
		provinces_to_highlight = {
			province_id = 350
			NOT = { owned_by = ROOT }
			NOT = { exists = A83 }
		}
		
		trigger = {
			NOT = { has_disaster = ibevar_reformation }
			if = {
				limit = { A83 = { exists = yes } }
				dip_power = 200
				adm_power = 100
				is_at_war = no
			}
			else = {
				owns = 350
			}
		}
		
		effect = {
			if = {
				limit = { A83 = { exists = yes } }
				country_event = { id = ibevar.1 }
			}
			else = { add_prestige = 5 }
		}
	}
	
	A32_protecting_our_elders = {
		icon = protectors_of_christendom
		position = 3
		
		required_missions = {
			A32_break_the_status_quo
		}
		
		provinces_to_highlight = {
			province_id = 350
			OR = {
				NOT = { owned_by = ROOT }
				NOT = { is_core = ROOT }
			}
		}
		
		trigger = {
			owns_core_province = 350
			is_at_war = no
			NOT = { war_exhaustion = 0.1 }
			treasury = 350
		}
		
		effect = {
			add_treasury = -350
			add_prestige = 10
			add_country_modifier = {
				name = ibevar_taking_care_of_elders
				duration = 18250
			}
		}
	}
	
	A32_council_of_the_ancients = {
		icon = tame_the_magnates
		position = 5
		
		required_missions = {
			A32_protecting_our_elders
		}
		
		trigger = {
			stability = 3
			government_reform_progress = 150
		}
		
		effect = {
			change_government_reform_progress = -150
			hidden_effect = { set_country_flag = council_of_the_ancients_reform_flag }
			add_government_reform = council_of_the_ancients_reform
		}
	}
	
	A32_expanding_east = {
		icon = the_latin_empire
		position = 7
		
		required_missions = {
			A32_prosperous_ibevar
		}
		
		provinces_to_highlight = {
			OR = {
				area = whistlevale_area
				area = cursewood_area
			}
			NOT = { owned_by = ROOT }
		}
		
		trigger = {
			whistlevale_area  = {
				type = all
				owned_by = ROOT
			}
			cursewood_area  = {
				type = all
				owned_by = ROOT
			}
		}
		
		effect = {
			add_adm_power = 100
			add_dip_power = 100
			add_country_modifier = {
				name = ibevar_expanding_east
				duration = 18250
			}
		}
	}
	
	A32_modernizing_the_army = {
		icon = moravian_arms
		position = 10
		
		required_missions = {
			A32_safe_home
		}
		
		trigger = {
			has_professionalism_equivalent = { VAL=0.4 }
			mil_power = 150
		}
		
		effect = {
			add_mil_power = -150
			add_country_modifier = {
				name = ibevar_modernizing_the_army
				duration = 3650
			}
		}
	}
	
	A32_by_the_top = {
		icon = a_center_of_religion
		position = 11
		
		required_missions = {
			A32_modernizing_the_army
		}
		
		trigger = {
			mil_power = 250
			NOT = { has_country_modifier = ibevar_modernizing_the_army }
			years_of_income = 2
			stability = 3
		}
		
		effect = {
			add_mil_power = -250
			add_army_professionalism = 0.05
			add_army_tradition = -10
			add_years_of_income = -2
			add_country_modifier = {
				name = ibevar_by_the_top
				duration = -1
			}
			add_country_modifier = {
				name = ibevar_modernizing_the_army
				duration = 3650
			}
		}
	}
	
	A32_ibevari_soldier = {
		icon = the_italian_league
		position = 12
		
		required_missions = {
			A32_by_the_top
			A32_by_the_bottom
		}
		
		trigger = {
			has_professionalism_equivalent = { VAL=0.8 }
		}
		
		effect = {
			add_country_modifier = {
				name = ibevar_the_ibevari_soldier
				duration = -1
			}
		}
	}
	
	A32_elfrealm_of_the_north = {
		icon = the_london_steelyard
		position = 14
		
		required_missions = {
			A32_ibevari_expansion
		}
		
		provinces_to_highlight = {
			OR = {
				area = arbaran_area
				area = golden_plains_area
				area = cestir_area
			}
			NOT = { owned_by = ROOT }
		}
		
		trigger = {
			arbaran_area  = {
				type = all
				owned_by = ROOT
			}
			golden_plains_area  = {
				type = all
				owned_by = ROOT
			}
			cestir_area  = {
				type = all
				owned_by = ROOT
			}
		}
		
		effect = {
			add_stability_or_adm_power = yes
			add_prestige = 10
			add_dip_power = 100
			add_mil_power = 100
		}
	}
}

ibevar_3 = {
	slot = 3
	generic = no
	ai = yes
	has_country_shield = yes
	
	potential = {
		tag = A32
	}
	
	A32_secure_the_succession = {
		icon = mission_crowning
		position = 1
		
		required_missions = {
		}
		
		trigger = {
			has_heir = yes
		}
		
		effect = {
			add_stability_or_adm_power = yes
		}
	}
	
	A32_prosperous_ibevar = {
		icon = mission_secure_khandesh
		position = 6
		
		required_missions = {
			A32_new_faith
			A32_council_of_the_ancients
			A32_secure_the_succession
		}
		
		provinces_to_highlight = {
			OR = {
				area = north_ibevar_area
				area = south_ibevar_area
			}
			OR = {
				NOT = { owned_by = ROOT }
				AND = {
					has_dlc = "Mandate of Heaven"
					is_prosperous = yes
				}
				OR = {
					has_dlc = "Mandate of Heaven"
					devastation = 1
				}
			}
		}
		
		trigger = {
			north_ibevar_area = {
                type = all
                owned_by = ROOT
				OR = {
					AND = {
						is_prosperous = yes
						has_dlc = "Mandate of Heaven"
					}
					NOT = {
						has_dlc = "Mandate of Heaven"
						devastation = 1
					}
				}
            }
            south_ibevar_area = {
                type = all
                owned_by = ROOT
				OR = {
					AND = {
						is_prosperous = yes
						has_dlc = "Mandate of Heaven"
					}
					NOT = {
						has_dlc = "Mandate of Heaven"
						devastation = 1
					}
				}
            }
		}
		
		effect = {
			add_country_modifier = {
				name = ibevar_prosperous_ibevar
				duration = 36500
			}
			whistlevale_area = {
				limit = {
					NOT = { is_core = ROOT }
					NOT = { is_permanent_claim = ROOT }
				}
				add_permanent_claim = ROOT
			}
			cursewood_area = {
				limit = {
					NOT = { is_core = ROOT }
					NOT = { is_permanent_claim = ROOT }
				}
				add_permanent_claim = ROOT
			}
			rotwall_area = {
				limit = {
					NOT = { is_core = ROOT }
					NOT = { is_permanent_claim = ROOT }
				}
				add_permanent_claim = ROOT
			}
			teagansfield_area = {
				limit = {
					NOT = { is_core = ROOT }
					NOT = { is_permanent_claim = ROOT }
				}
				add_permanent_claim = ROOT
			}
		}
	}
	
	A32_protecting_the_pass = {
		icon = mission_south_african_bases
		position = 7
		
		required_missions = {
			A32_prosperous_ibevar
		}
		
		provinces_to_highlight = {
			province_id = 356
			OR = {
				NOT = { owned_by = ROOT }
				NOT = { has_fort_building_trigger = yes }
			}
		}
		
		trigger = {
			356 = {
				owned_by = ROOT
				has_fort_building_trigger = yes
			}
			mil_power = 100
		}
		
		effect = {
			add_mil_power = -100
			356 = {
				add_permanent_province_modifier = {
					name = ibevar_the_western_wall
					duration = -1
				}
			}
		}
	}
	
	A32_the_elven_vale = {
		icon = mission_rb_conquer_wales
		position = 8
		
		required_missions = {
			A32_protecting_the_pass
			A32_expanding_east
			A32_securing_the_south
		}
		
		provinces_to_highlight = {
			region = forlorn_vale_region
			NOT = { owned_by = ROOT }
		}
		
		trigger = {
			forlorn_vale_region = {
				type = all
				owned_by = ROOT
			}
		}
		
		effect = {
			add_stability_or_adm_power = yes
			
			add_country_modifier = {
				name = ibevar_the_elven_vale
				duration = -1
			}
		}
	}
	
	A32_safe_home = {
		icon = mission_nomad
		position = 9
		
		required_missions = {
			A32_the_elven_vale
		}
		
		provinces_to_highlight = {
			owned_by = ROOT
			has_elven_majority_trigger = yes
		}
		
		trigger = {
			development_in_provinces = {
				value = 500
				has_elven_majority_trigger = yes
			}
		}
		
		effect = {
			add_splendor = 800
		}
	}
	
	A32_casna_aesa = {
		icon = mission_mahmudabad
		position = 10
		
		required_missions = {
			A32_safe_home
		}
		
		trigger = {
			is_at_war = no
			treasury = 1500
		}
		
		effect = {
			country_event = { id = ibevar.8 }
		}
	}
	
	A32_ibevari_expansion = {
		icon = establish_a_standing_army
		position = 13
		
		required_missions = {
			A32_ibevari_soldier
			A32_casna_aesa
			A32_ibevari_diplomat
		}
		
		trigger = {
			is_at_war = no
			dip_power = 100
			mil_power = 100
			adm_power = 100
			army_size_percentage = 0.75
		}
		
		effect = {
			add_dip_power = -100
			add_mil_power = -100
			add_adm_power = -100
			
			arbaran_area = {
				limit = {
					NOT = { is_core = ROOT }
					NOT = { is_permanent_claim = ROOT }
				}
				add_permanent_claim = ROOT
			}
			cestir_area = {
				limit = {
					NOT = { is_core = ROOT }
					NOT = { is_permanent_claim = ROOT }
				}
				add_permanent_claim = ROOT
			}
			golden_plains_area = {
				limit = {
					NOT = { is_core = ROOT }
					NOT = { is_permanent_claim = ROOT }
				}
				add_permanent_claim = ROOT
			}
			
			rohibon_area = {
				limit = {
					NOT = { is_core = ROOT }
					NOT = { is_permanent_claim = ROOT }
				}
				add_permanent_claim = ROOT
			}
			valefort_area = {
				limit = {
					NOT = { is_core = ROOT }
					NOT = { is_permanent_claim = ROOT }
				}
				add_permanent_claim = ROOT
			}
			verteben_area = {
				limit = {
					NOT = { is_core = ROOT }
					NOT = { is_permanent_claim = ROOT }
				}
				add_permanent_claim = ROOT
			}
			taran_plains_area = {
				limit = {
					NOT = { is_core = ROOT }
					NOT = { is_permanent_claim = ROOT }
				}
				add_permanent_claim = ROOT
			}
			
		}
	}
	
	A32_greater_ibevar = {
		icon = a.e.i.o.u.
		position = 15
		
		required_missions = {
			A32_elfrealm_of_the_north
			A32_elfrealm_of_the_east
		}
		
		provinces_to_highlight = {
			owned_by = ROOT
			AND = {
				NOT = { is_prosperous = yes }
				NOT = { development = 25 }
			}
		}
		
		trigger = {
			all_owned_province = {
				OR = {
					custom_trigger_tooltip = {
						tooltip = province_is_prosperous
						is_prosperous = yes
					}
					development = 25
				}
			}
		}
		
		effect = {
			country_event = { id = ibevar.10 }
		}
	}
}

ibevar_4 = {
	slot = 4
	generic = no
	ai = yes
	has_country_shield = yes
	
	potential = {
		tag = A32
	}
	
	A32_religious_integration = {
		icon = answer_the_roman_question
		position = 2
		
		required_missions = {
			A32_secure_the_succession
		}
		
		trigger = {
			is_at_war = no
			mil_power = 100
			dip_power = 100
			adm_power = 100
			is_year = 1448
		}
		
		effect = {
			add_mil_power = -100
			add_dip_power = -100
			add_adm_power = -100
			
			add_country_modifier = {
				name = ibevar_religious_integration
				duration = 9125
			}
		}
	}
	
	A32_with_the_court = {
		icon = africa_proconsulare
		position = 3
		
		required_missions = {
			A32_religious_integration
		}
		
		trigger = {
			religious_unity = 0.5
			is_at_war = no
		}
		
		effect = {
			add_stability_or_adm_power = yes
			add_prestige = 5
		}
	}
	
	A32_new_faith = {
		icon = bavarian_cultural_dominance
		position = 5
		
		required_missions = {
			A32_to_the_new_with_the_old
		}
		
		trigger = {
			religious_unity = 1
			is_at_war = no
		}
		
		effect = {
			custom_tooltip = ibevar_new_faith_tooltip
			hidden_effect = { set_country_flag = ibevar_new_faith }
			country_event = { id = regent_court.2 }
		}
	}
	
	A32_securing_the_south = {
		icon = confront_the_lombards
		position = 7
		
		required_missions = {
			A32_prosperous_ibevar
		}
		
		provinces_to_highlight = {
			area = rotwall_area
			NOT = { owned_by = ROOT }
		}
		
		trigger = {
			rotwall_area = {
				type = all
				owned_by = ROOT
			}
		}
		
		effect = {
			add_adm_power = 50
			add_dip_power = 50
			add_country_modifier = {
				name = ibevar_securing_the_south
				duration = -1
			}
		}
	}
	
	A32_diplomatic_security = {
		icon = develop_the_south
		position = 10
		
		required_missions = {
			A32_safe_home
		}
		
		provinces_to_highlight = {
			emperor = { exists = yes NOT = { is_rival = ROOT } NOT = { tag = A32 } }
			is_capital_of = emperor
		}
		
		trigger = {
			is_at_war = no
			if = {
				limit = { emperor = { exists = yes NOT = { is_rival = ROOT } NOT = { tag = A32 } } }
				emperor = {
					OR = {
						alliance_with = ROOT
						has_opinion = {
							who = ROOT
							value = 150
						}
					}
				}
			}
			else = {
				OR = {
					AND = {
						num_of_allies = 3
						all_owned_province = {
							NOT = { is_part_of_hre = yes }
						}
					}
					emperor = { tag = A32 }
				}
			}
		}
		
		effect = {
			add_dip_power = 150
			add_country_modifier = {
				name = ibevar_diplomatic_security
				duration = -1
			}
		}
	}
	
	A32_external_diplomacy = {
		icon = military_self_reliance
		position = 11
		
		required_missions = {
			A32_diplomatic_security
		}
		
		trigger = {
			OR = {
				OR = {
					num_of_allies = 4
					num_of_subjects  = 2
				}
				dip_power = 350
			}
		}
		
		effect = {
			if = {
				limit = { OR = { num_of_allies = 4 num_of_subjects = 2 } }
			}
			else = { add_dip_power = -350 }
			add_country_modifier = {
				name = ibevari_external_diplomacy
				duration = -1
			}
		}
	}
	
	A32_ibevari_diplomat = {
		icon = mission_candide_letter
		position = 12
		
		required_missions = {
			A32_external_diplomacy
			A32_internal_preparation
		}
		
		trigger = {
			diplomatic_reputation = 6
		}
		
		effect = {
			add_country_modifier = {
				name = ibevar_the_ibevari_diplomat
				duration = -1
			}
		}
	}
	
	A32_elfrealm_of_the_east = {
		icon = mission_great_wall
		position = 14
		
		required_missions = {
			A32_ibevari_expansion
		}
		
		provinces_to_highlight = {
			OR = {
				area = verteben_area
				area = valefort_area
				area = rohibon_area
				area = taran_plains_area
			}
			NOT = { owned_by = ROOT }
		}
		
		trigger = {
			verteben_area  = {
				type = all
				owned_by = ROOT
			}
			valefort_area  = {
				type = all
				owned_by = ROOT
			}
			rohibon_area  = {
				type = all
				owned_by = ROOT
			}
			taran_plains_area  = {
				type = all
				owned_by = ROOT
			}
		}
		
		effect = {
			add_stability_or_adm_power = yes
			add_prestige = 10
			add_dip_power = 100
			add_mil_power = 100
		}
	}
}

ibevar_5 = {
	slot = 5
	generic = no
	ai = yes
	has_country_shield = yes
	
	potential = {
		tag = A32
	}
	
	A32_a_new_temple = {
		icon = mission_growth_of_ahmedabad
		position = 3
		
		required_missions = {
			A32_religious_integration
		}
		
		provinces_to_highlight = {
			province_id = 352
			NOT = { is_capital_of = ROOT }
		}
		
		trigger = {
			religious_unity = 0.4
			treasury = 350
			capital = 352
		}
		
		effect = {
			add_treasury = -350
			capital_scope = {
				add_permanent_province_modifier = {
					name = ibevar_temple_construction
					duration = 1825
				}
			}
		}
	}
	
	A32_to_the_new_with_the_old = {
		icon = mission_restore_kiev
		position = 4
		
		required_missions = {
			A32_a_new_temple
		}
		
		provinces_to_highlight = {
			province_id = 352
			OR = {
				NOT = { is_capital_of = ROOT }
				has_province_modifier = ibevar_temple_construction
			}
		}
		
		trigger = {
			religious_unity = 0.75
			capital = 352
			352 = { NOT = { has_province_modifier = ibevar_temple_construction } }
			adm_power = 75
			dip_power = 50
		}
		
		effect = {
			add_adm_power = -75
			add_dip_power = -50
			capital_scope = {
				add_permanent_province_modifier = {
					name = ibevar_great_temple
					duration = -1
				}
			}
		}
	}
	
	A32_internal_preparation = {
		icon = mission_religious
		position = 11
		
		required_missions = {
			A32_diplomatic_security
		}
		
		trigger = {
			is_at_war = no
			stability = 2
			diplomat = 3
			dip_power = 100
		}
		
		effect = {
			add_stability_or_adm_power = yes
			add_dip_power = -100
			add_country_modifier = {
				name = ibevar_internal_preparation
				duration = -1
			}
		}
	}
}

