
A97_conquering = {
	slot = 1
	generic = no
	ai = yes
	potential = {
		tag = A97
	}
	has_country_shield = yes
	
	A97_unite_redfoot = {
		icon = mission_redfoot
		required_missions = { }
		position = 1
		
		provinces_to_highlight = {
			OR = {
				area = the_borders_area
				area = thomsbridge_area
				area = lorenans_reach_area
				area = roysfort_area
				area = applefields_area
			}
			NOT = { country_or_non_sovereign_subject_holds = ROOT }
		}
		
		trigger = {
			the_borders_area = {
				type = all
				country_or_non_sovereign_subject_holds = ROOT
			}
			thomsbridge_area = {
				type = all
				country_or_non_sovereign_subject_holds = ROOT
			}
			lorenans_reach_area = {
				type = all
				country_or_non_sovereign_subject_holds = ROOT
			}
			roysfort_area = {
				type = all
				country_or_non_sovereign_subject_holds = ROOT
			}
			applefields_area = {
				type = all
				country_or_non_sovereign_subject_holds = ROOT
			}
		}

		effect = {
			add_accepted_culture = redfoot_halfling
			add_country_modifier = {
				name = "army_enthusiasm"
				duration = 9125 #25 years
			}
		}
	}

	A97_unite_small_country = {
		icon = mission_unite_the_small_country
		required_missions = { A97_unite_redfoot A97_unite_bluefoot }
		position = 2
		
		provinces_to_highlight = {
			region = small_country_region
			NOT = { country_or_non_sovereign_subject_holds = ROOT }
		}
		
		trigger = {
			small_country_region = {
				type = all
				country_or_non_sovereign_subject_holds = ROOT
			}
		}

		effect = {
			add_country_modifier = {
				name = "small_country_unification"
				duration = 9125 #25 years
			}
			iochand_area = {
				limit = {
					NOT = { is_core = ROOT }
					NOT = { owned_by = ROOT }
				}
				add_permanent_claim = ROOT
			}
			beepeck_area = {
				limit = {
					NOT = { is_core = ROOT }
					NOT = { owned_by = ROOT }
				}
				add_permanent_claim = ROOT
			}
		}
	}

	A97_conquer_iochand = {
		icon = mission_invade_arakan
		required_missions = { A97_unite_small_country }
		position = 3
		
		provinces_to_highlight = {
			area = iochand_area
			NOT = { country_or_non_sovereign_subject_holds = ROOT }
		}
		
		trigger = {
			iochand_area = {
				type = all
				country_or_non_sovereign_subject_holds = ROOT
			}
		}

		effect = {
			reaver_coast_area = {
				limit = {
					NOT = { is_core = ROOT }
					NOT = { owned_by = ROOT }
				}
				add_permanent_claim = ROOT
			}
			if = {
				limit = { 
					167 = {
						NOT = { is_core = ROOT }
						NOT = { owned_by = ROOT }
					}
				}
				167 = {
					add_permanent_claim = ROOT
				}
			}
			if = {
				limit = { 
					148 = {
						NOT = { is_core = ROOT }
						NOT = { owned_by = ROOT }
					}
				}
				148 = {
					add_permanent_claim = ROOT
				}
			}
			if = {
				limit = { 
					144 = {
						NOT = { is_core = ROOT }
						NOT = { owned_by = ROOT }
					}
				}
				144 = {
					add_permanent_claim = ROOT
				}
			}
			if = {
				limit = { 
					145 = {
						NOT = { is_core = ROOT }
						NOT = { owned_by = ROOT }
					}
				}
				145 = {
					add_permanent_claim = ROOT
				}
			}
		}
	}

	A97_conquer_reaver_coast = {
		icon = mission_rb_conquer_the_highlands
		required_missions = { A97_conquer_iochand }
		position = 5
		
		provinces_to_highlight = {
			OR = {
				area = reaver_coast_area
				province_id = 167
				province_id = 148
				province_id = 144
				province_id = 145
			}
			NOT = { country_or_non_sovereign_subject_holds = ROOT }
		}
		
		trigger = {
			reaver_coast_area = {
				type = all
				country_or_non_sovereign_subject_holds = ROOT
			}
			owns_or_non_sovereign_subject_of = 167
			owns_or_non_sovereign_subject_of = 148
			owns_or_non_sovereign_subject_of = 144
			owns_or_non_sovereign_subject_of = 145
		}

		effect = {
			dragonhills_area = {
				limit = {
					NOT = { is_core = ROOT }
					NOT = { owned_by = ROOT }
				}
				add_permanent_claim = ROOT
			}
			southroy_area = {
				limit = {
					NOT = { is_core = ROOT }
					NOT = { owned_by = ROOT }
				}
				add_permanent_claim = ROOT
			}
			if = {
				limit = { 
					208 = {
						NOT = { is_core = ROOT }
						NOT = { owned_by = ROOT }
					}
				}
				208 = {
					add_permanent_claim = ROOT
				}
			}
		}
	}

	A97_conquer_dragonhills = {
		icon = mission_rb_conquer_wales
		required_missions = { A97_conquer_reaver_coast }
		position = 6
		
		provinces_to_highlight = {
			area = dragonhills_area
			NOT = { country_or_non_sovereign_subject_holds = ROOT }
		}
		
		trigger = {
			dragonhills_area = {
				type = all
				country_or_non_sovereign_subject_holds = ROOT
			}
		}

		effect = {
			floodmarches_area = {
				limit = {
					NOT = { is_core = ROOT }
					NOT = { owned_by = ROOT }
				}
				add_permanent_claim = ROOT
			}
			if = {
				limit = { 
					216 = {
						NOT = { is_core = ROOT }
						NOT = { owned_by = ROOT }
					}
				}
				216 = {
					add_permanent_claim = ROOT
				}
			}
		}
	}

	A97_floodmarches_fort = {
		icon = mission_magnificent_castle
		required_missions = { A97_conquer_dragonhills }
		position = 7
		
		provinces_to_highlight = {
			area = floodmarches_area
			NOT = { country_or_non_sovereign_subject_holds = ROOT }
		}
		
		trigger = {
			treasury = 100
			floodmarches_area = {
				type = all
				country_or_non_sovereign_subject_holds = ROOT
			}
		}

		effect = {
			add_treasury = -100
			215 = {
				add_permanent_province_modifier = {
					name = small_country_border_fort
					duration = -1
				}
			}
		}
	}

}

A97_misc = {
	slot = 2
	generic = no
	ai = yes
	potential = {
		tag = A97
	}
	has_country_shield = yes
	
	A97_unite_bluefoot = {
		icon = mission_bluefoot
		required_missions = { }
		position = 1
		
		provinces_to_highlight = {
			OR = {
				area = lorentish_approach_area
				area = pearpoint_area
				area = norley_area
			}
			NOT = { country_or_non_sovereign_subject_holds = ROOT }
		}
		
		trigger = {
			lorentish_approach_area = {
				type = all
				country_or_non_sovereign_subject_holds = ROOT
			}
			norley_area = {
				type = all
				country_or_non_sovereign_subject_holds = ROOT
			}
			pearpoint_area = {
				type = all
				country_or_non_sovereign_subject_holds = ROOT
			}
		}

		effect = {
			add_accepted_culture = bluefoot_halfling
			add_country_modifier = {
				name = "thriving_arms_industry"
				duration = 9125 #25 years
			}
		}
	}

	A97_trade_fleet = {
		icon = indonesian_trade
		required_missions = { A97_home_trade }
		position = 2
		
		trigger = {
			num_of_light_ship = 20
		}

		effect = {
			add_prestige = 10
			add_country_modifier = {
				name = "naval_enthusiasm_mission"
				duration = 9125 #25 years
			}			
		}
	}

	A97_westport = {
		icon = mission_heart_of_the_hansa
		required_missions = { A97_dragon_coast }
		position = 3
		
		provinces_to_highlight = {
			province_id = 126
			NOT = { is_strongest_trade_power = ROOT }
		}
		
		trigger = {
			126 = {
				is_strongest_trade_power = ROOT
			}
		}

		effect = {
			add_mercantilism = 2
			add_country_modifier = {
				name = "small_country_westport_colonist"
				duration = 10950 #30 years
			}
		}
	}

	A97_colonial_dalaire = {
		icon = mission_rb_colonise_canada
		required_missions = { A97_conquer_iochand }
		position = 4
		
		provinces_to_highlight = {
			colonial_region = colonial_dalaire
			OR = {
				NOT = { country_or_non_sovereign_subject_holds = ROOT }
				NOT = { is_city = yes }
			}
			has_discovered = ROOT
		}
		
		trigger = {
			any_subject_country = {
				is_colonial_nation_of = ROOT
				capital_scope = { colonial_region = colonial_dalaire }
				num_of_cities = 10
			}
		}
		effect = {
			add_country_modifier = {
				name = "colonial_enthusiasm"
				duration = 9125
			}			
		}
	}
	
	A97_colonial_noruin = {
		icon = mission_settlers_north_america
		required_missions = { A97_colonial_dalaire }
		position = 5
		
		provinces_to_highlight = {
			colonial_region = colonial_noruin
			OR = {
				NOT = { country_or_non_sovereign_subject_holds = ROOT }
				NOT = { is_city = yes }
			}
			has_discovered = ROOT
		}
		
		trigger = {
			treasury = 400
			any_subject_country = {
				is_colonial_nation_of = A97
				capital_scope = { colonial_region = colonial_noruin }
				num_of_cities = 10
			}
		}
		
		effect = {
			custom_tooltip = buy_thilvis_tooltip
			if = {
				limit = { exists = G96 }
				country_event = { id = flavor_smallcountry.14 }
			}
			if = {
				limit = { NOT = { exists = G96 } }
				thilvis_area = {
					limit = {
						NOT = { is_core = ROOT }
						NOT = { owned_by = ROOT }
					}
					add_permanent_claim = ROOT
				}
				north_america = {
					limit = {
						NOT = { is_core = ROOT }
						NOT = { owned_by = ROOT }
						culture = visfoot_halfling
					}
					add_permanent_claim = ROOT
				}
			}
		}
	}
	
	A97_conquer_southroy = {
		icon = mission_konkani_pirates
		required_missions = { A97_conquer_reaver_coast }
		position = 6
		
		provinces_to_highlight = {
			area = southroy_area
			NOT = { country_or_non_sovereign_subject_holds = ROOT }
		}
		
		trigger = {
			treasury = 100
			southroy_area = {
				type = all
				country_or_non_sovereign_subject_holds = ROOT
			}
		}

		effect = {
			add_treasury = -100
			124 = {
				add_permanent_province_modifier = {
					name = small_country_border_fort
					duration = -1
				}
			}
		}
	}
	
	A97_defeat_oppressors = {
		icon = mission_burning_separation
		required_missions = { A97_conquer_southroy A97_floodmarches_fort }
		position = 8
		
		trigger = {
			if = {
				limit = { 
					OR = {
						has_dlc = "Rights of Man" 
						has_dlc = "Emperor"
					}
				}
				is_great_power = yes
				A01 = { is_great_power = no }
				A13 = { is_great_power = no }
			}
			else = {
				total_development = 500
				NOT = { A01 = { total_development = 500 } }
				NOT = {	A13 = { total_development = 500 } }
			}
		}

		effect = {
			add_power_projection = {
				type = mission_rewards_power_projection
				amount = 50
			}
			add_country_modifier = {
				name = "small_country_defeated_oppressors"
				duration = -1
			}
		}
	}
	
	A97_trade_company_region_abroad = {
		icon = mission_trade_company_region_abroad
		required_missions = {  }
		position = 9
		
		trigger = {
			custom_trigger_tooltip = {
				tooltip = trade_company_region_abroad_tooltip
				calc_true_if = {
					all_trade_node = {
						calc_true_if = {
							all_trade_node_member_province = {
								owned_by = ROOT
								is_node_in_trade_company_region = yes
								NOT = { continent = CAPITAL }
							}
							amount = 5
						}
					}
					amount = 3
				}
			}
		}
		
		effect = {
			add_country_modifier = {
				name = "east_india_trade_rush"
				duration = 9125 #25 years
			}
		}
	}

	A97_sarhal_placeholder = {
		icon = mission_west_african_ports
		required_missions = { A97_trade_company_region_abroad }
		position = 10
		
		trigger = {
		
		}
		
		effect = {

		}
	}
}

A97_something = {
	slot = 3
	generic = no
	ai = yes
	potential = {
		tag = A97
	}
	has_country_shield = yes
	
	A97_home_trade = {
		icon = return_visby_to_the_league
		required_missions = { }
		position = 1
		
		provinces_to_highlight = {
			province_id = 66
			NOT = {
				trade_share = {
					country = ROOT
					share = 60
				}
			}
		}
		
		trigger = {
			66 = {
				trade_share = {
					country = ROOT
					share = 60
				}
			}
		}

		effect = {
			add_mercantilism = 1
			hidden_effect = {
				66 = {
					random_trade_node_member_province = {
						limit = {
							owned_by = ROOT
						}
						save_event_target_as = reward_province
					}
					random_trade_node_member_province = {
						limit = {
							owned_by = ROOT
							is_capital = yes
						}
						save_event_target_as = reward_province
					}
					random_trade_node_member_province = {
						limit = {
							owned_by = ROOT
							development = CAPITAL
							is_capital = no
						}
						save_event_target_as = reward_province
					}
					random_trade_node_member_province = {
						limit = {
							owned_by = ROOT
							development = CAPITAL
							is_capital = no
							development = 20
						}
						save_event_target_as = reward_province
					}
					random_trade_node_member_province = {
						limit = {
							owned_by = ROOT
							development = CAPITAL
							is_capital = no
							development = 25
						}
						save_event_target_as = reward_province
					}
					random_trade_node_member_province = {
						limit = {
							owned_by = ROOT
							development = CAPITAL
							is_capital = no
							development = 30
						}
						save_event_target_as = reward_province
					}
				}
			}
			if = {
				limit = { has_saved_event_target = reward_province }
				event_target:reward_province = {
					add_province_modifier = {
						name = "dominant_trade_hub"
						duration = -1
					}
				}
			}
			else = {
				custom_tooltip = dominant_home_node_reward_tooltip
			}
		}
	}

	A97_dragon_coast = {
		icon = mission_protect_white_sea_trade
		required_missions = { A97_home_trade }
		position = 2
		
		provinces_to_highlight = {
			province_id = 177
			NOT = {
				trade_share = {
					country = ROOT
					share = 30
				}
			}
		}
		
		trigger = {
			177 = {
				trade_share = {
					country = ROOT
					share = 30
				}
			}
		}

		effect = {
			add_mercantilism = 1
			add_country_modifier = {
				name = "small_country_northern_trade"
				duration = 9125 #25 years
			}
		}
	}
	
	A97_damescrown = {
		icon = control_coromandel
		required_missions = { A97_dragon_coast }
		position = 3
		
		provinces_to_highlight = {
			province_id = 151
			NOT = { is_strongest_trade_power = ROOT }
		}
		
		trigger = {
			151 = {
				is_strongest_trade_power = ROOT
			}
		}

		effect = {
			add_mercantilism = 2
			add_country_modifier = {
				name = "beepeck_damescrown_trade_draw"
				duration = 9125 #25 years
			}
		}
	}

	A97_import_corn = {
		icon = mission_iroquois_food_surplus
		required_missions = { A97_colonial_dalaire }
		position = 5

		provinces_to_highlight = {
			OR = {
				AND = {
					area = roysfort_area
					NOT = { country_or_non_sovereign_subject_holds = ROOT }
				}
				AND = {
					OR = {
						continent = new_world
						continent = north_america
					}
					NOT = { country_or_non_sovereign_subject_holds = ROOT }
					NOT = {
						ROOT = {
							num_of_provinces_owned_or_owned_by_non_sovereign_subjects_with = {
								value = 15
								OR = {
									continent = new_world
									continent = north_america
								}
							}
						}
					}
					has_discovered = ROOT
					is_sea = no
				}
			}
		}
		
		trigger = {
			roysfort_area = {
				type = all
				country_or_non_sovereign_subject_holds = ROOT
			}
			num_of_provinces_owned_or_owned_by_non_sovereign_subjects_with = {
				value = 15
				OR = {
					continent = new_world
					continent = north_america
				}
			}
		}
		
		effect = {
			roysfort_area = {
				add_permanent_province_modifier = {
					name = small_country_corn
					duration = -1
				}
			}
		}
	}

	A97_colonial_banished_isles = {
		icon = mission_the_triangle_trade
		required_missions = { A97_conquer_southroy }
		position = 7
		
		provinces_to_highlight = {
			colonial_region = colonial_isles
			OR = {
				NOT = { country_or_non_sovereign_subject_holds = ROOT }
				NOT = { is_city = yes }
			}
			has_discovered = ROOT
		}
		
		trigger = {
			treasury = 400
			any_subject_country = {
				is_colonial_nation_of = ROOT
				capital_scope = { colonial_region = colonial_isles }
				num_of_cities = 10
			}
		}
		
		effect = {
			add_treasury = -400
			add_country_modifier = {
				name = "small_country_colonial_office"
				duration = -1
			}	
		}
	}

}

A97_development = {
	slot = 4
	generic = no
	ai = yes
	potential = {
		tag = A97
	}
	has_country_shield = yes

	A97_rebuild_viswall = {
		icon = negotiate_for_avignon
		required_missions = { }
		position = 1
		
		provinces_to_highlight = {
			OR = {
				province_id = 63
				province_id = 66
			}
			OR = {
				NOT = { owned_by = ROOT }
				NOT = { development = 30 }
				NOT = { province_has_center_of_trade_of_level = 2 }
			}
		}
		
		trigger = {
			63 = {
				owned_by = ROOT
				development = 30
				province_has_center_of_trade_of_level = 2
			}
			66 = {
				owned_by = ROOT
				development = 30
				province_has_center_of_trade_of_level = 2
			}
		}
		
		effect = {
			country_event = { id = flavor_smallcountry.13 }
			if = {
				limit = {
					NOT = {
						OR = {
							capital = 63
							capital = 66
						}
					}
				}
				country_event = { id = flavor_smallcountry.17 }
			}
			viswall_area = {
				limit = { owned_by = ROOT }
				add_province_modifier = {
					name = "growth_of_capital"
					duration = 9125 #25 years
				}
			}
		}
	}

	A97_reinvigorate_greymill = {
		icon = mission_have_manufactories
		required_missions = { A97_rebuild_viswall }
		position = 2
		
		provinces_to_highlight = {
			area = norley_area
			NOT = { country_or_non_sovereign_subject_holds = ROOT }
		}
		
		trigger = {
			natural_scientist = 3
			adm_power = 100
			norley_area = {
				type = all
				country_or_non_sovereign_subject_holds = ROOT
			}
		}
		
		effect = {
			add_adm_power = -100
			norley_area = {
				add_permanent_province_modifier = {
					name = small_country_greymill
					duration = -1
				}
			}
			add_country_modifier = {
				name = "building_spree"
				duration = 9125 #25 years
			}
		}
	}
	
	A97_viswall_brandy = {
		icon = establish_oktoberfest
		required_missions = { A97_reinvigorate_greymill }
		position = 3
		
		provinces_to_highlight = {
			OR = {
				AND = {
					OR = {
						province_id = 63
						province_id = 66
					}
					OR = {
						NOT = { owned_by = ROOT }
						NOT = { has_trade_building_trigger = yes }
					}
				}
				AND = {
					OR = {
						province_id = 147
						province_id = 139
					}
					OR = {
						NOT = { owned_by = ROOT }
						NOT = { has_manufactory_trigger = yes }
					}
				}
			}
		}
		
		trigger = {
			63 = {
				owned_by = ROOT
				has_trade_building_trigger = yes
			}
			66 = {
				owned_by = ROOT
				has_trade_building_trigger = yes
			}
			147 = {
				owned_by = ROOT
				has_manufactory_trigger = yes
			}
			139 = {
				owned_by = ROOT
				has_manufactory_trigger = yes
			}
		}
		
		effect = {
			147 = {
				change_trade_goods = wine
				add_permanent_province_modifier = {
					name = small_country_brandy
					duration = -1
				}
			}
			139 = {
				change_trade_goods = wine
				add_permanent_province_modifier = {
					name = small_country_brandy
					duration = -1
				}
			}
			63 = {
				add_permanent_province_modifier = {
					name = small_country_brandy
					duration = -1
				}
			}
			66 = {
				add_permanent_province_modifier = {
					name = small_country_brandy
					duration = -1
				}
			}
			add_country_modifier = {
				name = "beepeck_new_market"
				duration = 7300 #20 years
			}
		}
	}
	
	A97_hardoaks_hardwood = {
		icon = toulon_dockyards
		required_missions = { A97_viswall_brandy }
		position = 4
		
		provinces_to_highlight = {
			area = lorentish_approach_area
			NOT = { country_or_non_sovereign_subject_holds = ROOT }
		}
		
		trigger = {
			treasury = 300
			lorentish_approach_area = {
				type = all
				country_or_non_sovereign_subject_holds = ROOT
			}
		}
		
		effect = {
			add_treasury = -300
			lorentish_approach_area = {
				add_permanent_province_modifier = {
					name = small_country_hardwood
					duration = -1
				}
			}
			add_country_modifier = {
				name = "growing_economy"
				duration = 9125 #25 years
			}
		}
	}

	A97_coppertown_industry = {
		icon = mission_rb_central_belt_coal_mining
		required_missions = { A97_hardoaks_hardwood }
		position = 5
		
		provinces_to_highlight = {
			OR = {
				province_id = 161
				province_id = 160
				province_id = 164
			}
			OR = {
				NOT = { owned_by = ROOT }
				NOT = { has_production_building_trigger = yes }
				NOT = { has_manufactory_trigger = yes }
			}
		}
		
		trigger = {
			164 = {
				owned_by = ROOT
				has_production_building_trigger = yes
				has_manufactory_trigger = yes
			}
			160 = {
				owned_by = ROOT
				has_production_building_trigger = yes
				has_manufactory_trigger = yes
			}
			161 = {
				owned_by = ROOT
				has_production_building_trigger = yes
				has_manufactory_trigger = yes
			}
		}
		
		effect = {
			the_borders_area = {
				add_permanent_province_modifier = {
					name = small_country_coppertown_industry
					duration = -1
				}
			}
			add_country_modifier = {
				name = "thriving_arms_industry"
				duration = 9125 #25 years
			}
		}
	}

	A97_halfling_weed = {
		icon = prosperity_for_all
		required_missions = { A97_coppertown_industry }
		position = 6
		
		provinces_to_highlight = {
			owned_by = ROOT
			region = small_country_region
			trade_goods = tobacco
			OR = {
				NOT = { base_production = 5 }
				NOT = { has_production_building_trigger = yes }
			}
		}
		
		trigger = {
			num_of_owned_provinces_with = {
				value = 3
				region = small_country_region
				trade_goods = tobacco
				base_production = 5
				has_production_building_trigger = yes
			}
		}
		
		effect = {
			135 = {
				if = {
					limit = { has_building = plantations }
					add_base_production = 6
				}
				else = {
					add_base_production = 3
					add_building = plantations
				}
			}
		}
	}
	
	A97_prosperity = {
		icon = mission_a_million_rice_fields
		required_missions = { A97_halfling_weed }
		position = 7
		
		provinces_to_highlight = {
			owned_by = ROOT
			region = small_country_region
			culture_group = halfling
		}
		
		trigger = {
			development_in_provinces = {
				value = 600
				region = small_country_region
				culture_group = halfling
			}
		}
		
		effect = {
			if = {
				limit = { NOT = { has_dlc = "Mandate of Heaven" } }
				add_treasury = 500
			}
			small_country_region = {
				add_prosperity = 50
			}
			add_country_modifier = {
				name = "small_country_prosperity"
				duration = 18250
			}
		}
	}
	
	#A97_begga_goodfingers = {
	#	icon = mission_european_church
	#	required_missions = { }
	#	position = 8
	#	
	#	trigger = {
	#		cathedral = 5
	#		OR = {
	#		#	has_personal_deity = begga_goodfingers
	#			fervor = 75
	#		}
	#		religious_unity = 100
	#		theologian = 3
	#	}
	#	
	#	effect = {
	#		add_country_modifier = {
	#			name = "small_country_begga"
	#			duration = 18250 #50 years
	#		}
	#		change_personal_deity = begga_goodfingers_2
	#		set_country_flag = begga_2
	#		IF = {
	#			limit = corinite
	#			add_country_modifier = {
	#				name = "small_country_corin"
	#				duration = -1
	#			}
	#		}
	#	}
	#}
}

A97_empire = {
	slot = 5
	generic = no
	ai = yes
	potential = {
		tag = A97
		NOT = { was_tag = A12 }
	}
	has_country_shield = yes

	A97_conquer_beepeck = {
		icon = mission_monarch_in_throne_room
		required_missions = { }
		position = 3

		provinces_to_highlight = {
			area = beepeck_area
			NOT = { country_or_non_sovereign_subject_holds = ROOT }
		}

		trigger = {
			beepeck_area = {
				type = all
				country_or_non_sovereign_subject_holds = ROOT
			}
		}

		effect = {
			dames_forehead_area = {
				limit = {
					NOT = { is_core = ROOT }
					NOT = { owned_by = ROOT }
				}
				add_permanent_claim = ROOT
			}
		}
	}

	A97_conquer_uelaire = {
		icon = mission_conquer_uelaire
		required_missions = { A97_conquer_beepeck }
		position = 4
		
		provinces_to_highlight = {
			OR = {
				province_id = 207
				province_id = 209
				province_id = 347
			}
			NOT = { country_or_non_sovereign_subject_holds = ROOT }
		}
		
		trigger = {
			owns_or_non_sovereign_subject_of = 207
			owns_or_non_sovereign_subject_of = 209
			owns_or_non_sovereign_subject_of = 347
		}

		effect = {
			exwes_area = {
				limit = {
					NOT = { is_core = ROOT }
					NOT = { owned_by = ROOT }
				}
				add_permanent_claim = ROOT
			}
		}
	}

	A97_conquer_exwes = {
		icon = expand_the_terraferma
		required_missions = { A97_conquer_uelaire }
		position = 5
		
		provinces_to_highlight = {
			area = exwes_area
			NOT = { country_or_non_sovereign_subject_holds = ROOT }
		}
		
		trigger = {
			exwes_area = {
				type = all
				country_or_non_sovereign_subject_holds = ROOT
			}
		}

		effect = {
			add_prestige = 10
			add_manpower = 5
			add_stability_or_adm_power = yes
		}
	}

	A97_beepeck_port = {
		icon = secure_the_republic
		required_missions = { }
		position = 6
		
		provinces_to_highlight = {
			OR = {
				AND = {
					OR = {
						province_id = 60
						province_id = 155
						province_id = 151
					}
					OR = {
						NOT = { owned_by = ROOT}
						NOT = { has_trade_building_trigger = yes }
					}
				}
				AND = {
					province_id = 151
					OR = {
						NOT = { has_shipyard_building_trigger = yes }
						NOT = { province_has_center_of_trade_of_level = 2 }
					}
				}
			}
		}
		
		trigger = {
			60 = {
				owned_by = ROOT
				has_trade_building_trigger = yes
			}
			155 = {
				owned_by = ROOT
				has_trade_building_trigger = yes
			}
			151 = {
				owned_by = ROOT
				has_trade_building_trigger = yes
				has_shipyard_building_trigger = yes
				province_has_center_of_trade_of_level = 2
			}
		}
		
		effect = {
			151 = {
				add_center_of_trade_level = 1
			}
		}
	}
}