
venail_2 = {
	slot = 2
	generic = no
	ai = yes
	has_country_shield = yes
	
	potential = {
		tag = A21
	}
	
	A21_damescrown_loan = {
		icon = mission_asian_trader
		ai = yes
		position = 3
		
		required_missions = {
			A21_discover_ude
		}
		
		trigger = {
			if = {
				limit = { ai = no }
				reverse_has_opinion = {
					who = A25
					value = 100
				}
			}
			else = {
				always = yes
			}
		}
		effect = {
			country_event = { id = venail.2 } ##Damescrown Loan
		}
	}
	
	A21_immigration_one = {
		icon = mission_sea_battles
		ai = yes
		position = 4
		
		required_missions = {
			A21_first_colony
		}
		
		trigger = {
			adm_power = 50
			dip_power = 50
			mil_power = 50
		}
		
		effect = {
			add_dip_power = -50
			add_mil_power = -50
			add_adm_power = -50
			if = {
				limit = { ai = no }
				add_country_modifier = {
					name = venail_immigration_first_step
					duration = 3650
				}
			}
			
			#The Venaili Island Rights
			hidden_effect = { 88 = { province_event = { id = venail.16 days = 365 random = 60 } } }
		}
	}
	
	A21_immigration_two = {
		icon = mission_sea_battles
		ai = yes
		position = 5
		
		required_missions = {
			A21_immigration_one
		}
		
		trigger = {
			adm_power = 100
			dip_power = 100
			mil_power = 100
			NOT = { has_country_modifier = venail_immigration_first_step }
		}
		
		effect = {
			add_dip_power = -100
			add_mil_power = -100
			add_adm_power = -100
			if = {
				limit = { ai = no }
				add_country_modifier = {
					name = venail_immigration_second_step
					duration = 3650
				}
			}
		}
	}
	
	A21_immigration_three = {
		icon = mission_sea_battles
		ai = yes
		position = 6
		
		required_missions = {
			A21_immigration_two
		}
		
		trigger = {
			adm_power = 200
			dip_power = 200
			mil_power = 200
			NOT = { has_country_modifier = venail_immigration_second_step }
		}
		
		effect = {
			add_dip_power = -200
			add_mil_power = -200
			add_adm_power = -200
			if = {
				limit = { ai = no }
				add_country_modifier = {
					name = venail_immigration_third_step
					duration = 3650
				}
			}
		}
	}
	
	A21_revitalize_economy = {
		icon = mission_war_chest
		ai = yes
		position = 9
		
		required_missions = {
			A21_new_beginning
		}
		
		trigger = {
			adm_power = 100
			if = {
				limit = {
					ai = yes
					was_player = no
				}
				treasury = 150
			}
			else = {
				treasury = 500
			}
		}
		
		effect = {
			add_adm_power = -100
			if = {
				limit = { 
					ai = yes
					was_player = no
				}
				add_treasury = 500
				add_country_modifier = {
					name = venail_ai_boost
					duration = 27375
				}
			}
			else = {
				add_treasury = -500
			}
			add_country_modifier = {
				name = venail_economic_boom
				duration = 14600
			}
			remove_country_modifier = sold_venail_rights
			country_event = { id = venail.10 }
		}
	}
	
	A21_trading_hub = {
		icon = mission_high_income
		ai = yes
		position = 10
		
		required_missions = {
			A21_revitalize_economy
		}
		
		trigger = {
			if = {
				limit = { ai = yes }
				treasury = 150
			}
			else = {
				treasury = 500
			}
			if = {
				limit = { has_dlc = "Dharma" }
				dip_power = 100
				any_owned_province = {
					province_has_center_of_trade_of_level = 3
				}
			}
			else = {
				dip_power = 200
			}
		}
		
		effect = {
			if = {
				limit = { ai = yes }
				add_treasury = -150
			}
			else = {
				add_treasury = -500
			}
			if = {
				limit = { NOT = { has_dlc = "Dharma" } }
				add_dip_power = -200
			}
			else = {
				add_dip_power = -100
			}
			add_country_modifier = {
				name = venail_trading_boom
				duration = 14600
			}
			country_event = { id = venail.11 }
		}
	}
}

venail_3 = {
	slot = 3
	generic = no
	ai = yes
	has_country_shield = yes
	
	potential = {
		tag = A21
	}
	
	A21_prepare_the_fleet = {
		icon = mission_rb_grow_the_channel
		ai = yes
		position = 1
		
		trigger = {
			exploration_ideas = 1
		}
		
		effect = {
			add_prestige = 15
			add_dip_power = 100
			country_event = {id = venail.1 days = 200 random = 100} ##Alariandel arrive
		}
	}
	
	A21_discover_ude = {
		icon = mission_rb_into_ireland
		ai = yes
		position = 2
		
		required_missions = {
			A21_prepare_the_fleet
		}
		
		provinces_to_highlight = {
			province_id = 1057 # Ude
		}
		
		trigger = {
			if = {
				limit = { ai = no }
				has_discovered = 1057
				has_country_modifier = alariandel_impulse
			}
			else = {
				has_country_modifier = alariandel_impulse
			}
		}
		
		effect = {
			add_prestige = 5
			add_dip_power = 75
			remove_country_modifier = alariandel_impulse 
			set_country_flag = venail_ai_damescrown
			if = {
				limit = { ai = yes }
				colonial_endralliande = {
					discover_country = ROOT
				}
				colonial_noruin = {
					discover_country = ROOT
				}
				north_uelos_lament_ocean_region = {
					discover_country = ROOT
				}
			}
		}
	}
	
	A21_first_colony = {
		icon = mission_early_modern_university
		ai = yes
		position = 3
		
		required_missions = {
			A21_discover_ude
		}
		
		trigger = {
			any_subject_country = {
				is_colonial_nation_of = A21
			}
		}
		
		effect = {
			add_prestige = 15
			add_dip_power = 100
			set_country_flag = venail_ai_noruin
		}
	}
	
	A21_new_dawn_harbor = {
		icon = mission_trade_with_cathay
		ai = yes
		position = 4
		
		required_missions = {
			A21_first_colony
		}
		
		trigger = {
			dip_power = 100
			adm_power = 100
			treasury = 100
			any_province = {
				is_city = yes 
				has_port = yes
				OR = {
					colonial_region = colonial_endralliande
					colonial_region = colonial_isles
					colonial_region = colonial_dalaire
					province_id = 927
				}
				development = 15
				country_or_non_sovereign_subject_holds = A21
			}
		}
		
		effect = {
			add_dip_power = -100
			add_adm_power = -100
			add_treasury = -100
			random_province = {
				limit = {
					is_city = yes 
					has_port = yes
					OR = {
						colonial_region = colonial_endralliande
						colonial_region = colonial_isles
						colonial_region = colonial_noruin
					}
					development = 15
					country_or_non_sovereign_subject_holds = A21
				}
				add_base_production = 3
				add_base_manpower = 3
				add_base_tax = 4
				add_permanent_province_modifier = {
					name = venail_cestircel
					duration = -1
				}
				center_of_trade  = 1
			}
		}
	}
	
	A21_need_for_ressource = {
		icon = mission_raid_on_venice
		ai = yes
		position = 5
		
		required_missions = {
			A21_new_dawn_harbor
			A21_immigration_one
		}
		
		trigger = {
			custom_trigger_tooltip = {
				tooltip = venail_colony_7_tooltip
				any_subject_country = {
					is_colonial_nation_of = ROOT
					num_of_cities = 7
				}
			}
		}
		
		effect = {
			add_prestige = -10
			random_subject_country = {
				limit = {
					is_colonial_nation_of = ROOT
					num_of_cities = 7
				}
				every_owned_province = {
					add_base_production = -1
					add_base_manpower = -1
					add_base_tax = -1
					add_permanent_province_modifier = {
						name = land_drained
						duration = 18250
					}
				}
			}
			add_country_modifier = {
				name = venail_ressource_influx
				duration = 7300
			}
		}
	}
	
	A21_new_settlement = {
		icon = mission_great_trading_houses
		ai = yes
		position = 6
		
		required_missions = {
			A21_immigration_two
			A21_need_for_ressource
		}
		
		provinces_to_highlight = {
			colonial_region = colonial_noruin
		}
		
		trigger = {
			custom_trigger_tooltip = {
				tooltip = venail_colony_10_tooltip
				any_subject_country = {
					is_colonial_nation_of = A21
					capital_scope = { colonial_region = colonial_noruin }
					num_of_cities = 10
				}
			}
		}
		
		effect = {
			add_prestige = 15
			add_adm_power = 100
			add_dip_power = 100
		}
	}
	
	A21_prepare_new_capital = {
		icon = mission_metropolis_of_the_deccan
		ai = yes
		position = 7
		
		required_missions = {
			A21_new_settlement
			A21_immigration_three
		}
		
		provinces_to_highlight = {
			region = bloodgroves_region
			has_port = yes
		}
		
		trigger = {
			dip_power = 50
			mil_power = 50
			adm_power = 50
			bloodgroves_region = {
				is_city = yes 
				has_port = yes
				development = 20
				country_or_non_sovereign_subject_holds = A21
			}
		}
		
		effect = {
			add_dip_power = -50
			add_mil_power = -50
			add_adm_power = -50
			random_province = {
				limit = {
					is_city = yes 
					has_port = yes
					region = bloodgroves_region
					development = 20
					country_or_non_sovereign_subject_holds = A21
				}
				set_province_flag = venail_capital
				add_base_manpower = 3
				add_base_production = 3
				add_base_tax = 3
				center_of_trade = 1
			}
		}
	}
	
	A21_new_beginning = {
		icon = mission_settlers_north_america
		ai = yes
		position = 8
		
		required_missions = {
			A21_prepare_new_capital
		}
		
		provinces_to_highlight = {
			colonial_region = colonial_noruin
		}
		
		trigger = {
			NOT = { has_country_modifier = venail_immigration_third_step }
			custom_trigger_tooltip = {
				tooltip = venail_colony_15_tooltip
				any_subject_country = {
					is_colonial_nation_of = A21
					capital_scope = {
						colonial_region = colonial_noruin
					}
					num_of_cities = 15
				}
			}
			is_at_war = no
		}
		
		effect = {
			add_country_modifier = {
				name = venail_immigration_complete
				duration = 1825
			}
			hidden_effect = {
				every_owned_province = {
					limit = { continent = europe }
					export_to_variable = {
						which = TotalDev
						value = development
					}
					ROOT = { change_variable = { which = TotalDev which = PREV } }
				}
			}
			every_subject_country = {
				limit = { is_colonial_nation_of = A21 }
				hidden_effect = {
					export_to_variable = {
						which = treasuryAvailable
						value = treasury
						who = THIS
					}
					export_to_variable = {
						which = manpowerAvailable
						value = manpower
						who = THIS
					}
					currency_effect = { currency=treasury takeFrom=THIS addTo=ROOT which=treasuryAvailable }
					currency_effect = { currency=manpower takeFrom=THIS addTo=ROOT which=manpowerAvailable }
				}
				ROOT = { inherit = PREV }
			}
			reduce_stability_or_adm_power = yes
			if = {
				limit = {
					OR = {
						any_owned_province = { has_province_flag = venail_capital }
						any_subject_country = {
							any_owned_province = {
								has_province_flag = venail_capital
							}
						}
					}
				}
				random_province = {
					limit = { has_province_flag = venail_capital }
					move_capital_effect = yes
					if = {
						limit = {
							NOT = {
								trade_goods = gems
								trade_goods = gold
								trade_goods = damestear
								trade_goods = precursor_relics
								trade_goods = dyes
							}
						}
						change_trade_goods = paper
					}
					add_center_of_trade_level = 1
					rename_capital = "Aelnar"
					change_province_name = "Aelnar"
				}
			}
			else = {
				random_province = {
					limit = { colonial_region = colonial_noruin }
					move_capital_effect = yes
					if = {
						limit = {
							NOT = {
								trade_goods = gems
								trade_goods = gold
								trade_goods = damestear
								trade_goods = precursor_relics
								trade_goods = dyes
							}
						}
						change_trade_goods = paper
					}
					add_center_of_trade_level = 1
					rename_capital = "Aelnar"
					change_province_name = "Aelnar"
				}
			}
			# Country with rights settles island, must happen before decolonization
			hidden_effect = { 88 = { owner = { country_event = { id = venail.20 } } } }
			hidden_effect = { country_event = { id = venail.105 } }
			custom_tooltip = venail_new_beginning_tooltip
		}
	}
	
	A21_stabilize = {
		icon = mission_alliances
		ai = yes
		position = 9
		
		required_missions = {
			A21_new_beginning
		}
		
		trigger = {
			if = {
				limit = {ai = no}
				stability = 3
			}
			else = {
				always = yes
			}
		}
		
		effect = {
			add_prestige = 20
			add_country_modifier = {
				name = venail_autonomy
				duration = 14600
			}
			country_event = { id = venail.12 }
		}
	}
	
	A21_renovate_political_system = {
		icon = mission_empire
		ai = yes
		position = 10
		
		required_missions = {
			A21_stabilize
		}
		
		trigger = {
			adm_power = 100
			dip_power = 100
			mil_power = 100
		}
		
		effect = {
			add_adm_power = -100
			add_mil_power = -100
			add_dip_power = -100
			change_government = monarchy
			country_event = { id = venail.13 }
		}
	}
	
	A21_elven_rekindling = {
		icon = mission_the_third_rome
		ai = yes
		position = 11
		
		required_missions = {
			A21_renovate_political_system
			A21_trading_hub
			A21_the_teal_armada
		}
		
		trigger = {
			always = yes
		}
		
		effect = {
			country_event = { id = venail.8 }
			set_country_flag = elven_rekindling
		}
	}
}

venail_4 = {
	slot = 4
	generic = no
	ai = yes
	has_country_shield = yes
	
	potential = {
		tag = A21
	}
	
	A21_new_elven_legion = {
		icon = mission_have_two_subjects
		ai = yes
		position = 9
		
		required_missions = {
			A21_new_beginning
		}
		
		trigger = {
			mil_power = 100
			if = {
				limit = {ai = no}
				army_size = 40
			}
			else = {
				army_size = 20
			}
		}
		
		effect = {
			add_mil_power = -100
			add_country_modifier = {
				name = venail_legion
				duration = 14600
			}
			country_event = { id = venail.14 }
		}
	}
	
	A21_the_teal_armada = {
		icon = mission_rb_scottish_north_sea_trade
		ai = yes
		position = 10
		
		required_missions = {
			A21_new_elven_legion
		}
		
		trigger = {
			dip_power = 100
			if = {
				limit = {ai = no}
				OR = {
					num_of_heavy_ship = 10
					navy_size_percentage = 0.95
				}
			}
			else = {
				num_of_heavy_ship = 5
			}
		}
		
		effect = {
			add_dip_power = -100
			add_country_modifier = {
				name = venail_new_fleet
				duration = 14600
			}
			country_event = { id = venail.15 }
		}
	}
}