estate_middlecastes =
{
	icon = 9

	# If true, country will get estate
	trigger = {
		NOT = { has_estate = estate_vaisyas }
		NOT = { has_estate = estate_jains }
		NOT = { has_reform = pirate_republic_reform }
		NOT = { has_government_attribute = is_merchant_republic }
		NOT = { has_reform = veche_republic }
		NOT = { has_reform = trading_city }
		NOT = { is_revolutionary_republic_trigger = yes }
		NOT = { has_reform = technocracy_republic_reform }
		NOT = { has_reform = cossacks_reform }
		NOT = { government = native }
		NOT = { has_reform = siberian_tribe }
		OR = {
			NOT = { has_reform = celestial_empire }
			has_dlc = "Mandate of Heaven"
		}
		is_nomad = no
		is_colonial_nation = no
		NOT = { has_reform = revolutionary_empire_reform }
		

		###Anbennar
		NOT = { has_adventurer_reform = yes }
		NOT = { has_reform = technocracy_republic_reform }
		NOT = { has_reform = enlightened_empire_reform }
		NOT = { has_reform = hobgoblin_stratocracy_reform }
		NOT = { has_reform = gang_control_reform }
		NOT = { has_reform = ar_callein_reform }
		NOT = { has_estate = estate_castonath_patricians }
		NOT = { has_reform = northern_league_magnates }
		NOT = { has_reform = infernal_autocracy }
		NOT = { has_country_modifier = anti_cartel_policies }
		is_monstrous_horde = no

		#Raheni cultures have castes, if they have the correct flag (set in history files):
		has_country_flag = has_caste_estates
	}

	# These scale with loyalty & power
	country_modifier_happy = {
		trade_efficiency = 0.2
		development_cost = -0.1
	}
	country_modifier_neutral = {
		trade_efficiency = 0.2
	}
	country_modifier_angry = {
		trade_efficiency = -0.1
		development_cost = 0.1
		global_unrest = 2
	}
	land_ownership_modifier = {
		middlecastes_loyalty_modifier = 0.2
	}

	province_independence_weight = {
		factor = 1
		modifier = {
			factor = 0.1
			NOT = { development = 5 }
		}
		modifier = {
			factor = 0.5
			OR = {
				NOT = { development = 10 }
				NOT = { province_trade_power = 5 }
			}
		}
		modifier = {
			factor = 2
			development = 20
		}
		modifier = {
			factor = 0.5
			is_territorial_core = owner
		}
		modifier = {
			factor = 1.5
			province_trade_power = 10
		}
		modifier = {
			factor = 1.5
			province_trade_power = 20
		}
		modifier = {
			factor = 1.5
			has_province_modifier = thankful_guilds
		}
		modifier = {
			factor = 10
			OR = {
				has_terrain = city_terrain
				has_terrain = dwarven_hold
				has_terrain = dwarven_hold_surface
			}

		}
	}

	# Influence modifiers
	base_influence = 10
	influence_modifier = {
		desc = EST_VAMPIRIC_LORD
		trigger = {
			has_estate_privilege = estate_vampires_organization_vampires_lord
		}
		influence = -10
	}
	influence_modifier = {
		desc = EST_HIGH_DEVELOPMENT_PROVINCE
		trigger = {
			any_owned_province = {
				development = 30
			}
		}
		influence = 5
	}
	influence_modifier = {
		desc = EST_VAL_COT
		trigger = {
			NOT = { has_reform = free_city }
			any_owned_province = {
				province_has_center_of_trade_of_level = 1
			}
		}
		influence = 5
	}
	influence_modifier = {
		desc = EST_VAL_HANSEATIC_CITY
		trigger = {
			NOT = { has_reform = free_city }
			OR = {
				capital = 1 #Stockholm
				capital = 6 #Skåne
				capital = 23 #Bergen
				capital = 36 #Reval
				capital = 38 #Riga
				capital = 41 #Königsberg
				capital = 43 #Danzig
				capital = 44 #Hamburg
				capital = 45 #Lubeck
				capital = 46 #Wismar
				capital = 47 #Stralsund
				capital = 52 #Magdeburg
				capital = 53 #Luneburg
				capital = 54 #Stade
				capital = 56 #Osnabruck
				capital = 57 #Brunswick
				capital = 85 #Köln
				capital = 86 #Munster
				capital = 90 #Bruges
				capital = 100 #Groningen
				capital = 236 #London
				capital = 238 #Ipswich
				capital = 274 #Pskov
				capital = 275 #Polotsk
				capital = 310 #Novgorod
				capital = 1744 # Antwerp
				capital = 1834 # Dorpat
				capital = 1858 # Stettin
				capital = 1859 # Torun
				capital = 1860 # Bishop's Lynn
				capital = 1874 # Bremen
				capital = 1936 # Kaunas
				capital = 2994 # Greifswald
				capital = 2995 # Stolp
			}
		}
		influence = 5
	}
	influence_modifier = {
		desc = EST_VAL_EAST_AFRICAN_TRADE_CITIES
		trigger = {
			capital_scope = {
				OR = {
					area = central_swahili_coast_area
					area = mombasa_area
					area = mozambique_area
					area = northern_swahili_coast_area
					area = mogadishu_area
				}
			}
		}
		influence = 5
	}
	influence_modifier = {
		desc = EST_VAL_LOW_TRADE_INCOME
		trigger = {
			NOT = { trade_income_percentage = 0.25 }
		}
		influence = -5
	}
	influence_modifier = {
		desc = EST_VAL_HIGH_TRADE_INCOME
		trigger = {
			trade_income_percentage = 0.5
			NOT = { trade_income_percentage = 0.75 }
		}
		influence = 5
	}
	influence_modifier = {
		desc = EST_VAL_VERY_HIGH_TRADE_INCOME
		trigger = {
			trade_income_percentage = 0.75
		}
		influence = 10
	}
	influence_modifier = {
		desc = EST_VAL_OTHER_ESTATE_IN_POWER
		trigger = {
			OR = {
				has_disaster = estate_nobility_disaster
				has_disaster = estate_church_disaster
				has_disaster = estate_mages_disaster
				has_disaster = estate_artificers_disaster
				has_disaster = estate_adventurers_disaster
				#has_disaster = estate_uppercastes_disaster #TODO: create disaster
				#has_disaster = estate_lowercastes_distaster #TODO: create disaster
				#has_disaster = estate_brahmins_disaster
				#has_disaster = estate_jains_disaster
			}
		}
		influence = -40
	}

	loyalty_modifier = {
		desc = EST_VAL_OTHER_ESTATE_IN_POWER_LOY
		trigger = {
			OR = {
				has_disaster = estate_nobility_disaster
				has_disaster = estate_church_disaster
				has_disaster = estate_mages_disaster
				has_disaster = estate_artificers_disaster
				has_disaster = estate_adventurers_disaster
				#has_disaster = estate_uppercastes_disaster #TODO: create disaster
				#has_disaster = estate_lowercastes_distaster #TODO: create disaster
				#has_disaster = estate_brahmins_disaster
				#has_disaster = estate_jains_disaster
			}
		}
		loyalty = -20
	}

	color = { 35 35 150 }

	privileges = {
		estate_middlecastes_organization_caste
		estate_middlecastes_land_rights
		estate_middlecastes_land_of_commerce
		estate_middlecastes_admirals
		estate_middlecastes_patronage_of_the_arts
		estate_middlecastes_new_world_charter
		estate_middlecastes_indebted_to_middlecastes
		estate_middlecastes_free_enterprise
		estate_middlecastes_control_over_monetary_policy
		estate_middlecastes_private_trade_fleets
		estate_middlecastes_monopoly_of_textiles
		estate_middlecastes_monopoly_of_dyes
		estate_middlecastes_monopoly_of_glass
		estate_middlecastes_monopoly_of_paper
		estate_middlecastes_enforced_interfaith_dialogue
		estate_middlecastes_statutory_rights
		estate_middlecastes_white_guild_independent_operations
		estate_middlecastes_white_guild_state_control
		estate_middlecastes_indigo_guild
	}

	agendas = {
		estate_middlecastes_hire_advisor
		estate_middlecastes_fire_advisor
		estate_middlecastes_pay_off_loans
		estate_middlecastes_restore_republican_tradition
		estate_middlecastes_restore_currency
		estate_middlecastes_recovery_from_hyperinflation
		estate_middlecastes_build_a_fleet
		estate_middlecastes_bigger_fleet_than_rival
		estate_middlecastes_improve_dip_rep
		estate_middlecastes_get_cash
		estate_middlecastes_reduce_corruption

		estate_middlecastes_develop_x
		estate_middlecastes_build_trade_building_in_y
		estate_middlecastes_build_port_building_in_y
		estate_middlecastes_build_production_building_in_y
		estate_middlecastes_build_university_in_y
		estate_middlecastes_build_manufactory_in_y
	}

	influence_from_dev_modifier = 1.0
}
