
country_decisions = {

	cast_siege_magic = {
	
		major = yes
		
		potential = {
			ruler_has_mage_personality = yes
			months_of_ruling = 2
			NOT = { has_ruler_flag = magic_menu_opened }
		}
		allow = {
			is_at_war = yes
			NOT = { has_ruler_modifier = magic_siege_cooldown }
			is_lesser_in_union = no
			any_army = {
				location = {
					fort_level = 1
					sieged_by = ROOT
					unit_has_leader = yes
				}
			}
			hidden_trigger = {
				NOT = { has_ruler_flag = magic_menu_opened }
			}
		}
		effect = {
			set_ruler_flag = magic_siege_menu
			custom_tooltip = open_siege_magic_menu_tt
			hidden_effect = { country_event = { id = magic_siege.1 } }
			open_single_menu = yes	#prevents people from opening the menu multiple times
		}
		ai_will_do = {
			factor = 1
			modifier = {
				factor = 0
				OR = {
					NOT = { adm_power = 20 }
					NOT = { dip_power = 20 }
					NOT = { mil_power = 20 }
				}
			}
		}
	}
	
	
	# cast_battle_magic = {
	
		# major = yes
		
		# potential = {
			# #ruler_has_mage_personality = yes #disabling this cos it doesnt work
		# }
		# allow = {
			# any_province = {	#does work
				# #limit = {
					# unit_has_leader = yes
					# unit_in_battle = yes
					# num_of_units_in_province = {
						# who = ROOT
						# amount = 1
					# }
				# #}
			# }
			# NOT = {
				# has_ruler_modifier = ruler_recently_casted_spell
			# }
		# }
		# effect = {
			# country_event = { id = magic_battle.1 days = 0 }
		# }
		# ai_will_do = {
			# factor = 1
			# modifier = {
				# factor = 0
				# OR = {
					# NOT = { adm_power = 20 }
					# NOT = { dip_power = 20 }
					# NOT = { mil_power = 20 }
				# }
			# }
		# }
	# }
	
	
	# cast_realm_magic = {
	
		# major = yes
		
		# potential = {
			# ruler_has_mage_personality = yes
			# months_of_ruling = 2
			# NOT = { has_ruler_flag = magic_menu_opened }
			# NOT = { has_ruler_modifier = magic_realm_menu_cooldown }
		# }
		# allow = {
			# NOT = { has_ruler_modifier = ruler_recently_casted_spell }
			# is_lesser_in_union = no
		# }
		# effect = {
			# country_event = { id = magic_realm.0 days = 0 }
			# open_single_menu = yes	#prevents people from opening the menu multiple times
			# #Allows for vampires that become mages naturally
			# hidden_effect = {
				# if = { 
					# limit = { has_ruler_flag = is_a_vampire }
					# set_country_flag = mage_vampire
				# }
			# }
		# }
		# ai_will_do = {
			# factor = 1
			# modifier = {
				# factor = 0
				# OR = {
					# NOT = { adm_power = 100 }
					# NOT = { dip_power = 100 }
					# NOT = { mil_power = 100 }
				# }
			# }
			# modifier = {
				# factor = 0
				# NOT = { has_ruler_flag = abjuration_1 }
				# NOT = { has_ruler_flag = conjuration_1 }
				# NOT = { has_ruler_flag = divination_1 }
				# NOT = { has_ruler_flag = illusion_1 }
				# NOT = { has_ruler_flag = enchantment_1 }
				# NOT = { has_ruler_flag = evocation_1 }
				# NOT = { has_ruler_flag = necromancy_1 }
				# NOT = { has_ruler_flag = transmutation_1 }
			# }
		# }
	# }
	
	
	# study_magic = {
	
		# major = yes
		
		# potential = {
			# ruler_has_mage_personality = yes
			# hidden_trigger = {
				# NOT = { has_ruler_flag = magic_menu_opened }
				# NOT = { has_ruler_modifier = magic_study_menu_cooldown }
			# }
			# is_lesser_in_union = no
			# months_of_ruling = 2
		# }
		# allow = {
			# if = { limit = { has_ruler_flag = abjuration_3 }
				# custom_trigger_tooltip = { always = yes tooltip = tooltip_has_abjuration_3 }
			# }
			# else_if = { limit = { has_ruler_flag = abjuration_2 }
				# custom_trigger_tooltip = { always = yes tooltip = tooltip_has_abjuration_2 }
			# }
			# else_if = { limit = { has_ruler_flag = abjuration_1 }
				# custom_trigger_tooltip = { always = yes tooltip = tooltip_has_abjuration_1 }
			# }
			# else = {
				# custom_trigger_tooltip = { always = yes tooltip = tooltip_has_abjuration_0 }
			# }
			
			# if = { limit = { has_ruler_flag = conjuration_3 }
				# custom_trigger_tooltip = { always = yes tooltip = tooltip_has_conjuration_3 }
			# }
			# else_if = { limit = { has_ruler_flag = conjuration_2 }
				# custom_trigger_tooltip = { always = yes tooltip = tooltip_has_conjuration_2 }
			# }
			# else_if = { limit = { has_ruler_flag = conjuration_1 }
				# custom_trigger_tooltip = { always = yes tooltip = tooltip_has_conjuration_1 }
			# }
			# else = {
				# custom_trigger_tooltip = { always = yes tooltip = tooltip_has_conjuration_0 }
			# }
			
			# if = { limit = { has_ruler_flag = divination_3 }
				# custom_trigger_tooltip = { always = yes tooltip = tooltip_has_divination_3 }
			# }
			# else_if = { limit = { has_ruler_flag = divination_2 }
				# custom_trigger_tooltip = { always = yes tooltip = tooltip_has_divination_2 }
			# }
			# else_if = { limit = { has_ruler_flag = divination_1 }
				# custom_trigger_tooltip = { always = yes tooltip = tooltip_has_divination_1 }
			# }
			# else = {
				# custom_trigger_tooltip = { always = yes tooltip = tooltip_has_divination_0 }
			# }
			
			# if = { limit = { has_ruler_flag = enchantment_3 }
				# custom_trigger_tooltip = { always = yes tooltip = tooltip_has_enchantment_3 }
			# }
			# else_if = { limit = { has_ruler_flag = enchantment_2 }
				# custom_trigger_tooltip = { always = yes tooltip = tooltip_has_enchantment_2 }
			# }
			# else_if = { limit = { has_ruler_flag = enchantment_1 }
				# custom_trigger_tooltip = { always = yes tooltip = tooltip_has_enchantment_1 }
			# }
			# else = {
				# custom_trigger_tooltip = { always = yes tooltip = tooltip_has_enchantment_0 }
			# }
			
			# if = { limit = { has_ruler_flag = evocation_3 }
				# custom_trigger_tooltip = { always = yes tooltip = tooltip_has_evocation_3 }
			# }
			# else_if = { limit = { has_ruler_flag = evocation_2 }
				# custom_trigger_tooltip = { always = yes tooltip = tooltip_has_evocation_2 }
			# }
			# else_if = { limit = { has_ruler_flag = evocation_1 }
				# custom_trigger_tooltip = { always = yes tooltip = tooltip_has_evocation_1 }
			# }
			# else = {
				# custom_trigger_tooltip = { always = yes tooltip = tooltip_has_evocation_0 }
			# }
			
			# if = { limit = { has_ruler_flag = illusion_3 }
				# custom_trigger_tooltip = { always = yes tooltip = tooltip_has_illusion_3 }
			# }
			# else_if = { limit = { has_ruler_flag = illusion_2 }
				# custom_trigger_tooltip = { always = yes tooltip = tooltip_has_illusion_2 }
			# }
			# else_if = { limit = { has_ruler_flag = illusion_1 }
				# custom_trigger_tooltip = { always = yes tooltip = tooltip_has_illusion_1 }
			# }
			# else = {
				# custom_trigger_tooltip = { always = yes tooltip = tooltip_has_illusion_0 }
			# }
			
			# if = { limit = { has_ruler_flag = necromancy_3 }
				# custom_trigger_tooltip = { always = yes tooltip = tooltip_has_necromancy_3 }
			# }
			# else_if = { limit = { has_ruler_flag = necromancy_2 }
				# custom_trigger_tooltip = { always = yes tooltip = tooltip_has_necromancy_2 }
			# }
			# else_if = { limit = { has_ruler_flag = necromancy_1 }
				# custom_trigger_tooltip = { always = yes tooltip = tooltip_has_necromancy_1 }
			# }
			# else = {
				# custom_trigger_tooltip = { always = yes tooltip = tooltip_has_necromancy_0 }
			# }
			
			# if = { limit = { has_ruler_flag = transmutation_3 }
				# custom_trigger_tooltip = { always = yes tooltip = tooltip_has_transmutation_3 }
			# }
			# else_if = { limit = { has_ruler_flag = transmutation_2 }
				# custom_trigger_tooltip = { always = yes tooltip = tooltip_has_transmutation_2 }
			# }
			# else_if = { limit = { has_ruler_flag = transmutation_1 }
				# custom_trigger_tooltip = { always = yes tooltip = tooltip_has_transmutation_1 }
			# }
			# else = {
				# custom_trigger_tooltip = { always = yes tooltip = tooltip_has_transmutation_0 }
			# }
			# custom_trigger_tooltip = {
				# tooltip = ruler_not_studying_magic_tooltip
				# NOT = { has_ruler_modifier = ruler_studying_magic }
				# NOT = { has_ruler_flag = ruler_studying_abjuration } 
				# NOT = { has_ruler_flag = ruler_studying_conjuration } 
				# NOT = { has_ruler_flag = ruler_studying_divination } 
				# NOT = { has_ruler_flag = ruler_studying_enchantment } 
				# NOT = { has_ruler_flag = ruler_studying_evocation } 
				# NOT = { has_ruler_flag = ruler_studying_illusion } 
				# NOT = { has_ruler_flag = ruler_studying_necromancy } 
				# NOT = { has_ruler_flag = ruler_studying_transmutation }
			# }
		# }
		# effect = {
			# country_event = { id = magic_study.0 days = 0 }
			# open_single_menu = yes	#prevents people from opening the menu multiple times
		# }
		# ai_will_do = {
			# factor = 1
			# modifier = {
				# factor = 0
				# OR = { 
					# NOT = { adm_power = 50 }
					# NOT = { dip_power = 50 }
					# NOT = { mil_power = 50 }
				# }
			# }
		# }
	# }
	
	cast_ruler_magic = {
	
		major = yes
		
		potential = {
			ruler_has_mage_personality = yes
			months_of_ruling = 2
			NOT = { has_ruler_flag = magic_menu_opened }
			NOT = { has_ruler_modifier = magic_realm_menu_cooldown }
			if = { limit = { has_ruler_flag = abjuration_3 }
				custom_trigger_tooltip = { always = yes tooltip = tooltip_has_abjuration_3 }
			}
			else_if = { limit = { has_ruler_flag = abjuration_2 }
				custom_trigger_tooltip = { always = yes tooltip = tooltip_has_abjuration_2 }
			}
			else_if = { limit = { has_ruler_flag = abjuration_1 }
				custom_trigger_tooltip = { always = yes tooltip = tooltip_has_abjuration_1 }
			}
			else = {
				custom_trigger_tooltip = { always = yes tooltip = tooltip_has_abjuration_0 }
			}
			
			if = { limit = { has_ruler_flag = conjuration_3 }
				custom_trigger_tooltip = { always = yes tooltip = tooltip_has_conjuration_3 }
			}
			else_if = { limit = { has_ruler_flag = conjuration_2 }
				custom_trigger_tooltip = { always = yes tooltip = tooltip_has_conjuration_2 }
			}
			else_if = { limit = { has_ruler_flag = conjuration_1 }
				custom_trigger_tooltip = { always = yes tooltip = tooltip_has_conjuration_1 }
			}
			else = {
				custom_trigger_tooltip = { always = yes tooltip = tooltip_has_conjuration_0 }
			}
			
			if = { limit = { has_ruler_flag = divination_3 }
				custom_trigger_tooltip = { always = yes tooltip = tooltip_has_divination_3 }
			}
			else_if = { limit = { has_ruler_flag = divination_2 }
				custom_trigger_tooltip = { always = yes tooltip = tooltip_has_divination_2 }
			}
			else_if = { limit = { has_ruler_flag = divination_1 }
				custom_trigger_tooltip = { always = yes tooltip = tooltip_has_divination_1 }
			}
			else = {
				custom_trigger_tooltip = { always = yes tooltip = tooltip_has_divination_0 }
			}
			
			if = { limit = { has_ruler_flag = enchantment_3 }
				custom_trigger_tooltip = { always = yes tooltip = tooltip_has_enchantment_3 }
			}
			else_if = { limit = { has_ruler_flag = enchantment_2 }
				custom_trigger_tooltip = { always = yes tooltip = tooltip_has_enchantment_2 }
			}
			else_if = { limit = { has_ruler_flag = enchantment_1 }
				custom_trigger_tooltip = { always = yes tooltip = tooltip_has_enchantment_1 }
			}
			else = {
				custom_trigger_tooltip = { always = yes tooltip = tooltip_has_enchantment_0 }
			}
			
			if = { limit = { has_ruler_flag = evocation_3 }
				custom_trigger_tooltip = { always = yes tooltip = tooltip_has_evocation_3 }
			}
			else_if = { limit = { has_ruler_flag = evocation_2 }
				custom_trigger_tooltip = { always = yes tooltip = tooltip_has_evocation_2 }
			}
			else_if = { limit = { has_ruler_flag = evocation_1 }
				custom_trigger_tooltip = { always = yes tooltip = tooltip_has_evocation_1 }
			}
			else = {
				custom_trigger_tooltip = { always = yes tooltip = tooltip_has_evocation_0 }
			}
			
			if = { limit = { has_ruler_flag = illusion_3 }
				custom_trigger_tooltip = { always = yes tooltip = tooltip_has_illusion_3 }
			}
			else_if = { limit = { has_ruler_flag = illusion_2 }
				custom_trigger_tooltip = { always = yes tooltip = tooltip_has_illusion_2 }
			}
			else_if = { limit = { has_ruler_flag = illusion_1 }
				custom_trigger_tooltip = { always = yes tooltip = tooltip_has_illusion_1 }
			}
			else = {
				custom_trigger_tooltip = { always = yes tooltip = tooltip_has_illusion_0 }
			}
			
			if = { limit = { has_ruler_flag = necromancy_3 }
				custom_trigger_tooltip = { always = yes tooltip = tooltip_has_necromancy_3 }
			}
			else_if = { limit = { has_ruler_flag = necromancy_2 }
				custom_trigger_tooltip = { always = yes tooltip = tooltip_has_necromancy_2 }
			}
			else_if = { limit = { has_ruler_flag = necromancy_1 }
				custom_trigger_tooltip = { always = yes tooltip = tooltip_has_necromancy_1 }
			}
			else = {
				custom_trigger_tooltip = { always = yes tooltip = tooltip_has_necromancy_0 }
			}
			
			if = { limit = { has_ruler_flag = transmutation_3 }
				custom_trigger_tooltip = { always = yes tooltip = tooltip_has_transmutation_3 }
			}
			else_if = { limit = { has_ruler_flag = transmutation_2 }
				custom_trigger_tooltip = { always = yes tooltip = tooltip_has_transmutation_2 }
			}
			else_if = { limit = { has_ruler_flag = transmutation_1 }
				custom_trigger_tooltip = { always = yes tooltip = tooltip_has_transmutation_1 }
			}
			else = {
				custom_trigger_tooltip = { always = yes tooltip = tooltip_has_transmutation_0 }
			}
		}
		allow = {
			is_lesser_in_union = no
			if = { limit = { ai = yes }
				NOT = { has_ruler_modifier = ruler_recently_casted_spell }
			}
		}
		effect = {
			custom_tooltip = open_ruler_magic_menu_tt
			hidden_effect = { country_event = { id = magic_ruler.0 } }
			open_single_menu = yes	#prevents people from opening the menu multiple times
			#Allows for vampires that become mages naturally
			hidden_effect = {
				if = { 
					limit = { has_ruler_flag = is_a_vampire }
					set_country_flag = mage_vampire
				}
			}
		}
		ai_will_do = {
			factor = 1
			modifier = {
				factor = 0
				OR = {
					NOT = { adm_power = 100 }
					NOT = { dip_power = 100 }
					NOT = { mil_power = 100 }
				}
			}
			modifier = {
				factor = 0
				NOT = { has_ruler_flag = abjuration_1 }
				NOT = { has_ruler_flag = conjuration_1 }
				NOT = { has_ruler_flag = divination_1 }
				NOT = { has_ruler_flag = illusion_1 }
				NOT = { has_ruler_flag = enchantment_1 }
				NOT = { has_ruler_flag = evocation_1 }
				NOT = { has_ruler_flag = necromancy_1 }
				NOT = { has_ruler_flag = transmutation_1 }
			}
		}
	}
	
	abandon_ruler_magical_studies = {
	
		major = yes
		
		potential = {
			ai = no
			ruler_has_mage_personality = yes
			has_ruler_modifier = ruler_studying_magic
		}
		allow = {
			has_ruler_modifier = ruler_studying_magic
			NOT = { has_finished_magical_studies = yes }
		}
		effect = {
			magic_study_clear_study_effects = yes
		}
		ai_will_do = {
			factor = 0
		}
	}
	
	make_ruler_general = {
	
		major = yes
		
		potential = {
			ruler_has_mage_personality = yes
			is_monarch_leader = no
			has_consort_regency = no
			is_lesser_in_union = no
			has_regency = no
			NOT = { has_ruler_flag = mage_ruler_general }
		}
		allow = {
			is_monarch_leader = no
			has_consort_regency = no
			has_regency = no
		}
		effect = {
			custom_tooltip = make_ruler_general_tooltip
			set_ruler_flag = mage_ruler_general
			hidden_effect = {
				country_event = { id = magic_ruler.100 }
			}
		}
		ai_will_do = {
			factor = 1
			
			modifier = {
				factor = 0
				NOT = { war_score = -15 }
			}
		}
		ai_importance = 400
	}
	
	patron_interactions = {
	
		major = yes
		
		potential = {
			has_patron_trigger = yes
			hidden_trigger = {
				NOT = { has_ruler_flag = magic_menu_opened }
				NOT = { has_ruler_modifier = ai_patron_limiter }
			}
			is_lesser_in_union = no
		}
		allow = {
			custom_trigger_tooltip = { always = yes tooltip = tooltip_patron_type }
			custom_trigger_tooltip = { always = yes tooltip = tooltip_patron_approval }
		}
		effect = {
			country_event = { id = patrons_events.1 days = 0 }
			open_single_menu = yes #prevent menu spam
		}
		ai_will_do = {
			factor = 1
			modifier = {
				factor = 0
				OR = { 
					NOT = { adm_power = 50 }
					NOT = { dip_power = 50 }
					NOT = { mil_power = 50 }
				}
			}
		}
	}

	seek_patron = {
	
		major = yes
		
		potential = {
			has_ruler_flag = spirit_patron_delayed
			hidden_trigger = {
				NOT = { has_ruler_flag = magic_menu_opened }
				NOT = { has_ruler_modifier = ai_patron_limiter }
			}
			is_lesser_in_union = no
		}
		allow = {
			has_ruler_flag = spirit_patron_delayed
		}
		effect = {
			country_event = { id = patrons_events.2 days = 0 }
			open_single_menu = yes	#prevents people from opening the menu multiple times
		}
		ai_will_do = {
			factor = 1
			modifier = {
				factor = 0
				OR = { 
					NOT = { adm_power = 50 }
					NOT = { dip_power = 50 }
					NOT = { mil_power = 50 }
				}
			}
		}
	}
}