
segamlavad_seghdihr_loyalty = {
	category = 1

	allow = { 
		has_reform = seghdihr_segamlavad 
		owns = 4124
	}
	
	on_issue_taken = {
		if = {
			limit = { 4124 = { NOT = { is_backing_current_issue = yes } } }
			4124 = { back_current_issue = yes }
		}
	}

	effect = {
		add_prestige = 10
		4124 = { add_base_tax = 1 }
	}
	
	modifier = {
		legitimacy = 1
		church_loyalty_modifier = 0.05
		burghers_loyalty_modifier = 0.05
		mages_loyalty_modifier = 0.05
		adventurers_loyalty_modifier = 0.05
		artificers_loyalty_modifier = 0.05
	}
	
	chance = {
		factor = 2
		modifier = {
			factor = 2
			NOT = { legitimacy = 50 }
		}
	}

	ai_will_do = { factor = 100 }
}

segamlavad_gulan_gold = {
	category = 2

	allow = { 
		has_reform = seghdihr_segamlavad 
		owns = 2914
	}
	
	on_issue_taken = {
		if = {
			limit = { 2914 = { NOT = { is_backing_current_issue = yes } } }
			2914 = { back_current_issue = yes }
		}
	}

	effect = {
		2914 = {
			add_base_production = 1
			add_province_modifier = { name = seghdihr_segamlavad_gulan_modifier duration = 3650 } 
		}
	}
	
	modifier = {
		inflation_reduction = 0.05
	}
	
	chance = {
		factor = 2
		modifier = {
			factor = 0.5
			inflation = 4
		}
	}

	ai_will_do = { factor = 100 }
}

segamlavad_hehodovar_forge = {
	category = 3

	allow = { 
		has_reform = seghdihr_segamlavad 
		owns = 4078
		mission_completed = seghdihr_hargunforge
	}
	
	on_issue_taken = {
		if = {
			limit = { 4078 = { NOT = { is_backing_current_issue = yes } } }
			4078 = { back_current_issue = yes }
		}
	}

	effect = {
		4078 = { add_base_production = 1 }
	}
	
	modifier = {
		land_maintenance_modifier = -0.25
		global_regiment_cost = -0.1
	}
	
	chance = {
		factor = 2
	}

	ai_will_do = { factor = 100 }
}

segamlavad_ozumbrog_faith = {
	category = 4

	allow = { 
		has_reform = seghdihr_segamlavad 
		owns = 4218
	}
	
	on_issue_taken = {
		if = {
			limit = { 4218 = { NOT = { is_backing_current_issue = yes } } }
			4218 = { back_current_issue = yes }
		}
	}

	effect = {
		4218 = { add_base_tax = 1 }
		define_advisor = {
			type = theologian
			skill = 3
			discount = yes
			culture = topaz_dwarf
			religion = ancestor_worship
		}
	}
	
	modifier = {
		tolerance_own = 2
	}
	
	chance = {
		factor = 2
		modifier = {
			factor = 2
			average_unrest = 5
		}
	}

	ai_will_do = { factor = 100 }
}

segamlavad_vazumbrog_army = {
	category = 5

	allow = { 
		has_reform = seghdihr_segamlavad 
		owns = 4217
		has_reform = seghdihr_segbandalic_military
	}
	
	on_issue_taken = {
		if = {
			limit = { 4217 = { NOT = { is_backing_current_issue = yes } } }
			4217 = { back_current_issue = yes }
		}
	}

	effect = {
		4217 = { add_base_manpower = 1 }
	}
	
	modifier = {
		yearly_army_professionalism = 0.005
		manpower_recovery_speed = 0.05
	}
	
	chance = {
		factor = 2
		modifier = {
			factor = 2
			NOT = { manpower_percentage = 0.2 }
		}
	}

	ai_will_do = { factor = 100 }
}

segamlavad_syndicate_improvement = {
	category = 6

	allow = { 
		has_reform = seghdihr_segamlavad 
		mission_completed = seghdihr_the_syndicates
	}

	effect = {
		custom_tooltip = segamlavad_syndicate_improvement_tooltip
		hidden_effect = {
			every_subject_country = {
				limit = { is_subject_of_type = seghdihr_syndicate }
				capital_scope = {
					add_base_tax = 1
					add_base_production = 2
					add_province_modifier = { name = seghdihr_segamlavad_syndicate_modifier duration = 3650 }
				}
			}
		}
	}

	chance = {
		factor = 20
	}

	ai_will_do = { factor = 100 }
}

segamlavad_syndicate_trade = {
	category = 6

	allow = { 
		has_reform = seghdihr_segamlavad 
		mission_completed = seghdihr_the_syndicates
	}

	effect = {
		add_mercantilism = 2
		4247 = { 
			add_trade_modifier = {
				who = ROOT
				duration = 3650
				power = 50
				key = SEGAMLAVAD_SYNDICATE_TRADE
			}
		}
	}
	
	chance = {
		factor = 2
	}

	ai_will_do = { factor = 100 }
}